Aggregate Source	10kb_upstream	9kb_upstream	8kb_upstream	7kb_upstream	6kb_upstream	5kb_upstream	4kb_upstream	3kb_upstream	2kb_upstream	1kb_upstream	5prime_utr	exons	introns	3prime_utr	gene_body_0_to_10	gene_body_10_to_20	gene_body_20_to_30	gene_body_30_to_40	gene_body_40_to_50	gene_body_50_to_60	gene_body_60_to_70	gene_body_70_to_80	gene_body_80_to_90	gene_body_90_to_100	1kb_downstream	2kb_downstream	3kb_downstream	4kb_downstream	5kb_downstream	6kb_downstream	7kb_downstream	8kb_downstream	9kb_downstream	10kb_downstream
Test Genes Sum	16608.6800995808	22276.9481444127	19026.3225832036	30675.2428603783	17945.3778743165	18406.345120573	18920.6024597998	27550.6789889082	35339.6273943638	22096.9817024823	478390.494784669	23276.2492038425	14405.470005515	21143.0288101634	72720.8195884155	23074.3743779214	20781.7949494981	21977.2786775971	36007.9748148789	26512.9444130023	18481.1956934764	53687.807939445	21351.4038024831	47636.1024078154	19720.9759773469	21858.1479086233	17504.2686097371	18171.0112745661	16356.1062474427	16166.6936134824	17422.8001297769	15460.1468477545	16181.5351027839	21927.1996602356
Background Genes Sum	49438.8676639422	52605.1188652928	57685.0517242874	63705.4882472054	51468.6132806806	54788.9536144288	55577.3984475426	58437.9753603172	54972.0666372695	59389.8359277315	346088.21071845	47852.881306584	48949.3346456494	5819239.61951318	288551.209469256	118486.817072263	74969.3980565081	500208.581074665	504058.049893201	1113762.62960786	1085084.15821185	1910022.3545599	859280.283872179	789555.149048163	48369.7690780262	57799.6972453346	58586.3938841457	50904.298798139	47599.9008070212	54314.1090935485	52805.1981811863	46763.7215956002	58005.5671513425	49866.5462253544
Test Genes Mean	2.26307127668358	3.0354201041576	2.59249524229508	4.17975784989485	2.44520750433527	2.50801813878907	2.57808999315981	3.7540099453479	4.81531917078128	3.0108981744764	65.1846974771317	3.17158321349537	1.96286551376414	2.8809141313753	9.90881858405989	3.14407608365191	2.83169300306556	2.99458763831545	4.90638708473619	3.61260994863091	2.51821715403685	7.3154119007283	2.90930696313982	6.49081651557643	2.68714756470186	2.97835507679838	2.38510268561618	2.47595193821585	2.22865598139293	2.20284692921139	2.37400192530003	2.10657403566623	2.20486920599318	2.98776395424929
Background Genes Mean	2.23664801230285	2.37989137103206	2.60971099006005	2.88207963478128	2.32847508508327	2.47868954100745	2.51435932173103	2.64377376765821	2.4869736987545	2.68683658739285	15.6572661381854	2.16489691035939	2.21450120546731	263.266359912829	13.0542530523551	5.36042422512954	3.39166657874177	22.6297765596573	22.8039291482628	50.3873791896425	49.0899456302863	86.4107109373823	38.874424713725	35.720012171922	2.18828126484013	2.61489763143931	2.65048832266313	2.30294511392232	2.15345190042622	2.4572072517892	2.38894309542102	2.11562258394862	2.62421132606508	2.25599648142211
Test Genes SEM	0.0665052671458316	0.550000485835353	0.280234764951111	1.89317704896883	0.0775297076545137	0.0628181794610993	0.0693980363596486	0.892968062334673	1.04289049836982	0.0634175001726857	54.9137384698011	0.59343294630714	0.0650180779985726	0.206673559205098	5.65557814937484	0.130124248101211	0.122265536701186	0.220622720355386	2.11392023750961	0.811991230750807	0.118280375016979	4.12357261932216	0.166147341595791	1.20069429043792	0.124695673808719	0.106178909671501	0.0619729639298092	0.18240510298623	0.0504387969095049	0.0721574021400009	0.161482411818824	0.0464118461086687	0.0601752696041105	0.602647362506335
Background Genes SEM	0.0340903536877639	0.158373992402647	0.196042163113624	0.62972162195676	0.0781450518149754	0.120538923133158	0.0975667195285175	0.0626926624291127	0.0482419561856253	0.0710104767015935	6.99312945933497	0.032588636436027	0.337904728320242	258.790743478803	5.90609076890339	2.25043542931857	0.554129367511597	17.5597886102905	16.2815874699749	45.6371905172606	45.6130245751128	55.622529119849	31.7837297304494	28.2600395881442	0.0375668248709255	0.0750276990567349	0.204720679147542	0.0564696553924444	0.0325754405224563	0.203143327839603	0.0855207327427938	0.0292538923609487	0.432029320973122	0.0514491647293133