Aggregate Source	10kb_upstream	9kb_upstream	8kb_upstream	7kb_upstream	6kb_upstream	5kb_upstream	4kb_upstream	3kb_upstream	2kb_upstream	1kb_upstream	5prime_utr	exons	introns	3prime_utr	gene_body_0_to_10	gene_body_10_to_20	gene_body_20_to_30	gene_body_30_to_40	gene_body_40_to_50	gene_body_50_to_60	gene_body_60_to_70	gene_body_70_to_80	gene_body_80_to_90	gene_body_90_to_100	1kb_downstream	2kb_downstream	3kb_downstream	4kb_downstream	5kb_downstream	6kb_downstream	7kb_downstream	8kb_downstream	9kb_downstream	10kb_downstream
Test Genes Sum	10567.788536976	12791.0745982392	17269.688785987	10675.1769400585	10113.3754317208	11868.6254651161	10407.8227886976	10562.4981902018	10318.0180737525	10446.8310688604	69489.3931639768	59611.3352917717	79830.945630556	65862.3159813845	224937.312065597	167353.642768068	65489.2519887272	101275.239059326	117062.393814295	88669.2884079691	151220.055981932	140101.715748772	225398.188556167	287047.868300366	17711.3235825632	17978.6639223447	11766.8362099977	11025.6303143511	10816.6623142144	10157.7533311782	11427.0996711305	9707.48315172362	11000.1940574933	10128.7123026979
Background Genes Sum	69739.7063977111	66674.8154440024	74194.4657896586	73453.2551141506	69589.6929134828	72300.0244410168	67467.4539773469	65251.4662421831	83060.314054483	64632.5247385276	796450.732934674	187405.145815585	551201.710403085	967624.290554613	928863.54659829	959204.720670605	902619.252785814	941586.109570749	1127617.35772039	1107385.35931063	1164891.77233627	1159441.83908027	1243535.26269954	1548538.21606646	92282.780918926	117598.87678624	83004.7647161978	71006.5329262745	70495.6502460653	68872.7957178964	72386.8299752206	70275.3635855623	81722.5346577289	67007.0873414586
Test Genes Mean	3.15644818906092	3.82051212611684	5.15821050955407	3.18852357827314	3.02072145511375	3.54498968492119	3.10866869435413	3.15486803769467	3.08184530279347	3.12031991304074	20.7554937765761	17.8050583308756	23.844368467908	19.6721373898998	67.1855770805249	49.9861537539032	19.5607084793092	30.2494740320569	34.9648727043891	26.4842557968844	45.1672807592388	41.8463906059653	67.3232343357726	85.7371171745419	5.29012054437372	5.36997130297035	3.51458668160026	3.29319901862338	3.23078324797325	3.03397650274141	3.41311220762561	2.89948720182904	3.28560157033851	3.02530236042352
Background Genes Mean	2.67971974630974	2.56195256268981	2.85089205723952	2.82241133964075	2.67395553942297	2.77809892184503	2.59240937472995	2.50726095070828	3.19155865723278	2.48347837612018	30.6032942530134	7.20096621769778	21.1797006879187	37.1805683210226	35.6912025590121	36.857049785614	34.6827762837969	36.1800618470989	43.3282366078918	42.5508303289387	44.7604907718067	44.5510793114417	47.7823347819227	59.5019487441482	3.5459281813228	4.51868882944245	3.18942419658781	2.72839703847356	2.70876658006015	2.64640905736393	2.78143438905747	2.70030215506483	3.14015503007604	2.57471997469581
Test Genes SEM	0.237965497627218	0.367691912010573	1.40473086171773	0.226762379344832	0.201784896156066	0.30712176459986	0.239837011723375	0.334656398703933	0.25545537962537	0.283530603208784	9.21832269996596	6.80511781827392	5.43573320848767	5.48270776500086	31.1726060283415	29.5711394896382	5.33465008641921	9.19164422064692	11.1601594012516	7.46769155915916	12.4363277369866	12.0259001442721	30.9402130258071	47.3853123820316	0.451125998997074	0.44812532214439	0.248660677198358	0.228911112252661	0.234432235646942	0.205553215552549	0.360445295355945	0.228212272683999	0.34975297443416	0.241790249446099
Background Genes SEM	0.0823330082387158	0.0795468238356483	0.170924951204109	0.120895498536177	0.077141358577826	0.0801281111083618	0.0823010654892637	0.101975408873786	0.151060045734926	0.0818663538979242	6.07562785477168	0.787184937931398	2.32210527045505	3.78616047635814	7.68481760408733	8.61222709314089	8.51982281389474	8.8341642595989	12.5056242179528	10.6487708024746	11.2778738664895	10.9601337073798	10.9663393367504	12.5210525140279	0.106384395368367	0.161811389466507	0.117362472512622	0.0750099452652384	0.0865257420452018	0.0740360743732272	0.088390325861315	0.0818738337879609	0.168192495057195	0.0833417478040474