NM_001015096
NM_001015121
NM_001015123
NM_001015174
NM_001015175
NM_001015319
NM_001015321
NM_001015349
NM_001110877
NM_001110879
NM_001110880
NM_001110894
NM_001110899
NM_001110921
NM_001276230
NM_001276233