NM_001014453
NM_001014454
NM_001014459
NM_001014461
NM_001014477
NM_001014478
NM_001014481
NM_001014498
NM_001032056
NM_001032082
NM_001032122
NM_001032163
NM_001032217
NM_001038772
NM_001038773
NM_001038775
NM_001038776
NM_001038816
NM_001038842
NM_001038843
NM_001042863
NM_001042873
NM_001042877
NM_001042878
NM_001042895
NM_001042909
NM_001042931
NM_001042934
NM_001042942
NM_001042943
NM_001042951
NM_001042961
NM_001103580
NM_001103598
NM_001103645
NM_001103646
NM_001103647
NM_001103652
NM_001103656
NM_001103659
NM_001103707
NM_001103719
NM_001144289
NM_001144302
NM_001144311
NM_001144326
NM_001144336
NM_001144361
NM_001144375
NM_001144379
NM_001169366
NM_001169367
NM_001169368
NM_001169369
NM_001169384
NM_001169403
NM_001169414
NM_001169420
NM_001169448
NM_001169455
NM_001169457
NM_001169493
NM_001169503
NM_001169527
NM_001169559
NM_001169561
NM_001169571
NM_001201759
NM_001201762
NM_001201766
NM_001201785
NM_001201789
NM_001201790
NM_001201796
NM_001201818
NM_001201862
NM_001201872
NM_001201873
NM_001201886
NM_001201897
NM_001201898
NM_001201908
NM_001201909
NM_001201926
NM_001201928
NM_001201931
NM_001258873
NM_001258881
NM_001258889
NM_001258890
NM_001258910
NM_001258911
NM_001258912
NM_001258921
NM_001258957
NM_001258977
NM_001258978
NM_001258979
NM_001258981
NM_001258982
NM_001258989
NM_001258998
NM_001259008
NM_001259014
NM_001259024
NM_001259026
NM_001259028
NM_001259047
NM_001259077
NM_001259109
NM_001259115
NM_001259124
NM_001259133
NM_001259152
NM_001259172
NM_001259181
NM_001259190
NM_001259193
NM_001259197
NM_001259198
NM_001272866
NM_001272873
NM_001272874
NM_001272875
NM_001272885
NM_001272888
NM_001272896
NM_001272904
NM_001272908
NM_001272914
NM_001272930
NM_001272947
NM_001272971
NM_001272975
NM_001272982
NM_001272999
NM_001273023
NM_001273026
NM_001273027
NM_001273034
NM_001273041
NM_001273044
NM_001273050
NM_001273063
NM_001273068
NM_001273069
NM_001273082
NM_001273084
NM_001273094
NM_001273119
NM_001273134
NM_001273138
NM_001273143
NM_001273153
NM_001273155
NM_001273159
NM_001273162
NM_001273164
NM_001273197
NM_001273202
NM_001273223
NM_001273224
NM_001273238
NM_001273239
NM_001273242
NM_001273255
NM_001273266
NM_001273271
NM_001273273
NM_001273275
NM_001273289
NM_001273293
NM_001273297
NM_001273305
NM_001273318
NM_001273323
NM_001273330
NM_001273333
NM_001273364
NM_001273368
NM_001273383
NM_001273387
NM_001273388
NM_001273389
NM_001273398
NM_001273403
NM_001273404
NM_001273406
NM_001273411
NM_001273414
NM_001273416
NM_001273423
NM_001273433
NM_001273443
NM_001273451
NM_001273452
NM_001273456
NM_001273470
NM_001273484
NM_001273491
NM_001273496
NM_001273498
NM_001273499
NM_001273500
NM_001273505
NM_001273524
NM_001273526
NM_001273532
NM_001273543
NM_001273558
NM_001273562
NM_001273566
NM_001273567
NM_001273572
NM_001273574
NM_001273581
NM_001273584
NM_001273590
NM_001273600
NM_001273601
NM_001273638
NM_001273646
NM_001273651
NM_001273652
NM_001273667
NM_001273669
NM_001273671
NM_001273681
NM_001273683
NM_001273708
NM_001273717
NM_001273719
NM_001273734
NM_001273738
NM_001273740
NM_001273741
NM_001273748
NM_001273749
NM_001273757
NM_001273761
NM_001273762
NM_001273763
NM_001273767
NM_057217
NM_057257
NM_057270
NM_057405
NM_057432
NM_057449
NM_057471
NM_057492
NM_057539
NM_057590
NM_057595
NM_057597
NM_057628
NM_057633
NM_057692
NM_057698
NM_057819
NM_057826
NM_057839
NM_057849
NM_057864
NM_057875
NM_057895
NM_057908
NM_057910
NM_057940
NM_058025
NM_058093
NM_058112
NM_058119
NM_058139
NM_058148
NM_058156
NM_078717
NM_078725
NM_078726
NM_078731
NM_078733
NM_078747
NM_078762
NM_078777
NM_078806
NM_078836
NM_078840
NM_078847
NM_078848
NM_078865
NM_078884
NM_078888
NM_079948
NM_079949
NM_079959
NM_079979
NM_080009
NM_080189
NM_080360
NM_080364
NM_080765
NM_134296
NM_134302
NM_134320
NM_134642
NM_134649
NM_134661
NM_134683
NM_134692
NM_134724
NM_134771
NM_134774
NM_134793
NM_134801
NM_134814
NM_134829
NM_134832
NM_134835
NM_134847
NM_134859
NM_134867
NM_134877
NM_134896
NM_134904
NM_134945
NM_134967
NM_135029
NM_135053
NM_135062
NM_135080
NM_135127
NM_135220
NM_135238
NM_135248
NM_135257
NM_135281
NM_135308
NM_135309
NM_135336
NM_135340
NM_135341
NM_135352
NM_135366
NM_135369
NM_135370
NM_135387
NM_135414
NM_135415
NM_135420
NM_135470
NM_135511
NM_135513
NM_135515
NM_135524
NM_135532
NM_135535
NM_135549
NM_135554
NM_135557
NM_135559
NM_135560
NM_135564
NM_135568
NM_135644
NM_135652
NM_135753
NM_135755
NM_135762
NM_135787
NM_135790
NM_135936
NM_135950
NM_135957
NM_135969
NM_135990
NM_136000
NM_136041
NM_136051
NM_136071
NM_136080
NM_136089
NM_136120
NM_136124
NM_136133
NM_136138
NM_136154
NM_136167
NM_136176
NM_136193
NM_136210
NM_136218
NM_136227
NM_136233
NM_136257
NM_136259
NM_136267
NM_136271
NM_136299
NM_138760
NM_143778
NM_144370
NM_144379
NM_144477
NM_164348
NM_164352
NM_164358
NM_164361
NM_164363
NM_164364
NM_164365
NM_164371
NM_164384
NM_164408
NM_164428
NM_164431
NM_164433
NM_164434
NM_164448
NM_164458
NM_164461
NM_164475
NM_164478
NM_164493
NM_164498
NM_164503
NM_164507
NM_164536
NM_164566
NM_164574
NM_164581
NM_164605
NM_164647
NM_164648
NM_164682
NM_164721
NM_164722
NM_164728
NM_164733
NM_164742
NM_164752
NM_164760
NM_164762
NM_164763
NM_164764
NM_164776
NM_164777
NM_164786
NM_164788
NM_164789
NM_164804
NM_164814
NM_164815
NM_164820
NM_164831
NM_164840
NM_164842
NM_164866
NM_164867
NM_164884
NM_164892
NM_164894
NM_164899
NM_164900
NM_164907
NM_164919
NM_164928
NM_164953
NM_164977
NM_164985
NM_165001
NM_165028
NM_165046
NM_165067
NM_165086
NM_165099
NM_165109
NM_165111
NM_165128
NM_165150
NM_165156
NM_165165
NM_165194
NM_165213
NM_165221
NM_165260
NM_165268
NM_165269
NM_165275
NM_165304
NM_165317
NM_165318
NM_165320
NM_165341
NM_165344
NM_165350
NM_165374
NM_165392
NM_165397
NM_165399
NM_165411
NM_175943
NM_175944
NM_175945
NM_175972
NM_175983
NM_175999
NM_176000
NM_176007
NM_176011
NM_176042
NM_176059
NM_205884
NM_205895
NM_205901
NM_205913
NM_205943
NM_205966
NM_205969
NM_205977
NM_205981
NM_205983
NM_205990
NM_206000
NM_206003
NM_206004
NM_206015
NM_206017
NR_001640
NR_001679
NR_047877
NR_047879
NR_047947
NR_047961
NR_048035
NR_048037
NR_048038
NR_048039
NR_073676
NR_073684
NR_073708
NR_073722
NR_073753
NR_073822