NM_001014567
NM_001014577
NM_001014585
NM_001014588
NM_001014601
NM_001031938
NM_001031943
NM_001031947
NM_001038916
NM_001038921
NM_001038944
NM_001103992
NM_001104005
NM_001104016
NM_001104019
NM_001104035
NM_001104056
NM_001104074
NM_001104091
NM_001104092
NM_001104094
NM_001104102
NM_001104103
NM_001104193
NM_001144387
NM_001144388
NM_001144408
NM_001144423
NM_001144439
NM_001144457
NM_001144462
NM_001144471
NM_001144506
NM_001144510
NM_001144514
NM_001144516
NM_001144524
NM_001169838
NM_001169845
NM_001169862
NM_001169904
NM_001169925
NM_001169927
NM_001169935
NM_001169946
NM_001169947
NM_001169949
NM_001169959
NM_001169963
NM_001169987
NM_001202104
NM_001202126
NM_001202144
NM_001202176
NM_001202219
NM_001202220
NM_001202223
NM_001202227
NM_001259597
NM_001259600
NM_001259607
NM_001259617
NM_001259619
NM_001259660
NM_001259674
NM_001259685
NM_001259686
NM_001259691
NM_001259708
NM_001259730
NM_001259732
NM_001259767
NM_001259785
NM_001259787
NM_001259796
NM_001259802
NM_001259816
NM_001259839
NM_001259840
NM_001259860
NM_001259869
NM_001259882
NM_001259888
NM_001259898
NM_001259904
NM_001259906
NM_001259907
NM_001259913
NM_001259928
NM_001259938
NM_001274271
NM_001274286
NM_001274294
NM_001274297
NM_001274357
NM_001274373
NM_001274403
NM_001274422
NM_001274424
NM_001274427
NM_001274446
NM_001274481
NM_001274507
NM_001274522
NM_001274523
NM_001274546
NM_001274558
NM_001274572
NM_001274579
NM_001274630
NM_001274637
NM_001274650
NM_001274655
NM_001274664
NM_001274690
NM_001274694
NM_001274767
NM_001274773
NM_001274774
NM_001274790
NM_001274824
NM_001274843
NM_001274848
NM_001274855
NM_001274858
NM_001274880
NM_001274889
NM_001274909
NM_001274923
NM_001274939
NM_001274987
NM_001274990
NM_001274996
NM_001275019
NM_001275020
NM_001275021
NM_001275023
NM_001275043
NM_001275052
NM_001275069
NM_001275072
NM_001275073
NM_001275096
NM_001275111
NM_001275127
NM_001275139
NM_001275141
NM_001275146
NM_001275153
NM_001275176
NM_001275183
NM_001275193
NM_001275197
NM_001275220
NM_001275227
NM_001275247
NM_001275254
NM_001275289
NM_057233
NM_057262
NM_057387
NM_057950
NM_058037
NM_058055
NM_079145
NM_079150
NM_079162
NM_079167
NM_079177
NM_079197
NM_079201
NM_079215
NM_079223
NM_079230
NM_079233
NM_079234
NM_079262
NM_079264
NM_079269
NM_079275
NM_079276
NM_079298
NM_079309
NM_079329
NM_079336
NM_079345
NM_079347
NM_079437
NM_079439
NM_079444
NM_079447
NM_079449
NM_079467
NM_079472
NM_079476
NM_079489
NM_079936
NM_079987
NM_080019
NM_080035
NM_080037
NM_080384
NM_138159
NM_138169
NM_138205
NM_138207
NM_138213
NM_138215
NM_138216
NM_138217
NM_138218
NM_138251
NM_138254
NM_138259
NM_138985
NM_139361
NM_139368
NM_139378
NM_139384
NM_139385
NM_139386
NM_139402
NM_139414
NM_139458
NM_139464
NM_139478
NM_139513
NM_139549
NM_139551
NM_139554
NM_139557
NM_139579
NM_139587
NM_139590
NM_139595
NM_139612
NM_139617
NM_139627
NM_139632
NM_139692
NM_139733
NM_139760
NM_139785
NM_139789
NM_139799
NM_139810
NM_139811
NM_139834
NM_139835
NM_139837
NM_139856
NM_139892
NM_139905
NM_139920
NM_139949
NM_139969
NM_140015
NM_140020
NM_140021
NM_140035
NM_140055
NM_140069
NM_140090
NM_140110
NM_140113
NM_140119
NM_140144
NM_140207
NM_140217
NM_140231
NM_140233
NM_140242
NM_140296
NM_140298
NM_140307
NM_140317
NM_140328
NM_140330
NM_140348
NM_140382
NM_140397
NM_140432
NM_140489
NM_140500
NM_140513
NM_140551
NM_140575
NM_140578
NM_140579
NM_140582
NM_140632
NM_140638
NM_140642
NM_140685
NM_140711
NM_140734
NM_140762
NM_140768
NM_140813
NM_140817
NM_140839
NM_140903
NM_140939
NM_140948
NM_140954
NM_140973
NM_140994
NM_141020
NM_141038
NM_141052
NM_141091
NM_141104
NM_141117
NM_141123
NM_141153
NM_141155
NM_141174
NM_143708
NM_143787
NM_144196
NM_144356
NM_144472
NM_167803
NM_167835
NM_167839
NM_167842
NM_167843
NM_167869
NM_167873
NM_167886
NM_167887
NM_167890
NM_167893
NM_167895
NM_167896
NM_167897
NM_167913
NM_167927
NM_167941
NM_167942
NM_167951
NM_167962
NM_167963
NM_167976
NM_167984
NM_167991
NM_167993
NM_167998
NM_168004
NM_168023
NM_168024
NM_168025
NM_168026
NM_168043
NM_168069
NM_168070
NM_168071
NM_168072
NM_168075
NM_168077
NM_168085
NM_168115
NM_168117
NM_168134
NM_168144
NM_168151
NM_168152
NM_168154
NM_168160
NM_168170
NM_168191
NM_168193
NM_168199
NM_168202
NM_168207
NM_168209
NM_168211
NM_168212
NM_168238
NM_168246
NM_168249
NM_168252
NM_168259
NM_168262
NM_168277
NM_168305
NM_168306
NM_168328
NM_168333
NM_168343
NM_168349
NM_168351
NM_168363
NM_168384
NM_168390
NM_168396
NM_168421
NM_168423
NM_168435
NM_168445
NM_168466
NM_168472
NM_168481
NM_168491
NM_168498
NM_168529
NM_168537
NM_168555
NM_168572
NM_168588
NM_168600
NM_168601
NM_168605
NM_168607
NM_168622
NM_168626
NM_168664
NM_168682
NM_168684
NM_168689
NM_168705
NM_168706
NM_168709
NM_168720
NM_168742
NM_168753
NM_168755
NM_168772
NM_168782
NM_168785
NM_168806
NM_168818
NM_168823
NM_168826
NM_168842
NM_168860
NM_168862
NM_168864
NM_168869
NM_168873
NM_168883
NM_168901
NM_168916
NM_168920
NM_168942
NM_168947
NM_168956
NM_168963
NM_168973
NM_168976
NM_168988
NM_176277
NM_176284
NM_176292
NM_176299
NM_176307
NM_176316
NM_176318
NM_176341
NM_176347
NM_176361
NM_176375
NM_176378
NM_206232
NM_206236
NM_206238
NM_206245
NM_206254
NM_206255
NM_206310
NM_206316
NM_206334
NM_206346
NM_206360
NM_206371
NM_206395
NM_206415
NR_002476
NR_003858
NR_003861
NR_003869
NR_003873
NR_003874
NR_037750
NR_048205
NR_048206
NR_048207
NR_048208
NR_048210
NR_048211
NR_048232
NR_048256
NR_048285
NR_073908
NR_073909
NR_073936
NR_073940
NR_073959