TermID	Term	Enrichment	logP	Genes in Term	Target Genes in Term	Fraction of Targets in Term	Total Target Genes	Total Genes	Entrez Gene IDs	Gene Symbols
Energy_Metabolism_WP1541	Energy_Metabolism_WP1541	1.63236238604357e-05	-11.022897182806	21	7	0.0945945945945946	74	1693	30975,32624,8674098,31248,43904,43856,44317	ewg,Pp2B-14D,CanA-14F,sgg,SNF1A,nej,CanB
G_Protein_Signaling_Pathways_WP35	G_Protein_Signaling_Pathways_WP35	0.00146331993507418	-6.52704749659084	30	6	0.0810810810810811	74	1693	32624,8674098,32406,32544,32485,31309	Pp2B-14D,CanA-14F,rut,Gbeta13F,Ac13E,dnc
Semaphorin_interactions_WP1907	Semaphorin_interactions_WP1907	0.005496832123984	-5.2035833301399	3	2	0.027027027027027	74	1693	32207,32743	LIMK1,RhoGAPp190
Signaling_by_PDGF_WP1916	Signaling_by_PDGF_WP1916	0.005496832123984	-5.2035833301399	3	2	0.027027027027027	74	1693	32569,45278	vap,csw
Alzheimers_Disease_WP2059	Alzheimers_Disease_WP2059	0.0111244854186767	-4.49860670650058	32	5	0.0675675675675676	74	1693	32624,8674098,31107,31248,44317	Pp2B-14D,CanA-14F,Nmdar2,sgg,CanB
Calcium_Regulation_in_the_Cardiac_Cell_WP536	Calcium_Regulation_in_the_Cardiac_Cell_WP536	0.0250747556410226	-3.68589369030534	39	5	0.0675675675675676	74	1693	32874,32406,32544,32485,32158	CG42450,rut,Gbeta13F,Ac13E,cac
Netrin-1_signaling_WP1868	Netrin-1_signaling_WP1868	0.0252237963742084	-3.67996742947223	6	2	0.027027027027027	74	1693	32400,45278	NetB,csw
Interleukin-3,_5_and_GM-CSF_signaling_WP1840	Interleukin-3,_5_and_GM-CSF_signaling_WP1840	0.0343239829356571	-3.37191095819223	7	2	0.027027027027027	74	1693	45278,31618	csw,C3G
Neural_Crest_Differentiation_WP2064	Neural_Crest_Differentiation_WP2064	0.0389268231980915	-3.24607172361546	30	4	0.0540540540540541	74	1693	31248,32278,32461,31813	sgg,HDAC4,HDAC6,Lim1
MicroRNAs_in_cardiomyocyte_hypertrophy_WP1544	MicroRNAs_in_cardiomyocyte_hypertrophy_WP1544	0.0389268231980915	-3.24607172361546	30	4	0.0540540540540541	74	1693	32624,8674098,31248,32278	Pp2B-14D,CanA-14F,sgg,HDAC4
Signaling_of_Hepatocyte_Growth_Factor_Receptor_WP313	Signaling_of_Hepatocyte_Growth_Factor_Receptor_WP313	0.0407815400584918	-3.19952574950497	18	3	0.0405405405405405	74	1693	32569,45278,31618	vap,csw,C3G
Myometrial_Relaxation_and_Contraction_Pathways_WP289	Myometrial_Relaxation_and_Contraction_Pathways_WP289	0.0434477837273719	-3.13619543599693	45	5	0.0675675675675676	74	1693	32874,32406,32544,32485,31309	CG42450,rut,Gbeta13F,Ac13E,dnc
Small_Ligand_GPCRs_WP247	Small_Ligand_GPCRs_WP247	0.0437093916126035	-3.13019228892711	1	1	0.0135135135135135	74	1693	31168	moody
Binding_of_RNA_by_Insulin-like_Growth_Factor-2_mRNA_Binding_Proteins_(IGF2BPs-IMPs-VICKZs)_WP1789	Binding_of_RNA_by_Insulin-like_Growth_Factor-2_mRNA_Binding_Proteins_(IGF2BPs-IMPs-VICKZs)_WP1789	0.0437093916126035	-3.13019228892711	1	1	0.0135135135135135	74	1693	32009	Imp
Signaling_by_FGFR_WP1911	Signaling_by_FGFR_WP1911	0.0437093916126035	-3.13019228892711	1	1	0.0135135135135135	74	1693	45278	csw
Osteoblast_Signaling_WP322	Osteoblast_Signaling_WP322	0.0437093916126035	-3.13019228892711	1	1	0.0135135135135135	74	1693	32661	if
Cell_cycle_WP179	Cell_cycle_WP179	0.0471325292043705	-3.05479187506095	46	5	0.0675675675675676	74	1693	32551,31248,32278,43856,32461	CycD,sgg,HDAC4,nej,HDAC6
Androgen_receptor_signaling_pathway_WP138	Androgen_receptor_signaling_pathway_WP138	0.0526965145391583	-2.9432059633989	33	4	0.0540540540540541	74	1693	31248,44072,43856,31362	sgg,ran,nej,Tip60
Hypothetical_Network_for_Drug_Addiction_WP666	Hypothetical_Network_for_Drug_Addiction_WP666	0.0556065725353134	-2.88945387364519	9	2	0.027027027027027	74	1693	31107,32406	Nmdar2,rut
Notch_Signaling_Pathway_WP61	Notch_Signaling_Pathway_WP61	0.0679845051559848	-2.68847546512445	22	3	0.0405405405405405	74	1693	31016,31248,43856	skpA,sgg,nej
Lymphocyte_TarBase_WP2004	Lymphocyte_TarBase_WP2004	0.0748901347569507	-2.59173310932402	176	12	0.162162162162162	74	1693	32624,32508,44819,32737,8674098,33131,32278,32009,32877,32337,32140,32770	Pp2B-14D,CG9281,g,CG8408,CanA-14F,CG14614,HDAC4,Imp,CG34422,Pdcd4,p24-1,CG6769
Focal_Adhesion_WP306	Focal_Adhesion_WP306	0.0780299034491282	-2.55066314821002	53	5	0.0675675675675676	74	1693	32551,31248,31618,32661,31166	CycD,sgg,C3G,if,Actn
Muscle_cell_TarBase_WP2005	Muscle_cell_TarBase_WP2005	0.0786691857760334	-2.54250374056065	140	10	0.135135135135135	74	1693	32624,44819,32737,8674098,32278,32009,32337,32877,32140,32770	Pp2B-14D,g,CG8408,CanA-14F,HDAC4,Imp,Pdcd4,CG34422,p24-1,CG6769
Transport_of_inorganic_cations-anions_and_amino_acids-oligopeptides_WP1936	Transport_of_inorganic_cations-anions_and_amino_acids-oligopeptides_WP1936	0.0803161656911462	-2.52178436208724	11	2	0.027027027027027	74	1693	31317,326229	CG10804,CG32669
IL-3_Signaling_Pathway_WP286	IL-3_Signaling_Pathway_WP286	0.0803161656911462	-2.52178436208724	11	2	0.027027027027027	74	1693	45278,31618	csw,C3G
Costimulation_by_the_CD28_family_WP1799	Costimulation_by_the_CD28_family_WP1799	0.085532976139001	-2.45885329156082	2	1	0.0135135135135135	74	1693	45278	csw
Signaling_by_Wnt_WP1920	Signaling_by_Wnt_WP1920	0.085532976139001	-2.45885329156082	2	1	0.0135135135135135	74	1693	32221	CkIalpha
GPCR_downstream_signaling_WP1824	GPCR_downstream_signaling_WP1824	0.085532976139001	-2.45885329156082	2	1	0.0135135135135135	74	1693	32544	Gbeta13F
IL-2_Signaling_pathway_WP49	IL-2_Signaling_pathway_WP49	0.0937254751096406	-2.36738524718506	12	2	0.027027027027027	74	1693	32551,45278	CycD,csw
G13_Signaling_Pathway_WP524	G13_Signaling_Pathway_WP524	0.0937254751096406	-2.36738524718506	12	2	0.027027027027027	74	1693	32207,44289	LIMK1,flw
IL-5_signaling_pathway_WP127	IL-5_signaling_pathway_WP127	0.10772725685444	-2.22815264555404	13	2	0.027027027027027	74	1693	31248,45278	sgg,csw
Regulation_of_Microtubule_Cytoskeleton_WP2038	Regulation_of_Microtubule_Cytoskeleton_WP2038	0.10772725685444	-2.22815264555404	13	2	0.027027027027027	74	1693	31248,32207	sgg,LIMK1
IL-6_signaling_pathway_WP364	IL-6_signaling_pathway_WP364	0.10772725685444	-2.22815264555404	13	2	0.027027027027027	74	1693	31248,45278	sgg,csw
Physiological_and_Pathological_Hypertrophy_of_the_Heart_WP1528	Physiological_and_Pathological_Hypertrophy_of_the_Heart_WP1528	0.10772725685444	-2.22815264555404	13	2	0.027027027027027	74	1693	32624,8674098	Pp2B-14D,CanA-14F
Transport_of_glucose_and_other_sugars,_bile_salts_and_organic_acids,_metal_ions_and_amine_compounds_WP1935	Transport_of_glucose_and_other_sugars,_bile_salts_and_organic_acids,_metal_ions_and_amine_compounds_WP1935	0.122245771021207	-2.10172174409907	14	2	0.027027027027027	74	1693	31317,31601	CG10804,Ctr1A
Nicotine_Activity_on_Dopaminergic_Neurons_WP1602	Nicotine_Activity_on_Dopaminergic_Neurons_WP1602	0.122245771021207	-2.10172174409907	14	2	0.027027027027027	74	1693	32544,33007	Gbeta13F,D2R
TGF_beta_Signaling_Pathway_WP366	TGF_beta_Signaling_Pathway_WP366	0.122486159088021	-2.09975724241743	44	4	0.0540540540540541	74	1693	31016,32746,43856,32630	skpA,beta-Spec,nej,Nup153
Regulation_of_Actin_Cytoskeleton_WP51	Regulation_of_Actin_Cytoskeleton_WP51	0.122486159088021	-2.09975724241743	44	4	0.0540540540540541	74	1693	32207,32743,31816,31166	LIMK1,RhoGAPp190,Moe,Actn
Interferon_alpha-beta_signaling_WP1835	Interferon_alpha-beta_signaling_WP1835	0.125551048147793	-2.07504284496422	3	1	0.0135135135135135	74	1693	45278	csw
TarBasePathway_WP1992	TarBasePathway_WP1992	0.125551048147793	-2.07504284496422	3	1	0.0135135135135135	74	1693	32278	HDAC4
Myogenesis_WP1865	Myogenesis_WP1865	0.125551048147793	-2.07504284496422	3	1	0.0135135135135135	74	1693	31229	boi
DSCAM_interactions_WP1808	DSCAM_interactions_WP1808	0.125551048147793	-2.07504284496422	3	1	0.0135135135135135	74	1693	32400	NetB
TFs_Regulate_miRNAs_related_to_cardiac_hypertrophy_WP1559	TFs_Regulate_miRNAs_related_to_cardiac_hypertrophy_WP1559	0.125551048147793	-2.07504284496422	3	1	0.0135135135135135	74	1693	44317	CanB
B_Cell_Receptor_Signaling_Pathway_WP23	B_Cell_Receptor_Signaling_Pathway_WP23	0.130165752403268	-2.03894662218569	29	3	0.0405405405405405	74	1693	31248,45278,31618	sgg,csw,C3G
Insulin_Signaling_WP481	Insulin_Signaling_WP481	0.130460055385288	-2.03668818807582	62	5	0.0675675675675676	74	1693	31248,32425,43904,45278,31618	sgg,Flo-2,SNF1A,csw,C3G
IL-4_signaling_pathway_WP395	IL-4_signaling_pathway_WP395	0.13721060960299	-1.98623823721226	15	2	0.027027027027027	74	1693	43856,45278	nej,csw
GPCRs,_Class_A_Rhodopsin-like_WP455	GPCRs,_Class_A_Rhodopsin-like_WP455	0.140303411204065	-1.96394797852663	30	3	0.0405405405405405	74	1693	31168,33007,44126	moody,D2R,AlstR
New_Pathway_WP2196	New_Pathway_WP2196	0.152556385246602	-1.88022101194943	16	2	0.027027027027027	74	1693	32341,32039	CtsB1,sev
IL-7_signaling_pathway_WP205	IL-7_signaling_pathway_WP205	0.16384052888036	-1.80886170910666	4	1	0.0135135135135135	74	1693	31248	sgg
BMP_signalling_and_regulation_WP1425	BMP_signalling_and_regulation_WP1425	0.16384052888036	-1.80886170910666	4	1	0.0135135135135135	74	1693	32574	Tob
Cell_surface_interactions_at_the_vascular_wall_WP1794	Cell_surface_interactions_at_the_vascular_wall_WP1794	0.16384052888036	-1.80886170910666	4	1	0.0135135135135135	74	1693	45278	csw
SRF_and_miRs_in_Smooth_Muscle_Differentiation_and_Proliferation_WP1991	SRF_and_miRs_in_Smooth_Muscle_Differentiation_and_Proliferation_WP1991	0.16384052888036	-1.80886170910666	4	1	0.0135135135135135	74	1693	32551	CycD
Arrhythmogenic_right_ventricular_cardiomyopathy_WP2118	Arrhythmogenic_right_ventricular_cardiomyopathy_WP2118	0.168222436470745	-1.78246814871761	17	2	0.027027027027027	74	1693	32661,31166	if,Actn
Glycogen_Metabolism_WP500	Glycogen_Metabolism_WP500	0.168222436470745	-1.78246814871761	17	2	0.027027027027027	74	1693	31248,31839	sgg,CG7766
Wnt_Signaling_Pathway_and_Pluripotency_WP399	Wnt_Signaling_Pathway_and_Pluripotency_WP399	0.172206299393349	-1.75906210581469	33	3	0.0405405405405405	74	1693	32551,31248,43856	CycD,sgg,nej
IL-1_signaling_pathway_WP195	IL-1_signaling_pathway_WP195	0.184152548522549	-1.69199079680291	18	2	0.027027027027027	74	1693	32358,45278	ben,csw
Eicosanoid_Synthesis_WP167	Eicosanoid_Synthesis_WP167	0.200475106063873	-1.60706519922635	5	1	0.0135135135135135	74	1693	32672	CG4829
Platelet_homeostasis_WP1885	Platelet_homeostasis_WP1885	0.200475106063873	-1.60706519922635	5	1	0.0135135135135135	74	1693	45278	csw
Kinesins_WP1842	Kinesins_WP1842	0.200475106063873	-1.60706519922635	5	1	0.0135135135135135	74	1693	32071	Kap3
L1CAM_interactions_WP1843	L1CAM_interactions_WP1843	0.200475106063873	-1.60706519922635	5	1	0.0135135135135135	74	1693	31792	Nrg
Pyruvate_metabolism_and_Citric_Acid_(TCA)_cycle_WP1893	Pyruvate_metabolism_and_Citric_Acid_(TCA)_cycle_WP1893	0.200475106063873	-1.60706519922635	5	1	0.0135135135135135	74	1693	31184	CG3835
MAPK_signaling_pathway_WP382	MAPK_signaling_pathway_WP382	0.207634851407222	-1.57197426409617	54	4	0.0540540540540541	74	1693	32624,8674098,32569,44317	Pp2B-14D,CanA-14F,vap,CanB
Wnt_Signaling_Pathway_WP363	Wnt_Signaling_Pathway_WP363	0.216600758239939	-1.5296994437753	20	2	0.027027027027027	74	1693	31248,32221	sgg,CkIalpha
EGF-EGFR_Signaling_Pathway_WP437	EGF-EGFR_Signaling_Pathway_WP437	0.2169800056752	-1.52795006943243	55	4	0.0540540540540541	74	1693	31332,32569,45278,45928	Rala,vap,csw,shi
Wnt_Signaling_Pathway_WP428	Wnt_Signaling_Pathway_WP428	0.233026351520658	-1.4566037351562	21	2	0.027027027027027	74	1693	32551,31248	CycD,sgg
Striated_Muscle_Contraction_WP383	Striated_Muscle_Contraction_WP383	0.235525368001969	-1.44593665157344	6	1	0.0135135135135135	74	1693	32314	up
Ovarian_Infertility_Genes_WP34	Ovarian_Infertility_Genes_WP34	0.235525368001969	-1.44593665157344	6	1	0.0135135135135135	74	1693	32551	CycD
Type_II_interferon_signaling_(IFNG)_WP619	Type_II_interferon_signaling_(IFNG)_WP619	0.235525368001969	-1.44593665157344	6	1	0.0135135135135135	74	1693	45278	csw
Signaling_by_EGFR_WP1910	Signaling_by_EGFR_WP1910	0.235525368001969	-1.44593665157344	6	1	0.0135135135135135	74	1693	45278	csw
Kit_receptor_signaling_pathway_WP304	Kit_receptor_signaling_pathway_WP304	0.249530536157385	-1.38817398187118	22	2	0.027027027027027	74	1693	43856,45278	nej,csw
IL17_signaling_pathway_WP2112	IL17_signaling_pathway_WP2112	0.269058932180389	-1.31282484463703	7	1	0.0135135135135135	74	1693	31248	sgg
Mitochondrial_Gene_Expression_WP391	Mitochondrial_Gene_Expression_WP391	0.269058932180389	-1.31282484463703	7	1	0.0135135135135135	74	1693	30975	ewg
EPO_Receptor_Signaling_WP581	EPO_Receptor_Signaling_WP581	0.269058932180389	-1.31282484463703	7	1	0.0135135135135135	74	1693	32569	vap
APC-C-mediated_degradation_of_cell_cycle_proteins_WP1782	APC-C-mediated_degradation_of_cell_cycle_proteins_WP1782	0.269058932180389	-1.31282484463703	7	1	0.0135135135135135	74	1693	45922	rap
Interferon_type_I_WP585	Interferon_type_I_WP585	0.299153015029557	-1.20680008054217	25	2	0.027027027027027	74	1693	45278,31618	csw,C3G
Neuroransmitter_Receptor_Binding_And_Downstream_Transmission_In_The_Postsynaptic_Cell_WP1869	Neuroransmitter_Receptor_Binding_And_Downstream_Transmission_In_The_Postsynaptic_Cell_WP1869	0.301140568609064	-1.20017811790059	8	1	0.0135135135135135	74	1693	32083	dlg1
Cell_junction_organization_WP1793	Cell_junction_organization_WP1793	0.331832318117497	-1.10312550356555	9	1	0.0135135135135135	74	1693	31166	Actn
Estrogen_signaling_pathway_WP712	Estrogen_signaling_pathway_WP712	0.331832318117497	-1.10312550356555	9	1	0.0135135135135135	74	1693	32544	Gbeta13F
Eukaryotic_Translation_Initiation_WP1812	Eukaryotic_Translation_Initiation_WP1812	0.331832318117497	-1.10312550356555	9	1	0.0135135135135135	74	1693	32566	eIF5
GPCRs,_Other_WP117	GPCRs,_Other_WP117	0.331832318117497	-1.10312550356555	9	1	0.0135135135135135	74	1693	33007	D2R
Monoamine_GPCRs_WP58	Monoamine_GPCRs_WP58	0.361193605803053	-1.01834116024536	10	1	0.0135135135135135	74	1693	33007	D2R
Squamous_cell_TarBase_WP2006	Squamous_cell_TarBase_WP2006	0.375042643514504	-0.980715543438226	50	3	0.0405405405405405	74	1693	44819,32337,32140	g,Pdcd4,p24-1
Integrin-mediated_cell_adhesion_WP185	Integrin-mediated_cell_adhesion_WP185	0.380469375645093	-0.966349589426432	30	2	0.027027027027027	74	1693	31618,32661	C3G,if
TGF_Beta_Signaling_Pathway_WP560	TGF_Beta_Signaling_Pathway_WP560	0.389281349813961	-0.943452932490029	11	1	0.0135135135135135	74	1693	43856	nej
DNA_damage_response_(only_ATM_dependent)_WP710	DNA_damage_response_(only_ATM_dependent)_WP710	0.396315439029132	-0.92554482161087	31	2	0.027027027027027	74	1693	32551,31248	CycD,sgg
TSH_signaling_pathway_WP2032	TSH_signaling_pathway_WP2032	0.396315439029132	-0.92554482161087	31	2	0.027027027027027	74	1693	32544,31309	Gbeta13F,dnc
Prolactin_Signaling_Pathway_WP2037	Prolactin_Signaling_Pathway_WP2037	0.411980350064555	-0.886779624788077	32	2	0.027027027027027	74	1693	31248,45278	sgg,csw
Urea_cycle_and_metabolism_of_amino_groups_WP497	Urea_cycle_and_metabolism_of_amino_groups_WP497	0.416150065697186	-0.876709348921041	12	1	0.0135135135135135	74	1693	46717	arg
Glutathione_metabolism_WP100	Glutathione_metabolism_WP100	0.416150065697186	-0.876709348921041	12	1	0.0135135135135135	74	1693	32672	CG4829
Metabolism_of_amino_acids_and_derivatives_WP1847	Metabolism_of_amino_acids_and_derivatives_WP1847	0.441851966433985	-0.816780370572024	13	1	0.0135135135135135	74	1693	33117	slgA
Alpha_6_Beta_4_signaling_pathway_WP244	Alpha_6_Beta_4_signaling_pathway_WP244	0.441851966433985	-0.816780370572024	13	1	0.0135135135135135	74	1693	45278	csw
TSLP_Signaling_Pathway_WP2203	TSLP_Signaling_Pathway_WP2203	0.441851966433985	-0.816780370572024	13	1	0.0135135135135135	74	1693	45278	csw
Epithelium_TarBase_WP2002	Epithelium_TarBase_WP2002	0.453396461221108	-0.790988345921284	123	6	0.0810810810810811	74	1693	33131,32508,32278,44819,32140,32770	CG14614,CG9281,HDAC4,g,p24-1,CG6769
Leukocyte_TarBase_WP2003	Leukocyte_TarBase_WP2003	0.470442457893939	-0.754081627342558	58	3	0.0405405405405405	74	1693	33131,44819,32877	CG14614,g,CG34422
Peptide_GPCRs_WP24	Peptide_GPCRs_WP24	0.489953233303686	-0.713445334669741	15	1	0.0135135135135135	74	1693	44126	AlstR
TOR_signaling_WP1471	TOR_signaling_WP1471	0.512446356506566	-0.668559243678975	16	1	0.0135135135135135	74	1693	43904	SNF1A
metapathway_biotransformation_WP702	metapathway_biotransformation_WP702	0.515532684597326	-0.662554573854496	39	2	0.027027027027027	74	1693	31955,32962	Hk,CG14222
Endochondral_Ossification_WP474	Endochondral_Ossification_WP474	0.533960351510221	-0.62743369088667	17	1	0.0135135135135135	74	1693	32278	HDAC4
DNA_damage_response_WP707	DNA_damage_response_WP707	0.554537281099165	-0.589621240729231	18	1	0.0135135135135135	74	1693	32551	CycD
Heart_Development_WP1591	Heart_Development_WP1591	0.554537281099165	-0.589621240729231	18	1	0.0135135135135135	74	1693	45278	csw
ErbB_signaling_pathway_WP673	ErbB_signaling_pathway_WP673	0.554537281099165	-0.589621240729231	18	1	0.0135135135135135	74	1693	31248	sgg
TWEAK_Signaling_Pathway_WP2036	TWEAK_Signaling_Pathway_WP2036	0.554537281099165	-0.589621240729231	18	1	0.0135135135135135	74	1693	31248	sgg
Leptin_signaling_pathway_WP2034	Leptin_signaling_pathway_WP2034	0.574217425099974	-0.554747165012376	19	1	0.0135135135135135	74	1693	45278	csw
miRNA_regulation_of_DNA_Damage_Response_WP1530	miRNA_regulation_of_DNA_Damage_Response_WP1530	0.574217425099974	-0.554747165012376	19	1	0.0135135135135135	74	1693	32551	CycD
SIDS_Susceptibility_Pathways_WP706	SIDS_Susceptibility_Pathways_WP706	0.593039354933852	-0.522494516362154	20	1	0.0135135135135135	74	1693	43856	nej
Apoptosis_Modulation_and_Signaling_WP1772	Apoptosis_Modulation_and_Signaling_WP1772	0.611040005105155	-0.492592847150069	21	1	0.0135135135135135	74	1693	32646	Sep4
AMPK_signaling_WP1403	AMPK_signaling_WP1403	0.628254741722506	-0.464809555077956	22	1	0.0135135135135135	74	1693	43904	SNF1A
angiogenesis_overview_WP1993	angiogenesis_overview_WP1993	0.644717428205858	-0.438943153983239	23	1	0.0135135135135135	74	1693	45278	csw
TCR_Signaling_Pathway_WP69	TCR_Signaling_Pathway_WP69	0.660460488274155	-0.414817977741492	24	1	0.0135135135135135	74	1693	45278	csw
Selenium_Pathway_WP15	Selenium_Pathway_WP15	0.689910585326002	-0.37119327627194	26	1	0.0135135135135135	74	1693	32672	CG4829
Integrated_Breast_Cancer_Pathway_WP1984	Integrated_Breast_Cancer_Pathway_WP1984	0.722975855121	-0.32437945278765	57	2	0.027027027027027	74	1693	31332,43856	Rala,nej
Regulation_of_toll-like_receptor_signaling_pathway_WP1449	Regulation_of_toll-like_receptor_signaling_pathway_WP1449	0.729422845432335	-0.315501680242088	29	1	0.0135135135135135	74	1693	32140	p24-1
TNF_alpha_Signaling_Pathway_WP231	TNF_alpha_Signaling_Pathway_WP231	0.741455723701676	-0.299139830985115	30	1	0.0135135135135135	74	1693	31016	skpA
G1_to_S_cell_cycle_control_WP45	G1_to_S_cell_cycle_control_WP45	0.763959756301801	-0.269240166200636	32	1	0.0135135135135135	74	1693	32551	CycD
Senescence_and_Autophagy_WP615	Senescence_and_Autophagy_WP615	0.82050740833886	-0.197832339438688	38	1	0.0135135135135135	74	1693	31248	sgg
Translation_Factors_WP107	Translation_Factors_WP107	0.828533058964175	-0.188098540721881	39	1	0.0135135135135135	74	1693	32566	eIF5
Cytoplasmic_Ribosomal_Proteins_WP477	Cytoplasmic_Ribosomal_Proteins_WP477	0.851160446108326	-0.161154629862221	75	2	0.027027027027027	74	1693	44150,32953	RpS15Aa,RpS10b
Electron_Transport_Chain_WP111	Electron_Transport_Chain_WP111	0.896524273912034	-0.109229909993374	50	1	0.0135135135135135	74	1693	32007	sesB
Serotonin_Transporter_Activity_WP1455	Serotonin_Transporter_Activity_WP1455	0.999999999999036	-9.64315568586019e-13	3	0	0	74	1693
Nifedipine_Activity_WP259	Nifedipine_Activity_WP259	0.999999999999036	-9.64315568586019e-13	3	0	0	74	1693
Cholesterol_biosynthesis_WP1795	Cholesterol_biosynthesis_WP1795	0.999999999999036	-9.64315568586019e-13	3	0	0	74	1693
Circadian_Clock_WP1797	Circadian_Clock_WP1797	0.999999999999036	-9.64315568586019e-13	3	0	0	74	1693
Cell_Differentiation_-_Index_WP2029	Cell_Differentiation_-_Index_WP2029	0.999999999999036	-9.64315568586019e-13	3	0	0	74	1693
Peroxisomal_beta-oxidation_of_tetracosanoyl-CoA_WP1941	Peroxisomal_beta-oxidation_of_tetracosanoyl-CoA_WP1941	0.999999999999036	-9.64315568586019e-13	3	0	0	74	1693
Inflammatory_Response_Pathway_WP453	Inflammatory_Response_Pathway_WP453	0.999999999999036	-9.64315568586019e-13	3	0	0	74	1693
MAP_kinase_cascade_WP1844	MAP_kinase_cascade_WP1844	0.999999999999036	-9.64315568586019e-13	3	0	0	74	1693
Vitamin_B12_Metabolism_WP1533	Vitamin_B12_Metabolism_WP1533	0.999999999999036	-9.64315568586019e-13	3	0	0	74	1693
Complement_cascade_WP1798	Complement_cascade_WP1798	0.999999999999036	-9.64315568586019e-13	3	0	0	74	1693
NCAM_signaling_for_neurite_out-growth_WP1866	NCAM_signaling_for_neurite_out-growth_WP1866	0.999999999999036	-9.64315568586019e-13	3	0	0	74	1693
Opioid_Signalling_WP1978	Opioid_Signalling_WP1978	0.999999999999036	-9.64315568586019e-13	3	0	0	74	1693
Interferon_gamma_signaling_WP1836	Interferon_gamma_signaling_WP1836	0.999999999999036	-9.64315568586019e-13	3	0	0	74	1693
mRNA_Capping_WP1861	mRNA_Capping_WP1861	0.999999999999036	-9.64315568586019e-13	3	0	0	74	1693
iron_metabolism_in_placenta_WP2007	iron_metabolism_in_placenta_WP2007	0.999999999999036	-9.64315568586019e-13	3	0	0	74	1693
Globo_Sphingolipid_Metabolism_WP1424	Globo_Sphingolipid_Metabolism_WP1424	0.999999999999036	-9.64315568586019e-13	3	0	0	74	1693
Nephrin_interactions_WP1867	Nephrin_interactions_WP1867	0.999999999999036	-9.64315568586019e-13	3	0	0	74	1693
NGF_signalling_via_TRKA_from_the_plasma_membrane_WP1873	NGF_signalling_via_TRKA_from_the_plasma_membrane_WP1873	0.999999999999036	-9.64315568586019e-13	3	0	0	74	1693
Formation_of_Fibrin_Clot_(Clotting_Cascade)_WP1818	Formation_of_Fibrin_Clot_(Clotting_Cascade)_WP1818	0.999999999999036	-9.64315568586019e-13	3	0	0	74	1693
Phase_I,_non_P450_WP136	Phase_I,_non_P450_WP136	0.999999999999036	-9.64315568586019e-13	3	0	0	74	1693
Mismatch_repair_WP531	Mismatch_repair_WP531	0.99999999999922	-7.79865503951531e-13	9	0	0	74	1693
NOD_pathway_WP1433	NOD_pathway_WP1433	0.99999999999922	-7.79865503951531e-13	9	0	0	74	1693
FSH_signaling_pathway_WP2035	FSH_signaling_pathway_WP2035	0.99999999999922	-7.79865503951531e-13	9	0	0	74	1693
AhR_pathway_WP2100	AhR_pathway_WP2100	0.99999999999922	-7.79865503951531e-13	9	0	0	74	1693
Base_Excision_Repair_WP1787	Base_Excision_Repair_WP1787	0.99999999999922	-7.79865503951531e-13	9	0	0	74	1693
Alanine_and_aspartate_metabolism_WP106	Alanine_and_aspartate_metabolism_WP106	0.99999999999922	-7.79865503951531e-13	9	0	0	74	1693
Peroxisomal_lipid_metabolism_WP1878	Peroxisomal_lipid_metabolism_WP1878	0.99999999999922	-7.79865503951531e-13	9	0	0	74	1693
Metabolism_of_nucleotides_WP1851	Metabolism_of_nucleotides_WP1851	0.99999999999922	-7.79865503951531e-13	9	0	0	74	1693
RNA_Polymerase_I,_RNA_Polymerase_III,_and_Mitochondrial_Transcription_WP1905	RNA_Polymerase_I,_RNA_Polymerase_III,_and_Mitochondrial_Transcription_WP1905	0.99999999999922	-7.79865503951531e-13	9	0	0	74	1693
p38_MAPK_Signaling_Pathway_WP400	p38_MAPK_Signaling_Pathway_WP400	0.99999999999922	-7.79865503951531e-13	9	0	0	74	1693
Integrin_alphaIIb_beta3_signaling_WP1832	Integrin_alphaIIb_beta3_signaling_WP1832	0.999999999999299	-7.00770605903724e-13	5	0	0	74	1693
Metabolism_of_steroid_hormones_and_vitamins_A_and_D_WP1855	Metabolism_of_steroid_hormones_and_vitamins_A_and_D_WP1855	0.999999999999299	-7.00770605903724e-13	5	0	0	74	1693
Metabolism_of_porphyrins_WP1852	Metabolism_of_porphyrins_WP1852	0.999999999999299	-7.00770605903724e-13	5	0	0	74	1693
EBV_LMP1_signaling_WP262	EBV_LMP1_signaling_WP262	0.999999999999299	-7.00770605903724e-13	5	0	0	74	1693
Keap1-Nrf2_Pathway_WP3	Keap1-Nrf2_Pathway_WP3	0.999999999999299	-7.00770605903724e-13	5	0	0	74	1693
Cell_Differentiation_-_meta_WP2023	Cell_Differentiation_-_meta_WP2023	0.999999999999299	-7.00770605903724e-13	5	0	0	74	1693
Sphingolipid_Metabolism_WP1923	Sphingolipid_Metabolism_WP1923	0.999999999999299	-7.00770605903724e-13	5	0	0	74	1693
TCR_signaling_WP1927	TCR_signaling_WP1927	0.999999999999299	-7.00770605903724e-13	5	0	0	74	1693
GPCRs,_Class_B_Secretin-like_WP334	GPCRs,_Class_B_Secretin-like_WP334	0.999999999999299	-7.00770605903724e-13	5	0	0	74	1693
Homologous_recombination_WP186	Homologous_recombination_WP186	0.999999999999299	-7.00770605903724e-13	5	0	0	74	1693
IL-9_signaling_pathway_WP22	IL-9_signaling_pathway_WP22	0.999999999999299	-7.00770605903724e-13	5	0	0	74	1693
ID_signaling_pathway_WP53	ID_signaling_pathway_WP53	0.999999999999299	-7.00770605903724e-13	5	0	0	74	1693
DNA_Damage_Bypass_WP1803	DNA_Damage_Bypass_WP1803	0.999999999999324	-6.75951048606516e-13	2	0	0	74	1693
Nicotine_Activity_on_Chromaffin_Cells_WP1603	Nicotine_Activity_on_Chromaffin_Cells_WP1603	0.999999999999324	-6.75951048606516e-13	2	0	0	74	1693
miRNAs_involved_in_DDR_WP1545	miRNAs_involved_in_DDR_WP1545	0.999999999999324	-6.75951048606516e-13	2	0	0	74	1693
Non-homologous_end_joining_WP438	Non-homologous_end_joining_WP438	0.999999999999324	-6.75951048606516e-13	2	0	0	74	1693
Signal_amplification_WP1908	Signal_amplification_WP1908	0.999999999999324	-6.75951048606516e-13	2	0	0	74	1693
Complement_and_Coagulation_Cascades_WP558	Complement_and_Coagulation_Cascades_WP558	0.999999999999324	-6.75951048606516e-13	2	0	0	74	1693
Effects_of_nitric_oxide_WP1995	Effects_of_nitric_oxide_WP1995	0.999999999999324	-6.75951048606516e-13	2	0	0	74	1693
ACE_Inhibitor_Pathway_WP554	ACE_Inhibitor_Pathway_WP554	0.999999999999324	-6.75951048606516e-13	2	0	0	74	1693
Interleukin-1_signaling_WP1839	Interleukin-1_signaling_WP1839	0.999999999999324	-6.75951048606516e-13	2	0	0	74	1693
Steroid_Biosynthesis_WP496	Steroid_Biosynthesis_WP496	0.999999999999324	-6.75951048606516e-13	2	0	0	74	1693
Arachidonate_Epoxygenase_-_Epoxide_Hydrolase_WP678	Arachidonate_Epoxygenase_-_Epoxide_Hydrolase_WP678	0.999999999999324	-6.75951048606516e-13	2	0	0	74	1693
RIG-I-MDA5_mediated_induction_of_IFN-alpha-beta_pathways_WP1904	RIG-I-MDA5_mediated_induction_of_IFN-alpha-beta_pathways_WP1904	0.999999999999324	-6.75951048606516e-13	2	0	0	74	1693
Signaling_by_Robo_receptor_WP1918	Signaling_by_Robo_receptor_WP1918	0.999999999999324	-6.75951048606516e-13	2	0	0	74	1693
Fanconi_Anemia_pathway_WP1816	Fanconi_Anemia_pathway_WP1816	0.999999999999324	-6.75951048606516e-13	2	0	0	74	1693
Fatty_Acid_Omega_Oxidation_WP206	Fatty_Acid_Omega_Oxidation_WP206	0.999999999999324	-6.75951048606516e-13	2	0	0	74	1693
Aflatoxin_B1_metabolism_WP699	Aflatoxin_B1_metabolism_WP699	0.999999999999324	-6.75951048606516e-13	2	0	0	74	1693
Blood_Clotting_Cascade_WP272	Blood_Clotting_Cascade_WP272	0.999999999999324	-6.75951048606516e-13	2	0	0	74	1693
Metabolism_of_nitric_oxide_WP1850	Metabolism_of_nitric_oxide_WP1850	0.999999999999324	-6.75951048606516e-13	2	0	0	74	1693
Hexose_transport_WP1828	Hexose_transport_WP1828	0.999999999999324	-6.75951048606516e-13	2	0	0	74	1693
Folate-Alcohol_and_Cancer_Pathway_WP1589	Folate-Alcohol_and_Cancer_Pathway_WP1589	0.999999999999324	-6.75951048606516e-13	2	0	0	74	1693
NLR_proteins_WP288	NLR_proteins_WP288	0.999999999999324	-6.75951048606516e-13	2	0	0	74	1693
Osteoclast_Signaling_WP12	Osteoclast_Signaling_WP12	0.999999999999324	-6.75951048606516e-13	2	0	0	74	1693
IL12_SIGNALING_PATHWAY_WP2111	IL12_SIGNALING_PATHWAY_WP2111	0.999999999999324	-6.75951048606516e-13	2	0	0	74	1693
Matrix_Metalloproteinases_WP129	Matrix_Metalloproteinases_WP129	0.999999999999324	-6.75951048606516e-13	2	0	0	74	1693
MAPK_targets-_Nuclear_events_mediated_by_MAP_kinases_WP1845	MAPK_targets-_Nuclear_events_mediated_by_MAP_kinases_WP1845	0.999999999999324	-6.75951048606516e-13	2	0	0	74	1693
Pentose_Phosphate_Pathway_WP134	Pentose_Phosphate_Pathway_WP134	1.00000000000016	1.61429360763599e-13	6	0	0	74	1693
Mitotic_G1-G1-S_phases_WP1858	Mitotic_G1-G1-S_phases_WP1858	1.00000000000016	1.61429360763599e-13	6	0	0	74	1693
Protein_folding_WP1892	Protein_folding_WP1892	1.00000000000016	1.61429360763599e-13	6	0	0	74	1693
Bile_acid_and_bile_salt_metabolism_WP1788	Bile_acid_and_bile_salt_metabolism_WP1788	1.00000000000016	1.61429360763599e-13	6	0	0	74	1693
Serotonin_Receptor_2_and_ELK-SRF-GATA4_signaling_WP732	Serotonin_Receptor_2_and_ELK-SRF-GATA4_signaling_WP732	1.00000000000016	1.61429360763599e-13	6	0	0	74	1693
Signalling_by_NGF_WP1976	Signalling_by_NGF_WP1976	1.00000000000016	1.61429360763599e-13	6	0	0	74	1693
Regulation_of_DNA_replication_WP1898	Regulation_of_DNA_replication_WP1898	1.00000000000016	1.61429360763599e-13	6	0	0	74	1693
Signal_Transduction_of_S1P_Receptor_WP26	Signal_Transduction_of_S1P_Receptor_WP26	1.00000000000016	1.61429360763599e-13	6	0	0	74	1693
Prostaglandin_Synthesis_and_Regulation_WP98	Prostaglandin_Synthesis_and_Regulation_WP98	1.00000000000016	1.61429360763599e-13	6	0	0	74	1693
Double-Strand_Break_Repair_WP1807	Double-Strand_Break_Repair_WP1807	1.00000000000016	1.61429360763599e-13	6	0	0	74	1693
Neurotransmitter_Release_Cycle_WP1871	Neurotransmitter_Release_Cycle_WP1871	1.00000000000016	1.61429360763599e-13	6	0	0	74	1693
Type_II_diabetes_mellitus_WP1584	Type_II_diabetes_mellitus_WP1584	1.00000000000016	1.61429360763599e-13	6	0	0	74	1693
Serotonin_Receptor_4-6-7_and_NR3C_Signaling_WP734	Serotonin_Receptor_4-6-7_and_NR3C_Signaling_WP734	1.00000000000033	3.25408818193246e-13	8	0	0	74	1693
Codeine_and_morphine_metabolism_WP1604	Codeine_and_morphine_metabolism_WP1604	1.00000000000033	3.25408818193246e-13	8	0	0	74	1693
Biogenic_Amine_Synthesis_WP550	Biogenic_Amine_Synthesis_WP550	1.00000000000033	3.25408818193246e-13	8	0	0	74	1693
Heme_Biosynthesis_WP561	Heme_Biosynthesis_WP561	1.00000000000033	3.25408818193246e-13	8	0	0	74	1693
Tamoxifen_metabolism_WP691	Tamoxifen_metabolism_WP691	1.00000000000033	3.25408818193246e-13	8	0	0	74	1693
Telomere_Maintenance_WP1928	Telomere_Maintenance_WP1928	1.00000000000033	3.25408818193246e-13	8	0	0	74	1693
Insulin_Synthesis_and_Processing_WP1830	Insulin_Synthesis_and_Processing_WP1830	1.00000000000033	3.25408818193246e-13	8	0	0	74	1693
Nuclear_Receptors_WP170	Nuclear_Receptors_WP170	1.00000000000033	3.25408818193246e-13	8	0	0	74	1693
Unfolded_Protein_Response_WP1939	Unfolded_Protein_Response_WP1939	1.00000000000033	3.25408818193246e-13	8	0	0	74	1693
Irinotecan_Pathway_WP229	Irinotecan_Pathway_WP229	1.00000000000033	3.25408818193246e-13	8	0	0	74	1693
Phase_1_-_Functionalization_of_compounds_WP1879	Phase_1_-_Functionalization_of_compounds_WP1879	1.00000000000033	3.25408818193246e-13	8	0	0	74	1693
SREBF_and_miR33_in_cholesterol_and_lipid_homeostasis_WP2011	SREBF_and_miR33_in_cholesterol_and_lipid_homeostasis_WP2011	1.00000000000033	3.25408818193246e-13	8	0	0	74	1693
Angiogenesis_WP1539	Angiogenesis_WP1539	1.00000000000033	3.25408818193246e-13	8	0	0	74	1693
Adipocyte_TarBase_WP2001	Adipocyte_TarBase_WP2001	1.00000000000033	3.25408818193246e-13	8	0	0	74	1693
Apoptosis_Modulation_by_HSP70_WP384	Apoptosis_Modulation_by_HSP70_WP384	1.00000000000086	8.63174378019785e-13	11	0	0	74	1693
Integration_of_energy_metabolism_WP1831	Integration_of_energy_metabolism_WP1831	1.00000000000086	8.63174378019785e-13	11	0	0	74	1693
Nucleotide_Metabolism_WP404	Nucleotide_Metabolism_WP404	1.00000000000086	8.63174378019785e-13	11	0	0	74	1693
Factors_involved_in_megakaryocyte_development_and_platelet_production_WP1815	Factors_involved_in_megakaryocyte_development_and_platelet_production_WP1815	1.00000000000086	8.63174378019785e-13	11	0	0	74	1693
Transport_of_vitamins,_nucleosides,_and_related_molecules_WP1937	Transport_of_vitamins,_nucleosides,_and_related_molecules_WP1937	1.00000000000086	8.63174378019785e-13	11	0	0	74	1693
MAPK_Cascade_WP422	MAPK_Cascade_WP422	1.00000000000086	8.63174378019785e-13	11	0	0	74	1693
Integrated_Cancer_pathway_WP1971	Integrated_Cancer_pathway_WP1971	1.00000000000086	8.63174378019785e-13	11	0	0	74	1693
Diurnally_regulated_genes_with_circadian_orthologs_WP410	Diurnally_regulated_genes_with_circadian_orthologs_WP410	1.00000000000086	8.63174378019785e-13	11	0	0	74	1693
Nuclear_receptors_in_lipid_metabolism_and_toxicity_WP299	Nuclear_receptors_in_lipid_metabolism_and_toxicity_WP299	1.00000000000086	8.63174378019785e-13	11	0	0	74	1693
Cori_Cycle_WP1946	Cori_Cycle_WP1946	1.00000000000182	1.81837878088231e-12	1	0	0	74	1693
TP53_network_WP1742	TP53_network_WP1742	1.00000000000182	1.81837878088231e-12	1	0	0	74	1693
Processing_of_Capped_Intronless_Pre-mRNA_WP1890	Processing_of_Capped_Intronless_Pre-mRNA_WP1890	1.00000000000182	1.81837878088231e-12	1	0	0	74	1693
Dissolution_of_Fibrin_Clot_WP1802	Dissolution_of_Fibrin_Clot_WP1802	1.00000000000182	1.81837878088231e-12	1	0	0	74	1693
Thyroxine_(thyroid_hormone)_production_WP1981	Thyroxine_(thyroid_hormone)_production_WP1981	1.00000000000182	1.81837878088231e-12	1	0	0	74	1693
Serotonin_Receptor_2_and_STAT3_Signaling_WP733	Serotonin_Receptor_2_and_STAT3_Signaling_WP733	1.00000000000182	1.81837878088231e-12	1	0	0	74	1693
mRNA_Editing_WP1862	mRNA_Editing_WP1862	1.00000000000182	1.81837878088231e-12	1	0	0	74	1693
Nucleotide_GPCRs_WP80	Nucleotide_GPCRs_WP80	1.00000000000182	1.81837878088231e-12	1	0	0	74	1693
Polyol_pathway_WP690	Polyol_pathway_WP690	1.00000000000182	1.81837878088231e-12	1	0	0	74	1693
Type_III_interferon_signaling_WP2113	Type_III_interferon_signaling_WP2113	1.00000000000182	1.81837878088231e-12	1	0	0	74	1693
Benzo(a)pyrene_metabolism_WP696	Benzo(a)pyrene_metabolism_WP696	1.00000000000182	1.81837878088231e-12	1	0	0	74	1693
Glycoprotein_VI_platelet_signaling_WP1970	Glycoprotein_VI_platelet_signaling_WP1970	1.00000000000182	1.81837878088231e-12	1	0	0	74	1693
Glycine_Metabolism_WP1495	Glycine_Metabolism_WP1495	1.00000000000182	1.81837878088231e-12	1	0	0	74	1693
Th1-Th2_WP1722	Th1-Th2_WP1722	1.00000000000182	1.81837878088231e-12	1	0	0	74	1693
Elevation_of_cytosolic_Ca2+_levels_WP1810	Elevation_of_cytosolic_Ca2+_levels_WP1810	1.00000000000182	1.81837878088231e-12	1	0	0	74	1693
Respiratory_electron_transport,_ATP_synthesis_by_chemiosmotic_coupling,_and_heat_production_by_uncoupling_proteins._WP1902	Respiratory_electron_transport,_ATP_synthesis_by_chemiosmotic_coupling,_and_heat_production_by_uncoupling_proteins._WP1902	1.00000000000182	1.81837878088231e-12	1	0	0	74	1693
Eukaryotic_Translation_Termination_WP1813	Eukaryotic_Translation_Termination_WP1813	1.00000000000182	1.81837878088231e-12	1	0	0	74	1693
Glucocorticoid_&_Mineralcorticoid_Metabolism_WP237	Glucocorticoid_&_Mineralcorticoid_Metabolism_WP237	1.00000000000182	1.81837878088231e-12	1	0	0	74	1693
Thrombin_signalling_through_proteinase_activated_receptors_(PARs)_WP1929	Thrombin_signalling_through_proteinase_activated_receptors_(PARs)_WP1929	1.00000000000182	1.81837878088231e-12	1	0	0	74	1693
GPVI-mediated_activation_cascade_WP1826	GPVI-mediated_activation_cascade_WP1826	1.00000000000182	1.81837878088231e-12	1	0	0	74	1693
Regulatory_RNA_pathways_WP1901	Regulatory_RNA_pathways_WP1901	1.00000000000182	1.81837878088231e-12	1	0	0	74	1693
Signaling_by_Notch_WP1915	Signaling_by_Notch_WP1915	1.00000000000182	1.81837878088231e-12	1	0	0	74	1693
Phase_II_conjugation_WP1880	Phase_II_conjugation_WP1880	1.00000000000182	1.81837878088231e-12	1	0	0	74	1693
Methylation_Pathways_WP704	Methylation_Pathways_WP704	1.00000000000182	1.81837878088231e-12	1	0	0	74	1693
amino_acid_conjugation_of_benzoic_acid_WP521	amino_acid_conjugation_of_benzoic_acid_WP521	1.00000000000182	1.81837878088231e-12	1	0	0	74	1693
ABC-family_proteins_mediated_transport_WP1780	ABC-family_proteins_mediated_transport_WP1780	1.00000000000182	1.81837878088231e-12	1	0	0	74	1693
Neurotransmitter_Clearance_In_The_Synaptic_Cleft_WP1870	Neurotransmitter_Clearance_In_The_Synaptic_Cleft_WP1870	1.00000000000182	1.81837878088231e-12	1	0	0	74	1693
TCA_BCH6203_WP1945	TCA_BCH6203_WP1945	1.00000000000182	1.81837878088231e-12	1	0	0	74	1693
Hedgehog_Signaling_Pathway_WP47	Hedgehog_Signaling_Pathway_WP47	1.00000000000229	2.29071720285373e-12	7	0	0	74	1693
Estrogen_metabolism_WP697	Estrogen_metabolism_WP697	1.00000000000229	2.29071720285373e-12	7	0	0	74	1693
Nucleotide_Excision_Repair_WP1980	Nucleotide_Excision_Repair_WP1980	1.00000000000229	2.29071720285373e-12	7	0	0	74	1693
Cholesterol_Biosynthesis_WP197	Cholesterol_Biosynthesis_WP197	1.00000000000229	2.29071720285373e-12	7	0	0	74	1693
Post-translational_modification-_synthesis_of_GPI-anchored_proteins_WP1887	Post-translational_modification-_synthesis_of_GPI-anchored_proteins_WP1887	1.00000000000229	2.29071720285373e-12	7	0	0	74	1693
Folate_Metabolism_WP176	Folate_Metabolism_WP176	1.00000000000229	2.29071720285373e-12	7	0	0	74	1693
Cell_Cycle_Checkpoints_WP1775	Cell_Cycle_Checkpoints_WP1775	1.00000000000229	2.29071720285373e-12	7	0	0	74	1693
Statin_Pathway_WP430	Statin_Pathway_WP430	1.00000000000229	2.29071720285373e-12	7	0	0	74	1693
GPCRs,_Class_C_Metabotropic_glutamate,_pheromone_WP501	GPCRs,_Class_C_Metabotropic_glutamate,_pheromone_WP501	1.00000000000264	2.63970544074017e-12	4	0	0	74	1693
Vitamin_D_synthesis_WP1531	Vitamin_D_synthesis_WP1531	1.00000000000264	2.63970544074017e-12	4	0	0	74	1693
Eukaryotic_Translation_Elongation_WP1811	Eukaryotic_Translation_Elongation_WP1811	1.00000000000264	2.63970544074017e-12	4	0	0	74	1693
Mitotic_G2-G2-M_phases_WP1859	Mitotic_G2-G2-M_phases_WP1859	1.00000000000264	2.63970544074017e-12	4	0	0	74	1693
Regulation_of_beta-cell_development_WP1897	Regulation_of_beta-cell_development_WP1897	1.00000000000264	2.63970544074017e-12	4	0	0	74	1693
Osteopontin_Signaling_WP1434	Osteopontin_Signaling_WP1434	1.00000000000264	2.63970544074017e-12	4	0	0	74	1693
Post-translational_modification-_gamma_carboxylation_and_hypusine_formation_WP1886	Post-translational_modification-_gamma_carboxylation_and_hypusine_formation_WP1886	1.00000000000264	2.63970544074017e-12	4	0	0	74	1693
Acetylcholine_Synthesis_WP528	Acetylcholine_Synthesis_WP528	1.00000000000264	2.63970544074017e-12	4	0	0	74	1693
Sulfation_Biotransformation_Reaction_WP692	Sulfation_Biotransformation_Reaction_WP692	1.00000000000264	2.63970544074017e-12	4	0	0	74	1693
Intrinsic_Pathway_for_Apoptosis_WP1841	Intrinsic_Pathway_for_Apoptosis_WP1841	1.00000000000264	2.63970544074017e-12	4	0	0	74	1693
Synthesis_and_Degradation_of_Ketone_Bodies_WP311	Synthesis_and_Degradation_of_Ketone_Bodies_WP311	1.00000000000264	2.63970544074017e-12	4	0	0	74	1693
RNA_Polymerase_II_Transcription_WP1906	RNA_Polymerase_II_Transcription_WP1906	1.00000000000318	3.18390967066035e-12	16	0	0	74	1693
Fatty_acid,_triacylglycerol,_and_ketone_body_metabolism_WP1817	Fatty_acid,_triacylglycerol,_and_ketone_body_metabolism_WP1817	1.00000000000318	3.18390967066035e-12	16	0	0	74	1693
Signaling_by_Insulin_receptor_WP1913	Signaling_by_Insulin_receptor_WP1913	1.00000000000318	3.18390967066035e-12	16	0	0	74	1693
Sphingolipid_Metabolism_WP1422	Sphingolipid_Metabolism_WP1422	1.00000000000318	3.18390967066035e-12	16	0	0	74	1693
Vitamin_A_and_carotenoid_metabolism_WP716	Vitamin_A_and_carotenoid_metabolism_WP716	1.00000000000327	3.26755425242249e-12	10	0	0	74	1693
Response_to_elevated_platelet_cytosolic_Ca2+_WP1903	Response_to_elevated_platelet_cytosolic_Ca2+_WP1903	1.00000000000327	3.26755425242249e-12	10	0	0	74	1693
Hypertrophy_Model_WP516	Hypertrophy_Model_WP516	1.00000000000327	3.26755425242249e-12	10	0	0	74	1693
Metabolism_of_water-soluble_vitamins_and_cofactors_WP1857	Metabolism_of_water-soluble_vitamins_and_cofactors_WP1857	1.00000000000327	3.26755425242249e-12	10	0	0	74	1693
GPCR_ligand_binding_WP1825	GPCR_ligand_binding_WP1825	1.00000000000373	3.72545221970332e-12	12	0	0	74	1693
One_Carbon_Metabolism_WP241	One_Carbon_Metabolism_WP241	1.00000000000373	3.72545221970332e-12	12	0	0	74	1693
Mitochondrial_LC-Fatty_Acid_Beta-Oxidation_WP368	Mitochondrial_LC-Fatty_Acid_Beta-Oxidation_WP368	1.00000000000373	3.72545221970332e-12	12	0	0	74	1693
Synthesis_of_DNA_WP1925	Synthesis_of_DNA_WP1925	1.00000000000373	3.72545221970332e-12	12	0	0	74	1693
miRs_in_Muscle_Cell_Differentiation_WP2012	miRs_in_Muscle_Cell_Differentiation_WP2012	1.00000000000373	3.72545221970332e-12	12	0	0	74	1693
Triacylglyceride_Synthesis_WP325	Triacylglyceride_Synthesis_WP325	1.00000000000373	3.72792220128579e-12	13	0	0	74	1693
cytochrome_P450_WP43	cytochrome_P450_WP43	1.00000000000373	3.72792220128579e-12	13	0	0	74	1693
Mitotic_M-M-G1_phases_WP1860	Mitotic_M-M-G1_phases_WP1860	1.00000000000373	3.72792220128579e-12	13	0	0	74	1693
Apoptosis_WP254	Apoptosis_WP254	1.00000000000373	3.72792220128579e-12	13	0	0	74	1693
Endothelin_WP2197	Endothelin_WP2197	1.00000000000373	3.72792220128579e-12	13	0	0	74	1693
Fatty_Acid_Biosynthesis_WP357	Fatty_Acid_Biosynthesis_WP357	1.00000000000373	3.72792220128579e-12	13	0	0	74	1693
Generic_Transcription_Pathway_WP1822	Generic_Transcription_Pathway_WP1822	1.00000000000373	3.72792220128579e-12	13	0	0	74	1693
tRNA_Aminoacylation_WP1938	tRNA_Aminoacylation_WP1938	1.00000000000468	4.68081663373102e-12	15	0	0	74	1693
Glucuronidation_WP698	Glucuronidation_WP698	1.00000000000482	4.82440432088825e-12	14	0	0	74	1693
Apoptotic_execution_phase_WP1784	Apoptotic_execution_phase_WP1784	1.00000000000482	4.82440432088825e-12	14	0	0	74	1693
Membrane_Trafficking_WP1846	Membrane_Trafficking_WP1846	1.00000000000482	4.82440432088825e-12	14	0	0	74	1693
Oxidative_Stress_WP408	Oxidative_Stress_WP408	1.00000000000482	4.82440432088825e-12	14	0	0	74	1693
Metabolism_of_carbohydrates_WP1848	Metabolism_of_carbohydrates_WP1848	1.00000000000482	4.82440432088825e-12	14	0	0	74	1693
Monoamine_Transport_WP727	Monoamine_Transport_WP727	1.00000000000482	4.82440432088825e-12	14	0	0	74	1693
FAS_pathway_and_Stress_induction_of_HSP_regulation_WP314	FAS_pathway_and_Stress_induction_of_HSP_regulation_WP314	1.00000000000482	4.82440432088825e-12	14	0	0	74	1693
TCA_Cycle_WP78	TCA_Cycle_WP78	1.00000000000604	6.04441561657121e-12	17	0	0	74	1693
Serotonin_HTR1_Group_and_FOS_Pathway_WP722	Serotonin_HTR1_Group_and_FOS_Pathway_WP722	1.00000000000604	6.04441561657121e-12	17	0	0	74	1693
Metabolism_of_RNA_WP1854	Metabolism_of_RNA_WP1854	1.00000000000604	6.04441561657121e-12	17	0	0	74	1693
Notch_Signaling_Pathway_WP268	Notch_Signaling_Pathway_WP268	1.00000000000604	6.04441561657121e-12	17	0	0	74	1693
Tryptophan_metabolism_WP465	Tryptophan_metabolism_WP465	1.00000000000732	7.32349539791351e-12	18	0	0	74	1693
RANKL-RANK_Signaling_Pathway_WP2018	RANKL-RANK_Signaling_Pathway_WP2018	1.00000000000732	7.32349539791351e-12	18	0	0	74	1693
Toll-like_receptor_signaling_pathway_WP75	Toll-like_receptor_signaling_pathway_WP75	1.00000000000732	7.32349539791351e-12	18	0	0	74	1693
Fatty_Acid_Beta_Oxidation_WP143	Fatty_Acid_Beta_Oxidation_WP143	1.00000000000773	7.73486263093243e-12	25	0	0	74	1693
Selenium_Metabolism_and_Selenoproteins_WP28	Selenium_Metabolism_and_Selenoproteins_WP28	1.00000000000822	8.22160665096033e-12	19	0	0	74	1693
SREBP_signalling_WP1982	SREBP_signalling_WP1982	1.00000000000908	9.08482662132768e-12	23	0	0	74	1693
Fluoropyrimidine_Activity_WP1601	Fluoropyrimidine_Activity_WP1601	1.00000000000947	9.46656133726644e-12	26	0	0	74	1693
Asparagine_N-linked_glycosylation_WP1785	Asparagine_N-linked_glycosylation_WP1785	1.0000000000104	1.03962276186251e-11	28	0	0	74	1693
Oxidative_phosphorylation_WP623	Oxidative_phosphorylation_WP623	1.00000000001058	1.05799890574636e-11	29	0	0	74	1693
Processing_of_Capped_Intron-Containing_Pre-mRNA_WP1889	Processing_of_Capped_Intron-Containing_Pre-mRNA_WP1889	1.00000000001368	1.36784732675907e-11	36	0	0	74	1693
DNA_Replication_WP466	DNA_Replication_WP466	1.00000000001368	1.36784732675907e-11	36	0	0	74	1693
Adipogenesis_WP236	Adipogenesis_WP236	1.00000000001405	1.40452133216918e-11	27	0	0	74	1693
Glycolysis_and_Gluconeogenesis_WP534	Glycolysis_and_Gluconeogenesis_WP534	1.00000000001405	1.40452133216918e-11	27	0	0	74	1693
Proteasome_Degradation_WP183	Proteasome_Degradation_WP183	1.00000000001563	1.56265836515518e-11	40	0	0	74	1693
Eukaryotic_Transcription_Initiation_WP405	Eukaryotic_Transcription_Initiation_WP405	1.00000000001633	1.6332193844264e-11	37	0	0	74	1693
mRNA_processing_WP411	mRNA_processing_WP411	1.00000000002993	2.99304191748624e-11	96	0	0	74	1693
