NM_001014707
NM_001014709
NM_001014710
NM_001014712
NM_001014728
NM_001014739
NM_001014743
NM_001014750
NM_001014758
NM_001014759
NM_001031862
NM_001031863
NM_001031864
NM_001031886
NM_001031913
NM_001031916
NM_001038731
NM_001038734
NM_001038740
NM_001038748
NM_001038752
NM_001038755
NM_001042791
NM_001042795
NM_001042813
NM_001042852
NM_001103399
NM_001103401
NM_001103427
NM_001103438
NM_001103440
NM_001103443
NM_001103449
NM_001103463
NM_001103464
NM_001103477
NM_001103484
NM_001103485
NM_001103497
NM_001103504
NM_001103513
NM_001103521
NM_001103534
NM_001103551
NM_001103562
NM_001103564
NM_001144668
NM_001144670
NM_001144672
NM_001144673
NM_001144686
NM_001144687
NM_001144706
NM_001144750
NM_001144751
NM_001144754
NM_001169155
NM_001169160
NM_001169176
NM_001169179
NM_001169181
NM_001169187
NM_001169188
NM_001169197
NM_001169226
NM_001169230
NM_001169233
NM_001169234
NM_001169236
NM_001169238
NM_001169254
NM_001169258
NM_001169259
NM_001169270
NM_001169278
NM_001169279
NM_001169282
NM_001169283
NM_001169304
NM_001169325
NM_001169326
NM_001169341
NM_001169343
NM_001169345
NM_001201605
NM_001201619
NM_001201636
NM_001201654
NM_001201655
NM_001201667
NM_001201721
NM_001201726
NM_001201728
NM_001201738
NM_001201742
NM_001201748
NM_001258515
NM_001258519
NM_001258520
NM_001258522
NM_001258532
NM_001258533
NM_001258550
NM_001258551
NM_001258557
NM_001258586
NM_001258589
NM_001258600
NM_001258603
NM_001258604
NM_001258606
NM_001258608
NM_001258635
NM_001258647
NM_001258651
NM_001258670
NM_001258675
NM_001258695
NM_001258697
NM_001258698
NM_001258707
NM_001258716
NM_001258723
NM_001258728
NM_001258731
NM_001258739
NM_001258746
NM_001258755
NM_001258774
NM_001258778
NM_001258780
NM_001258782
NM_001258799
NM_001258821
NM_001258839
NM_001258840
NM_001258843
NM_001258851
NM_001258852
NM_001258853
NM_001258854
NM_001258855
NM_001258856
NM_001258868
NM_001272163
NM_001272177
NM_001272180
NM_001272191
NM_001272192
NM_001272194
NM_001272198
NM_001272199
NM_001272200
NM_001272203
NM_001272209
NM_001272227
NM_001272228
NM_001272229
NM_001272231
NM_001272232
NM_001272234
NM_001272235
NM_001272237
NM_001272238
NM_001272240
NM_001272244
NM_001272252
NM_001272272
NM_001272281
NM_001272284
NM_001272285
NM_001272302
NM_001272304
NM_001272309
NM_001272319
NM_001272327
NM_001272330
NM_001272332
NM_001272333
NM_001272336
NM_001272338
NM_001272359
NM_001272365
NM_001272366
NM_001272398
NM_001272400
NM_001272421
NM_001272424
NM_001272427
NM_001272449
NM_001272451
NM_001272454
NM_001272459
NM_001272469
NM_001272479
NM_001272482
NM_001272484
NM_001272488
NM_001272489
NM_001272496
NM_001272499
NM_001272503
NM_001272509
NM_001272512
NM_001272516
NM_001272517
NM_001272525
NM_001272530
NM_001272532
NM_001272551
NM_001272555
NM_001272566
NM_001272580
NM_001272587
NM_001272590
NM_001272596
NM_001272597
NM_001272598
NM_001272603
NM_001272605
NM_001272617
NM_001272631
NM_001272637
NM_001272639
NM_001272641
NM_001272642
NM_001272644
NM_001272651
NM_001272667
NM_001272669
NM_001272670
NM_001272671
NM_001272672
NM_001272681
NM_001272682
NM_001272688
NM_001272704
NM_001272707
NM_001272709
NM_001272713
NM_001272715
NM_001272725
NM_001272726
NM_001272739
NM_001272740
NM_001272749
NM_001272760
NM_001272761
NM_001272762
NM_001272765
NM_001272766
NM_001272771
NM_001272773
NM_001272786
NM_001272790
NM_001272802
NM_001272811
NM_001272824
NM_001272825
NM_001272837
NM_001272842
NM_001272843
NM_001272844
NM_001272852
NM_001272854
NM_057366
NM_057367
NM_057544
NM_057730
NM_057903
NM_057941
NM_057973
NM_078492
NM_078498
NM_078501
NM_078532
NM_078580
NM_078599
NM_078601
NM_078603
NM_078608
NM_078663
NM_078674
NM_078675
NM_080295
NM_080326
NM_080714
NM_130482
NM_130533
NM_130553
NM_130580
NM_130585
NM_130600
NM_130614
NM_130630
NM_130646
NM_130652
NM_130659
NM_130704
NM_130705
NM_130709
NM_130714
NM_131919
NM_131926
NM_131944
NM_131960
NM_131966
NM_131972
NM_131978
NM_131997
NM_132041
NM_132048
NM_132059
NM_132069
NM_132070
NM_132088
NM_132093
NM_132101
NM_132122
NM_132158
NM_132169
NM_132171
NM_132172
NM_132191
NM_132202
NM_132207
NM_132209
NM_132253
NM_132348
NM_132351
NM_132354
NM_132356
NM_132358
NM_132362
NM_132384
NM_132392
NM_132411
NM_132415
NM_132416
NM_132438
NM_132451
NM_132456
NM_132462
NM_132463
NM_132473
NM_132479
NM_132487
NM_132489
NM_132502
NM_132507
NM_132533
NM_132567
NM_132568
NM_132591
NM_132595
NM_132617
NM_132632
NM_132639
NM_132659
NM_132669
NM_132682
NM_132708
NM_132720
NM_132732
NM_132736
NM_132752
NM_132754
NM_132773
NM_132841
NM_132842
NM_132852
NM_132867
NM_132908
NM_132919
NM_132926
NM_132957
NM_132990
NM_133015
NM_133022
NM_133033
NM_133041
NM_133057
NM_133064
NM_133065
NM_133070
NM_133083
NM_133112
NM_133125
NM_133137
NM_133141
NM_133147
NM_133154
NM_133162
NM_134536
NM_134562
NM_134566
NM_134595
NM_138988
NM_144034
NM_144289
NM_166834
NM_166857
NM_166862
NM_166864
NM_166869
NM_166872
NM_166873
NM_166879
NM_166881
NM_166903
NM_166908
NM_166915
NM_166947
NM_166962
NM_166965
NM_166969
NM_166972
NM_166975
NM_167006
NM_167008
NM_167016
NM_167024
NM_167033
NM_167058
NM_167078
NM_167085
NM_167093
NM_167109
NM_167116
NM_167121
NM_167129
NM_167136
NM_167144
NM_167163
NM_167169
NM_167178
NM_167200
NM_167216
NM_167225
NM_167229
NM_167230
NM_167241
NM_167250
NM_167264
NM_167266
NM_167275
NM_167284
NM_167288
NM_167293
NM_167308
NM_167312
NM_167324
NM_167325
NM_167347
NM_167353
NM_167357
NM_167367
NM_167369
NM_167374
NM_167386
NM_167396
NM_167403
NM_167421
NM_167427
NM_167436
NM_167439
NM_167441
NM_167453
NM_167460
NM_167469
NM_167470
NM_167472
NM_167473
NM_167481
NM_167487
NM_167495
NM_167496
NM_167513
NM_167525
NM_167532
NM_167539
NM_167553
NM_167568
NM_167571
NM_167573
NM_167604
NM_167606
NM_167607
NM_167625
NM_167651
NM_167700
NM_167703
NM_167711
NM_167724
NM_167736
NM_167754
NM_167762
NM_167779
NM_176683
NM_176699
NM_176718
NM_176745
NM_176776
NM_206638
NM_206644
NM_206647
NM_206650
NM_206655
NM_206666
NM_206673
NM_206676
NM_206679
NM_206685
NM_206688
NM_206740
NM_206773
NM_206780
NM_206797_2
NR_002462
NR_002465
NR_002469
NR_002470
NR_003729
NR_003740
NR_003741
NR_003742
NR_003748
NR_037727
NR_047765
NR_047775
NR_047834
NR_047863
NR_073634
NR_073657
