CG1832_Input_Kc_Cells_GFP_RNAi_Combined
CG1832_ChIP_Kc_Cells_GFP_RNAi_Combined
0.769008157315515

CG1832_Input_S2_Cells_GPF_RNAi_Combined
CG1832_ChIP_S2_Cells_GFP_RNAi_Combined
0.803186609801239

CG1832_Input_S2_Cells_MSL2_RNAi_Combined
CG1832_ChIP_S2_Cells_MSL2_RNAi_Combined
0.00250156347717323

MSL_Input_S2_Cells_Combined
MSL_ChIP_S2_Cells_Combined
1.00283144475518