NM_001014707
NM_001014708
NM_001014709
NM_001014711
NM_001014712
NM_001014713
NM_001014714
NM_001014715
NM_001014718
NM_001014719
NM_001014720
NM_001014721
NM_001014722
NM_001014723
NM_001014725
NM_001014726
NM_001014728
NM_001014729
NM_001014731
NM_001014734
NM_001014736
NM_001014737
NM_001014738
NM_001014744
NM_001014745
NM_001014746
NM_001014747
NM_001014752
NM_001014753
NM_001014754
NM_001014755
NM_001014756
NM_001014757
NM_001014759
NM_001014760
NM_001031863
NM_001031865
NM_001031867
NM_001031868
NM_001031870
NM_001031871
NM_001031871_1
NM_001031872
NM_001031873
NM_001031874
NM_001031875
NM_001031876
NM_001031877
NM_001031878
NM_001031879
NM_001031881
NM_001031882
NM_001031883
NM_001031886
NM_001031888
NM_001031889
NM_001031890
NM_001031891
NM_001031892
NM_001031893
NM_001031894
NM_001031897
NM_001031900
NM_001031901
NM_001031904
NM_001031908
NM_001031910
NM_001031912
NM_001031913
NM_001031917
NM_001038728
NM_001038730
NM_001038731
NM_001038732
NM_001038733
NM_001038734
NM_001038736
NM_001038738
NM_001038740
NM_001038745
NM_001038746
NM_001038747
NM_001038748
NM_001038750
NM_001038752
NM_001038753
NM_001038754
NM_001038755
NM_001038756
NM_001038759
NM_001038760
NM_001038763
NM_001038764
NM_001038765
NM_001038766
NM_001038768
NM_001038769
NM_001042789
NM_001042791
NM_001042793
NM_001042794
NM_001042796
NM_001042797
NM_001042798
NM_001042799
NM_001042800
NM_001042801
NM_001042802
NM_001042803
NM_001042804
NM_001042805
NM_001042808
NM_001042810
NM_001042811
NM_001042812
NM_001042815
NM_001042816
NM_001042817
NM_001042818
NM_001042819
NM_001042820
NM_001042822
NM_001042841
NM_001042846
NM_001042847
NM_001042852
NM_001042855
NM_001042856
NM_001042858
NM_001042859
NM_001103384
NM_001103386
NM_001103388
NM_001103389
NM_001103390
NM_001103391
NM_001103393
NM_001103394
NM_001103395
NM_001103396
NM_001103397
NM_001103398
NM_001103400
NM_001103403
NM_001103407
NM_001103410
NM_001103411
NM_001103412
NM_001103414
NM_001103417
NM_001103420
NM_001103421
NM_001103423
NM_001103426
NM_001103427
NM_001103429
NM_001103430
NM_001103431
NM_001103433
NM_001103435
NM_001103436
NM_001103437
NM_001103441
NM_001103442
NM_001103443
NM_001103446
NM_001103447
NM_001103451
NM_001103452
NM_001103453
NM_001103454
NM_001103456
NM_001103458
NM_001103459
NM_001103460
NM_001103461
NM_001103464
NM_001103468
NM_001103470
NM_001103471
NM_001103474
NM_001103475
NM_001103477
NM_001103480
NM_001103481
NM_001103483
NM_001103487
NM_001103488
NM_001103489
NM_001103490
NM_001103491
NM_001103492
NM_001103493
NM_001103494
NM_001103495
NM_001103496
NM_001103498
NM_001103499
NM_001103502
NM_001103503
NM_001103504
NM_001103505
NM_001103506
NM_001103508
NM_001103511
NM_001103513
NM_001103515
NM_001103517
NM_001103518
NM_001103519
NM_001103524
NM_001103525
NM_001103526
NM_001103527
NM_001103529
NM_001103530
NM_001103531
NM_001103532
NM_001103533
NM_001103534
NM_001103535
NM_001103537
NM_001103538
NM_001103539
NM_001103540
NM_001103541
NM_001103542
NM_001103543
NM_001103544
NM_001103545
NM_001103546
NM_001103547
NM_001103548
NM_001103549
NM_001103552
NM_001103557
NM_001103558
NM_001103559
NM_001103560
NM_001103561
NM_001103562
NM_001103563
NM_001103568
NM_001103570
NM_001103571
NM_001103572
NM_001144665
NM_001144667
NM_001144668
NM_001144669
NM_001144671
NM_001144672
NM_001144673
NM_001144674
NM_001144675
NM_001144677
NM_001144678
NM_001144680
NM_001144682
NM_001144683
NM_001144684
NM_001144685
NM_001144687
NM_001144688
NM_001144693
NM_001144694
NM_001144695
NM_001144696
NM_001144697
NM_001144701
NM_001144704
NM_001144708
NM_001144710
NM_001144711
NM_001144712
NM_001144713
NM_001144714
NM_001144716
NM_001144717
NM_001144718
NM_001144719
NM_001144720
NM_001144721
NM_001144724
NM_001144725
NM_001144726
NM_001144731
NM_001144732
NM_001144733
NM_001144737
NM_001144741
NM_001144742
NM_001144743
NM_001144744
NM_001144746
NM_001144748
NM_001144749
NM_001144751
NM_001144752
NM_001144753
NM_001144754
NM_001169155
NM_001169157
NM_001169159
NM_001169163
NM_001169166
NM_001169167
NM_001169168
NM_001169169
NM_001169170
NM_001169171
NM_001169172
NM_001169173
NM_001169176
NM_001169177
NM_001169178
NM_001169179
NM_001169180
NM_001169181
NM_001169182
NM_001169183
NM_001169184
NM_001169185
NM_001169185_1
NM_001169186
NM_001169187
NM_001169188
NM_001169189
NM_001169190
NM_001169191
NM_001169192
NM_001169195
NM_001169196
NM_001169197
NM_001169202
NM_001169203
NM_001169204
NM_001169206
NM_001169207
NM_001169210
NM_001169212
NM_001169213
NM_001169219
NM_001169221
NM_001169223
NM_001169225
NM_001169226
NM_001169227
NM_001169231
NM_001169232
NM_001169235
NM_001169236
NM_001169237
NM_001169238
NM_001169239
NM_001169241
NM_001169242
NM_001169243
NM_001169244
NM_001169245
NM_001169246
NM_001169247
NM_001169251
NM_001169252
NM_001169253
NM_001169254
NM_001169255
NM_001169256
NM_001169260
NM_001169261
NM_001169262
NM_001169264
NM_001169265
NM_001169266
NM_001169268
NM_001169270
NM_001169271
NM_001169272
NM_001169275
NM_001169277
NM_001169278
NM_001169279
NM_001169281
NM_001169284
NM_001169285
NM_001169286
NM_001169287
NM_001169289
NM_001169291
NM_001169292
NM_001169294
NM_001169297
NM_001169298
NM_001169303
NM_001169304
NM_001169307
NM_001169310
NM_001169312_2
NM_001169315_1
NM_001169316_1
NM_001169317
NM_001169319
NM_001169320
NM_001169321
NM_001169322
NM_001169323
NM_001169325
NM_001169327
NM_001169328
NM_001169329
NM_001169331
NM_001169332
NM_001169333
NM_001169334
NM_001169336
NM_001169337
NM_001169338
NM_001169339
NM_001169341
NM_001169342
NM_001169343
NM_001169344
NM_001201591
NM_001201594
NM_001201595
NM_001201596
NM_001201597
NM_001201598
NM_001201599
NM_001201601
NM_001201603
NM_001201604
NM_001201607
NM_001201608
NM_001201609
NM_001201610
NM_001201615
NM_001201624
NM_001201626
NM_001201627
NM_001201628
NM_001201630
NM_001201631
NM_001201633
NM_001201634
NM_001201635
NM_001201636
NM_001201637
NM_001201638
NM_001201639
NM_001201640
NM_001201641
NM_001201642
NM_001201643
NM_001201644
NM_001201645
NM_001201646
NM_001201647
NM_001201648
NM_001201650
NM_001201651
NM_001201652
NM_001201653
NM_001201654
NM_001201655
NM_001201656
NM_001201657
NM_001201658
NM_001201659
NM_001201660
NM_001201662
NM_001201663
NM_001201664
NM_001201665
NM_001201666
NM_001201667
NM_001201668
NM_001201669
NM_001201670
NM_001201671
NM_001201672
NM_001201673
NM_001201674
NM_001201675
NM_001201676
NM_001201679
NM_001201680
NM_001201681
NM_001201682
NM_001201683
NM_001201685
NM_001201686
NM_001201687
NM_001201688
NM_001201689
NM_001201690
NM_001201691
NM_001201693
NM_001201696
NM_001201697
NM_001201698
NM_001201699
NM_001201700
NM_001201701
NM_001201702
NM_001201703
NM_001201704
NM_001201705
NM_001201706
NM_001201707
NM_001201708
NM_001201709
NM_001201710
NM_001201711
NM_001201712
NM_001201713
NM_001201714
NM_001201715
NM_001201716
NM_001201717
NM_001201718
NM_001201719
NM_001201720
NM_001201721
NM_001201722
NM_001201723
NM_001201725
NM_001201727
NM_001201728
NM_001201730
NM_001201731
NM_001201732
NM_001201733
NM_001201735
NM_001201736
NM_001201737
NM_001201738
NM_001201739
NM_001201741
NM_001201742
NM_001201743
NM_001201744
NM_001201745
NM_001201746
NM_001201749
NM_001258512
NM_001258513
NM_001258514
NM_001258515
NM_001258516
NM_001258517
NM_001258518
NM_001258519
NM_001258524
NM_001258525
NM_001258527
NM_001258528
NM_001258529
NM_001258530
NM_001258531
NM_001258535
NM_001258536
NM_001258537
NM_001258539
NM_001258540
NM_001258543
NM_001258544
NM_001258545
NM_001258546
NM_001258547
NM_001258548
NM_001258550
NM_001258551
NM_001258554
NM_001258556
NM_001258557
NM_001258558
NM_001258560
NM_001258561
NM_001258562
NM_001258563
NM_001258565
NM_001258566
NM_001258567
NM_001258569
NM_001258573
NM_001258574
NM_001258575
NM_001258576
NM_001258577
NM_001258579
NM_001258580
NM_001258581
NM_001258582
NM_001258583
NM_001258584
NM_001258585
NM_001258587
NM_001258590
NM_001258593
NM_001258596
NM_001258598
NM_001258599
NM_001258600
NM_001258601
NM_001258603
NM_001258604
NM_001258605
NM_001258606
NM_001258607
NM_001258609
NM_001258610
NM_001258611
NM_001258612
NM_001258613
NM_001258614
NM_001258616
NM_001258617
NM_001258618
NM_001258619
NM_001258620
NM_001258621
NM_001258622
NM_001258624
NM_001258625
NM_001258629
NM_001258631
NM_001258632
NM_001258636
NM_001258639
NM_001258641
NM_001258642
NM_001258643
NM_001258645
NM_001258647
NM_001258648
NM_001258649
NM_001258650
NM_001258651
NM_001258655
NM_001258656
NM_001258658
NM_001258660
NM_001258661
NM_001258662
NM_001258663
NM_001258664
NM_001258666
NM_001258667
NM_001258668
NM_001258669
NM_001258670
NM_001258671
NM_001258672
NM_001258673
NM_001258674
NM_001258675
NM_001258676
NM_001258678
NM_001258679
NM_001258685
NM_001258686
NM_001258687
NM_001258688
NM_001258690
NM_001258691
NM_001258692
NM_001258693
NM_001258694
NM_001258696
NM_001258697
NM_001258698
NM_001258699
NM_001258700
NM_001258701
NM_001258703
NM_001258704
NM_001258705
NM_001258707
NM_001258708
NM_001258709
NM_001258712
NM_001258714
NM_001258715
NM_001258719
NM_001258720
NM_001258721
NM_001258722
NM_001258723
NM_001258725
NM_001258726
NM_001258727
NM_001258730
NM_001258731
NM_001258732
NM_001258733
NM_001258734
NM_001258735
NM_001258737
NM_001258739
NM_001258746
NM_001258747
NM_001258748
NM_001258749
NM_001258750
NM_001258751
NM_001258753
NM_001258754
NM_001258756
NM_001258757
NM_001258758
NM_001258759
NM_001258760
NM_001258762
NM_001258766
NM_001258767
NM_001258768
NM_001258769
NM_001258771
NM_001258772
NM_001258773
NM_001258774
NM_001258777
NM_001258778
NM_001258779
NM_001258781
NM_001258784
NM_001258785
NM_001258786
NM_001258790
NM_001258792
NM_001258794
NM_001258796
NM_001258797
NM_001258798
NM_001258799
NM_001258800
NM_001258801
NM_001258802
NM_001258803
NM_001258804
NM_001258805
NM_001258806
NM_001258807
NM_001258808
NM_001258809
NM_001258810
NM_001258811
NM_001258814
NM_001258819
NM_001258820
NM_001258821
NM_001258823
NM_001258824
NM_001258825
NM_001258826
NM_001258829
NM_001258830
NM_001258831
NM_001258832
NM_001258833
NM_001258838
NM_001258839
NM_001258841
NM_001258842
NM_001258844
NM_001258845
NM_001258847
NM_001258848
NM_001258849
NM_001258850
NM_001258852
NM_001258853
NM_001258854
NM_001258855
NM_001258856
NM_001258857
NM_001258859
NM_001258860
NM_001258863
NM_001258866
NM_001258867
NM_001258868
NM_001258870
NM_001258871
NM_001272159
NM_001272161
NM_001272162
NM_001272163
NM_001272165
NM_001272166
NM_001272167
NM_001272171
NM_001272172
NM_001272173
NM_001272175
NM_001272176
NM_001272178
NM_001272179
NM_001272180
NM_001272182
NM_001272183
NM_001272184
NM_001272185
NM_001272186
NM_001272188
NM_001272190
NM_001272192
NM_001272195
NM_001272197
NM_001272198
NM_001272199
NM_001272200
NM_001272201
NM_001272202
NM_001272203
NM_001272204
NM_001272205
NM_001272206
NM_001272208
NM_001272211
NM_001272213
NM_001272214
NM_001272215
NM_001272217
NM_001272218
NM_001272219
NM_001272220
NM_001272221
NM_001272222
NM_001272223
NM_001272224
NM_001272225
NM_001272227
NM_001272228
NM_001272229
NM_001272230
NM_001272231
NM_001272232
NM_001272233
NM_001272234
NM_001272235
NM_001272236
NM_001272239
NM_001272240
NM_001272242
NM_001272244
NM_001272245
NM_001272246
NM_001272247
NM_001272249
NM_001272251
NM_001272252
NM_001272253
NM_001272255
NM_001272256
NM_001272257
NM_001272260
NM_001272262
NM_001272263
NM_001272264
NM_001272265
NM_001272266
NM_001272267
NM_001272268
NM_001272269
NM_001272270
NM_001272271
NM_001272272
NM_001272274
NM_001272275
NM_001272277
NM_001272283
NM_001272284
NM_001272287
NM_001272288
NM_001272289
NM_001272290
NM_001272291
NM_001272292
NM_001272293
NM_001272294
NM_001272296
NM_001272297
NM_001272299
NM_001272301
NM_001272303
NM_001272305
NM_001272307
NM_001272308
NM_001272310
NM_001272312
NM_001272313
NM_001272315
NM_001272316
NM_001272318
NM_001272319
NM_001272320
NM_001272322
NM_001272323
NM_001272325
NM_001272326
NM_001272328
NM_001272329
NM_001272330
NM_001272331
NM_001272332
NM_001272333
NM_001272334
NM_001272336
NM_001272337
NM_001272338
NM_001272340
NM_001272343
NM_001272345
NM_001272346
NM_001272347
NM_001272348
NM_001272349
NM_001272350
NM_001272351
NM_001272352
NM_001272356
NM_001272357
NM_001272358
NM_001272363
NM_001272364
NM_001272365
NM_001272366
NM_001272368
NM_001272369
NM_001272370
NM_001272371
NM_001272376
NM_001272378
NM_001272379
NM_001272381
NM_001272383
NM_001272384
NM_001272385
NM_001272386
NM_001272387
NM_001272388
NM_001272389
NM_001272392
NM_001272394
NM_001272395
NM_001272397
NM_001272399
NM_001272401
NM_001272407
NM_001272408
NM_001272409
NM_001272411
NM_001272414
NM_001272415
NM_001272419
NM_001272422
NM_001272423
NM_001272424
NM_001272426
NM_001272427
NM_001272428
NM_001272432
NM_001272433
NM_001272434
NM_001272435
NM_001272436
NM_001272437
NM_001272438
NM_001272439
NM_001272440
NM_001272441
NM_001272442
NM_001272443
NM_001272446
NM_001272447
NM_001272449
NM_001272451
NM_001272452
NM_001272453
NM_001272455
NM_001272458
NM_001272459
NM_001272461
NM_001272462
NM_001272463
NM_001272465
NM_001272467
NM_001272468
NM_001272470
NM_001272473
NM_001272474
NM_001272479
NM_001272480
NM_001272481
NM_001272487
NM_001272488
NM_001272490
NM_001272491
NM_001272493
NM_001272494
NM_001272495
NM_001272496
NM_001272498
NM_001272499
NM_001272500
NM_001272501
NM_001272502
NM_001272503
NM_001272504
NM_001272505
NM_001272506
NM_001272507
NM_001272508
NM_001272511
NM_001272513
NM_001272514
NM_001272515
NM_001272516
NM_001272517
NM_001272520
NM_001272521
NM_001272522
NM_001272524
NM_001272526
NM_001272527
NM_001272528
NM_001272529
NM_001272531
NM_001272532
NM_001272533
NM_001272534
NM_001272535
NM_001272536
NM_001272538
NM_001272539
NM_001272541
NM_001272544
NM_001272545
NM_001272546
NM_001272547
NM_001272548
NM_001272549
NM_001272551
NM_001272552
NM_001272553
NM_001272555
NM_001272557
NM_001272559
NM_001272560
NM_001272561
NM_001272562
NM_001272563
NM_001272564
NM_001272565
NM_001272566
NM_001272569
NM_001272570
NM_001272571
NM_001272572
NM_001272573
NM_001272575
NM_001272576
NM_001272577
NM_001272583
NM_001272584
NM_001272585
NM_001272586
NM_001272587
NM_001272588
NM_001272590
NM_001272591
NM_001272593
NM_001272595
NM_001272597
NM_001272599
NM_001272600
NM_001272601
NM_001272602
NM_001272604
NM_001272605
NM_001272606
NM_001272608
NM_001272611
NM_001272613
NM_001272616
NM_001272620
NM_001272622
NM_001272623
NM_001272624
NM_001272626
NM_001272627
NM_001272628
NM_001272629
NM_001272630
NM_001272631
NM_001272632
NM_001272633
NM_001272634
NM_001272636
NM_001272637
NM_001272638
NM_001272641
NM_001272642
NM_001272643
NM_001272644
NM_001272645
NM_001272648
NM_001272649
NM_001272650
NM_001272651
NM_001272652
NM_001272653
NM_001272654
NM_001272655
NM_001272657
NM_001272658
NM_001272660
NM_001272665
NM_001272666
NM_001272668
NM_001272669
NM_001272670
NM_001272671
NM_001272672
NM_001272673
NM_001272675
NM_001272676
NM_001272677
NM_001272678
NM_001272679
NM_001272681
NM_001272684
NM_001272686
NM_001272687
NM_001272688
NM_001272689
NM_001272690
NM_001272691
NM_001272693
NM_001272696
NM_001272697
NM_001272699
NM_001272701
NM_001272702
NM_001272704
NM_001272705
NM_001272709
NM_001272710
NM_001272711
NM_001272712
NM_001272713
NM_001272717
NM_001272718
NM_001272719
NM_001272721
NM_001272722
NM_001272723
NM_001272724
NM_001272725
NM_001272726
NM_001272728
NM_001272729
NM_001272730
NM_001272732
NM_001272733
NM_001272736
NM_001272737
NM_001272738
NM_001272740
NM_001272741
NM_001272742
NM_001272744
NM_001272745
NM_001272746
NM_001272747
NM_001272748
NM_001272750
NM_001272751
NM_001272752
NM_001272755
NM_001272756
NM_001272757
NM_001272760
NM_001272764
NM_001272766
NM_001272768
NM_001272769
NM_001272770
NM_001272775
NM_001272776
NM_001272777
NM_001272778
NM_001272779
NM_001272780
NM_001272781
NM_001272783
NM_001272784
NM_001272786
NM_001272787
NM_001272788
NM_001272789
NM_001272790
NM_001272791
NM_001272792
NM_001272793
NM_001272794
NM_001272796
NM_001272797
NM_001272798
NM_001272799
NM_001272801
NM_001272802
NM_001272804
NM_001272805
NM_001272809
NM_001272811
NM_001272812
NM_001272813
NM_001272814
NM_001272815
NM_001272816
NM_001272819
NM_001272820
NM_001272821
NM_001272822
NM_001272823
NM_001272826
NM_001272827
NM_001272828
NM_001272829
NM_001272830
NM_001272831
NM_001272832
NM_001272835
NM_001272841
NM_001272842
NM_001272843
NM_001272844
NM_001272847
NM_001272848
NM_001272849
NM_001272850
NM_001272851
NM_001272853
NM_001272854
NM_001272855
NM_001272856
NM_057243
NM_057245
NM_057267
NM_057275
NM_057281
NM_057307
NM_057317
NM_057318
NM_057329
NM_057336
NM_057346
NM_057366
NM_057367
NM_057368
NM_057369
NM_057378
NM_057388
NM_057389
NM_057402
NM_057406
NM_057429
NM_057433
NM_057439
NM_057444
NM_057455
NM_057472
NM_057511
NM_057512
NM_057518
NM_057523
NM_057543
NM_057544
NM_057553
NM_057576
NM_057593
NM_057596
NM_057682
NM_057711
NM_057721
NM_057722
NM_057726
NM_057727
NM_057757
NM_057770
NM_057783
NM_057786
NM_057799
NM_057814
NM_057901
NM_057902
NM_057903
NM_057938
NM_057941
NM_057942
NM_057961
NM_057965
NM_057984
NM_057990
NM_058017
NM_058041
NM_058042
NM_058103
NM_058104
NM_058134
NM_058136
NM_058137
NM_058143
NM_058144
NM_058145
NM_058146
NM_058151
NM_058162
NM_078489
NM_078490
NM_078491
NM_078493
NM_078494
NM_078495
NM_078496
NM_078497
NM_078498
NM_078500
NM_078501
NM_078502
NM_078503
NM_078504
NM_078505
NM_078506
NM_078507
NM_078508
NM_078509
NM_078510
NM_078512
NM_078513
NM_078514
NM_078515
NM_078516
NM_078518
NM_078519
NM_078520
NM_078521
NM_078523
NM_078524
NM_078525
NM_078527
NM_078528
NM_078530
NM_078532
NM_078533
NM_078534
NM_078535
NM_078537
NM_078538
NM_078539
NM_078540
NM_078541
NM_078542
NM_078543
NM_078547
NM_078548
NM_078551
NM_078552
NM_078554
NM_078555
NM_078557
NM_078558
NM_078560
NM_078561
NM_078562
NM_078563
NM_078564
NM_078567
NM_078568
NM_078569
NM_078570
NM_078571
NM_078573
NM_078574
NM_078575
NM_078576
NM_078577
NM_078578
NM_078581
NM_078583
NM_078585
NM_078586
NM_078587
NM_078588
NM_078589
NM_078590
NM_078591
NM_078592
NM_078593
NM_078596
NM_078597
NM_078598
NM_078600
NM_078601
NM_078602
NM_078604
NM_078605
NM_078606
NM_078607
NM_078609
NM_078610
NM_078611
NM_078612
NM_078613
NM_078614
NM_078615
NM_078616
NM_078631
NM_078633
NM_078634
NM_078635
NM_078636
NM_078637
NM_078640
NM_078641
NM_078642
NM_078643
NM_078644
NM_078645
NM_078646
NM_078648
NM_078649
NM_078650
NM_078651
NM_078652
NM_078653
NM_078655
NM_078658
NM_078659
NM_078660
NM_078661
NM_078662
NM_078663
NM_078664
NM_078665
NM_078666
NM_078667
NM_078669
NM_078670
NM_078672
NM_078673
NM_078674
NM_078675
NM_078676
NM_078677
NM_078678
NM_078679
NM_078682
NM_078683
NM_078684
NM_078685
NM_078686
NM_078687
NM_078688
NM_078689
NM_078690
NM_078691
NM_078692
NM_078694
NM_078695
NM_078696
NM_078698
NM_078699
NM_078702
NM_078704
NM_078705
NM_078706
NM_078709
NM_078710
NM_078711
NM_078713
NM_079356
NM_079907
NM_079921
NM_079923
NM_079929
NM_079931
NM_079943
NM_079945
NM_079957
NM_079970
NM_079999
NM_080002
NM_080005
NM_080011
NM_080020
NM_080025
NM_080029
NM_080030
NM_080034
NM_080046
NM_080052
NM_080053
NM_080054
NM_080056
NM_080064
NM_080107
NM_080109
NM_080113
NM_080122
NM_080125
NM_080136
NM_080137
NM_080138
NM_080140
NM_080145
NM_080148
NM_080162
NM_080170
NM_080180
NM_080182
NM_080220
NM_080242
NM_080245
NM_080265
NM_080266
NM_080274
NM_080290
NM_080291
NM_080293
NM_080294
NM_080295
NM_080296
NM_080297
NM_080299
NM_080300
NM_080301
NM_080302
NM_080303
NM_080304
NM_080305
NM_080306
NM_080307
NM_080308
NM_080309
NM_080310
NM_080311
NM_080313
NM_080314
NM_080315
NM_080316
NM_080317
NM_080319
NM_080321
NM_080323
NM_080325
NM_080328
NM_080329
NM_080330
NM_080333
NM_080334
NM_080335
NM_080336
NM_080339
NM_080340
NM_080341
NM_080342
NM_080343
NM_080344
NM_080349
NM_080350
NM_080351
NM_080353
NM_080354
NM_080355
NM_080358
NM_080427
NM_080525
NM_080535
NM_080536
NM_080714
NM_130477
NM_130478
NM_130479
NM_130482
NM_130484
NM_130487
NM_130488
NM_130489
NM_130490
NM_130491
NM_130492
NM_130493
NM_130494
NM_130495
NM_130496
NM_130497
NM_130498
NM_130499
NM_130500
NM_130501
NM_130502
NM_130504
NM_130505
NM_130506
NM_130507
NM_130508
NM_130509
NM_130511
NM_130512
NM_130513
NM_130514
NM_130516
NM_130517
NM_130518
NM_130519
NM_130520
NM_130521
NM_130522
NM_130523
NM_130524
NM_130525
NM_130530
NM_130531
NM_130533
NM_130538
NM_130539
NM_130540
NM_130541
NM_130542
NM_130543
NM_130544
NM_130545
NM_130546
NM_130548
NM_130549
NM_130550
NM_130551
NM_130554
NM_130556
NM_130557
NM_130558
NM_130559
NM_130560
NM_130561
NM_130562
NM_130563
NM_130564
NM_130565
NM_130566
NM_130567
NM_130569
NM_130570
NM_130571
NM_130574
NM_130576
NM_130577
NM_130580
NM_130582
NM_130584
NM_130585
NM_130586
NM_130589
NM_130590
NM_130591
NM_130592
NM_130593
NM_130594
NM_130595
NM_130596
NM_130597
NM_130598
NM_130599
NM_130600
NM_130601
NM_130602
NM_130603
NM_130604
NM_130605
NM_130606
NM_130607
NM_130609
NM_130612
NM_130613
NM_130615
NM_130616
NM_130617
NM_130618
NM_130619
NM_130620
NM_130621
NM_130622
NM_130623
NM_130624
NM_130625
NM_130627
NM_130628
NM_130629
NM_130632
NM_130634
NM_130635
NM_130636
NM_130637
NM_130638
NM_130639
NM_130641
NM_130642
NM_130643
NM_130644
NM_130646
NM_130647
NM_130651
NM_130652
NM_130653
NM_130655
NM_130656
NM_130657
NM_130658
NM_130659
NM_130660
NM_130661
NM_130662
NM_130663
NM_130664
NM_130665
NM_130666
NM_130667
NM_130668
NM_130669
NM_130670
NM_130671
NM_130672
NM_130673
NM_130675
NM_130676
NM_130677
NM_130678
NM_130683
NM_130687
NM_130689
NM_130690
NM_130691
NM_130692
NM_130694
NM_130698
NM_130702
NM_130704
NM_130706
NM_130707
NM_130708
NM_130709
NM_130711
NM_130713
NM_130715
NM_130717
NM_130718
NM_130720
NM_130721
NM_130724
NM_130725
NM_130729
NM_130730
NM_130731
NM_130732
NM_131920
NM_131921
NM_131922
NM_131923
NM_131924
NM_131926
NM_131929
NM_131930
NM_131931
NM_131932
NM_131933
NM_131934
NM_131935
NM_131937
NM_131939
NM_131940
NM_131941
NM_131942
NM_131943
NM_131944
NM_131945
NM_131946
NM_131947
NM_131949
NM_131950
NM_131951
NM_131953
NM_131954
NM_131955
NM_131956
NM_131957
NM_131958
NM_131959
NM_131960
NM_131962
NM_131963
NM_131966
NM_131968
NM_131969
NM_131970
NM_131972
NM_131973
NM_131975
NM_131977
NM_131980
NM_131984
NM_131985
NM_131987
NM_131988
NM_131989
NM_131992
NM_131993
NM_131994
NM_131995
NM_131997
NM_131998
NM_131999
NM_132000
NM_132004
NM_132005
NM_132007
NM_132008
NM_132013
NM_132014
NM_132015
NM_132017
NM_132018
NM_132023
NM_132025
NM_132026
NM_132027
NM_132028
NM_132029
NM_132031
NM_132034
NM_132035
NM_132036
NM_132038
NM_132040
NM_132045
NM_132046
NM_132047
NM_132049
NM_132050
NM_132051
NM_132052
NM_132053
NM_132055
NM_132057
NM_132058
NM_132059
NM_132060
NM_132062
NM_132063
NM_132064
NM_132065
NM_132066
NM_132070
NM_132071
NM_132072
NM_132073
NM_132074
NM_132075
NM_132076
NM_132078
NM_132079
NM_132080
NM_132081
NM_132083
NM_132084
NM_132086
NM_132088
NM_132089
NM_132090
NM_132091
NM_132092
NM_132095
NM_132096
NM_132099
NM_132100
NM_132101
NM_132102
NM_132103
NM_132104
NM_132107
NM_132108
NM_132109
NM_132110
NM_132111
NM_132112
NM_132113
NM_132114
NM_132115
NM_132117
NM_132118
NM_132120
NM_132121
NM_132122
NM_132125
NM_132126
NM_132127
NM_132128
NM_132130
NM_132131
NM_132132
NM_132133
NM_132134
NM_132135
NM_132141
NM_132143
NM_132144
NM_132145
NM_132146
NM_132148
NM_132149
NM_132150
NM_132154
NM_132156
NM_132158
NM_132159
NM_132160
NM_132161
NM_132162
NM_132163
NM_132166
NM_132172
NM_132173
NM_132174
NM_132175
NM_132176
NM_132177
NM_132178
NM_132179
NM_132180
NM_132181
NM_132183
NM_132186
NM_132187
NM_132188
NM_132189
NM_132192
NM_132193
NM_132194
NM_132195
NM_132196
NM_132197
NM_132199
NM_132201
NM_132202
NM_132205
NM_132206
NM_132210
NM_132211
NM_132212
NM_132213
NM_132214
NM_132216
NM_132217
NM_132218
NM_132219
NM_132220
NM_132221
NM_132222
NM_132223
NM_132224
NM_132225
NM_132226
NM_132229
NM_132230
NM_132236
NM_132237
NM_132238
NM_132239
NM_132240
NM_132241
NM_132242
NM_132244
NM_132245
NM_132246
NM_132247
NM_132248
NM_132249
NM_132250
NM_132251
NM_132252
NM_132253
NM_132256
NM_132259
NM_132260
NM_132261
NM_132262
NM_132265
NM_132266
NM_132267
NM_132268
NM_132269
NM_132271
NM_132272
NM_132273
NM_132274
NM_132275
NM_132276
NM_132278
NM_132279
NM_132280
NM_132283
NM_132287
NM_132288
NM_132292
NM_132293
NM_132294
NM_132296
NM_132297
NM_132298
NM_132299
NM_132300
NM_132301
NM_132302
NM_132304
NM_132305
NM_132306
NM_132307
NM_132308
NM_132311
NM_132313
NM_132314
NM_132315
NM_132316
NM_132317
NM_132320
NM_132321
NM_132322
NM_132327
NM_132328
NM_132329
NM_132334
NM_132339
NM_132340
NM_132341
NM_132342
NM_132343
NM_132344
NM_132345
NM_132346
NM_132348
NM_132349
NM_132351
NM_132352
NM_132354
NM_132356
NM_132357
NM_132360
NM_132362
NM_132363
NM_132364
NM_132365
NM_132366
NM_132373
NM_132375
NM_132376
NM_132379
NM_132381
NM_132382
NM_132384
NM_132385
NM_132386
NM_132388
NM_132390
NM_132392
NM_132393
NM_132394
NM_132395
NM_132396
NM_132401
NM_132405
NM_132408
NM_132409
NM_132410
NM_132411
NM_132412
NM_132414
NM_132417
NM_132420
NM_132421
NM_132423
NM_132425
NM_132426
NM_132428
NM_132429
NM_132430
NM_132431
NM_132432
NM_132433
NM_132434
NM_132435
NM_132437
NM_132440
NM_132441
NM_132443
NM_132445
NM_132446
NM_132448
NM_132449
NM_132450
NM_132453
NM_132454
NM_132457
NM_132458
NM_132459
NM_132460
NM_132461
NM_132462
NM_132463
NM_132464
NM_132466
NM_132467
NM_132469
NM_132470
NM_132473
NM_132476
NM_132479
NM_132480
NM_132481
NM_132482
NM_132483
NM_132484
NM_132485
NM_132487
NM_132488
NM_132490
NM_132493
NM_132494
NM_132495
NM_132498
NM_132499
NM_132500
NM_132501
NM_132502
NM_132503
NM_132504
NM_132506
NM_132507
NM_132508
NM_132509
NM_132510
NM_132511
NM_132512
NM_132514
NM_132515
NM_132518
NM_132519
NM_132520
NM_132521
NM_132522
NM_132523
NM_132524
NM_132525
NM_132527
NM_132528
NM_132529
NM_132531
NM_132532
NM_132534
NM_132535
NM_132536
NM_132537
NM_132538
NM_132539
NM_132540
NM_132542
NM_132543
NM_132544
NM_132545
NM_132546
NM_132547
NM_132548
NM_132549
NM_132550
NM_132551
NM_132552
NM_132553
NM_132556
NM_132557
NM_132559
NM_132566
NM_132567
NM_132568
NM_132569
NM_132570
NM_132572
NM_132573
NM_132574
NM_132575
NM_132577
NM_132578
NM_132581
NM_132582
NM_132585
NM_132586
NM_132587
NM_132589
NM_132590
NM_132591
NM_132595
NM_132596
NM_132598
NM_132599
NM_132600
NM_132608
NM_132609
NM_132611
NM_132612
NM_132613
NM_132614
NM_132615
NM_132616
NM_132617
NM_132618
NM_132619
NM_132622
NM_132624
NM_132625
NM_132627
NM_132628
NM_132629
NM_132632
NM_132633
NM_132634
NM_132636
NM_132637
NM_132638
NM_132639
NM_132641
NM_132642
NM_132643
NM_132644
NM_132645
NM_132647
NM_132650
NM_132651
NM_132652
NM_132653
NM_132654
NM_132655
NM_132656
NM_132657
NM_132658
NM_132660
NM_132665
NM_132666
NM_132669
NM_132670
NM_132673
NM_132674
NM_132675
NM_132676
NM_132677
NM_132678
NM_132679
NM_132680
NM_132681
NM_132683
NM_132684
NM_132685
NM_132686
NM_132687
NM_132688
NM_132689
NM_132690
NM_132691
NM_132692
NM_132695
NM_132696
NM_132699
NM_132700
NM_132701
NM_132703
NM_132704
NM_132708
NM_132709
NM_132711
NM_132712
NM_132713
NM_132716
NM_132717
NM_132719
NM_132720
NM_132722
NM_132723
NM_132724
NM_132725
NM_132732
NM_132734
NM_132735
NM_132736
NM_132737
NM_132738
NM_132739
NM_132740
NM_132741
NM_132744
NM_132745
NM_132746
NM_132748
NM_132749
NM_132750
NM_132751
NM_132752
NM_132753
NM_132754
NM_132755
NM_132756
NM_132757
NM_132758
NM_132759
NM_132760
NM_132762
NM_132765
NM_132766
NM_132767
NM_132768
NM_132770
NM_132771
NM_132772
NM_132773
NM_132775
NM_132777
NM_132781
NM_132783
NM_132784
NM_132785
NM_132786
NM_132788
NM_132789
NM_132790
NM_132791
NM_132792
NM_132795
NM_132796
NM_132797
NM_132798
NM_132800
NM_132802
NM_132803
NM_132804
NM_132805
NM_132806
NM_132811
NM_132815
NM_132816
NM_132817
NM_132818
NM_132819
NM_132821
NM_132823
NM_132824
NM_132825
NM_132826
NM_132827
NM_132828
NM_132829
NM_132830
NM_132831
NM_132832
NM_132833
NM_132834
NM_132835
NM_132836
NM_132837
NM_132838
NM_132840
NM_132847
NM_132848
NM_132849
NM_132850
NM_132851
NM_132853
NM_132854
NM_132855
NM_132856
NM_132857
NM_132859
NM_132860
NM_132863
NM_132864
NM_132867
NM_132868
NM_132869
NM_132870
NM_132871
NM_132872
NM_132873
NM_132874
NM_132875
NM_132876
NM_132878
NM_132881
NM_132882
NM_132883
NM_132885
NM_132886
NM_132888
NM_132889
NM_132890
NM_132891
NM_132892
NM_132893
NM_132895
NM_132897
NM_132898
NM_132900
NM_132901
NM_132902
NM_132903
NM_132904
NM_132906
NM_132907
NM_132908
NM_132910
NM_132911
NM_132912
NM_132914
NM_132915
NM_132917
NM_132918
NM_132920
NM_132921
NM_132926
NM_132932
NM_132933
NM_132934
NM_132935
NM_132936
NM_132938
NM_132940
NM_132941
NM_132942
NM_132945
NM_132946
NM_132947
NM_132948
NM_132949
NM_132951
NM_132952
NM_132953
NM_132955
NM_132958
NM_132959
NM_132960
NM_132963
NM_132964
NM_132965
NM_132968
NM_132974
NM_132978
NM_132979
NM_132980
NM_132981
NM_132983
NM_132985
NM_132986
NM_132987
NM_132988
NM_132989
NM_132993
NM_132994
NM_132996
NM_132997
NM_132998
NM_132999
NM_133000
NM_133001
NM_133002
NM_133003
NM_133004
NM_133009
NM_133010
NM_133011
NM_133012
NM_133015
NM_133016
NM_133017
NM_133018
NM_133019
NM_133020
NM_133022
NM_133023
NM_133024
NM_133026
NM_133027
NM_133028
NM_133029
NM_133030
NM_133031
NM_133036
NM_133037
NM_133039
NM_133040
NM_133041
NM_133043
NM_133044
NM_133045
NM_133049
NM_133050
NM_133058
NM_133060
NM_133061
NM_133065
NM_133068
NM_133070
NM_133071
NM_133072
NM_133073
NM_133074
NM_133075
NM_133076
NM_133077
NM_133078
NM_133079
NM_133085
NM_133086
NM_133087
NM_133088
NM_133089
NM_133090
NM_133092
NM_133093
NM_133095
NM_133096
NM_133097
NM_133098
NM_133099
NM_133101
NM_133103
NM_133104
NM_133105
NM_133106
NM_133107
NM_133108
NM_133110
NM_133111
NM_133113
NM_133119
NM_133122
NM_133123
NM_133124
NM_133125
NM_133126
NM_133127
NM_133129
NM_133130
NM_133131
NM_133132
NM_133134
NM_133137
NM_133138
NM_133139
NM_133140
NM_133143
NM_133144
NM_133145
NM_133147
NM_133148
NM_133149
NM_133155
NM_133156
NM_133157
NM_133158
NM_133160
NM_134273
NM_134314
NM_134315
NM_134474
NM_134477
NM_134478
NM_134479
NM_134480
NM_134481
NM_134482
NM_134484
NM_134485
NM_134486
NM_134487
NM_134488
NM_134489
NM_134490
NM_134491
NM_134492
NM_134493
NM_134494
NM_134495
NM_134496
NM_134497
NM_134498
NM_134499
NM_134500
NM_134501
NM_134502
NM_134503
NM_134504
NM_134505
NM_134506
NM_134507
NM_134508
NM_134509
NM_134510
NM_134511
NM_134512
NM_134516
NM_134517
NM_134518
NM_134519
NM_134520
NM_134521
NM_134527
NM_134528
NM_134529
NM_134530
NM_134531
NM_134532
NM_134533
NM_134534
NM_134535
NM_134536
NM_134538
NM_134539
NM_134541
NM_134543
NM_134544
NM_134547
NM_134549
NM_134551
NM_134552
NM_134553
NM_134554
NM_134555
NM_134559
NM_134560
NM_134561
NM_134562
NM_134563
NM_134567
NM_134572
NM_134574
NM_134575
NM_134576
NM_134577
NM_134578
NM_134579
NM_134580
NM_134581
NM_134582
NM_134584
NM_134588
NM_134591
NM_134592
NM_134594
NM_134599
NM_134600
NM_134603
NM_134605
NM_134606
NM_134607
NM_134612
NM_134613
NM_134614
NM_134615
NM_134616
NM_134617
NM_134618
NM_134619
NM_134620
NM_134621
NM_134624
NM_134626
NM_134627
NM_134631
NM_138988
NM_139271
NM_143705
NM_143710
NM_143728
NM_143733
NM_143746
NM_143750
NM_143755
NM_143763
NM_143764
NM_143765
NM_143797
NM_143888
NM_144035
NM_144149
NM_144208
NM_144209
NM_144227
NM_144231
NM_144236
NM_144242
NM_144243
NM_144244
NM_144252
NM_144253
NM_144256
NM_144258
NM_144265
NM_144269
NM_144274
NM_144278
NM_144281
NM_144284
NM_144288
NM_144290
NM_144291
NM_144347
NM_144348
NM_144349
NM_144358
NM_144377
NM_144382
NM_144412
NM_144464
NM_144473
NM_166834
NM_166835
NM_166836
NM_166838
NM_166839
NM_166841
NM_166844
NM_166846
NM_166847
NM_166848
NM_166850
NM_166851
NM_166852
NM_166853
NM_166854
NM_166855
NM_166856
NM_166857
NM_166858
NM_166860
NM_166861
NM_166863
NM_166864
NM_166865
NM_166866
NM_166867
NM_166868
NM_166869
NM_166870
NM_166871
NM_166872
NM_166873
NM_166874
NM_166877
NM_166878
NM_166880
NM_166881
NM_166882
NM_166886
NM_166889
NM_166890
NM_166893
NM_166896
NM_166897
NM_166899
NM_166903
NM_166906
NM_166907
NM_166908
NM_166909
NM_166910
NM_166911
NM_166916
NM_166920
NM_166921
NM_166922
NM_166923
NM_166924
NM_166925
NM_166927
NM_166929
NM_166932
NM_166934
NM_166937
NM_166938
NM_166939
NM_166940
NM_166941
NM_166947
NM_166948
NM_166949
NM_166950
NM_166951
NM_166952
NM_166954
NM_166955
NM_166957
NM_166958
NM_166959
NM_166962
NM_166963
NM_166964
NM_166966
NM_166967
NM_166968
NM_166969
NM_166970
NM_166972
NM_166973
NM_166974
NM_166976
NM_166977
NM_166978
NM_166981
NM_166983
NM_166984
NM_166985
NM_166986
NM_166991
NM_166993
NM_166997
NM_167000
NM_167001
NM_167002
NM_167003
NM_167004
NM_167005
NM_167006
NM_167008
NM_167009
NM_167011
NM_167012
NM_167014
NM_167015
NM_167017
NM_167018
NM_167019
NM_167020
NM_167021
NM_167024
NM_167028
NM_167030
NM_167032
NM_167033
NM_167034
NM_167035
NM_167037
NM_167038
NM_167039
NM_167040
NM_167042
NM_167043
NM_167045
NM_167047
NM_167050
NM_167053
NM_167054
NM_167055
NM_167056
NM_167058
NM_167059
NM_167060
NM_167061
NM_167063
NM_167065
NM_167069
NM_167072
NM_167073
NM_167079
NM_167080
NM_167081
NM_167082
NM_167083
NM_167086
NM_167087
NM_167088
NM_167089
NM_167090
NM_167091
NM_167095
NM_167100
NM_167101
NM_167107
NM_167110
NM_167111
NM_167112
NM_167115
NM_167117
NM_167119
NM_167121
NM_167124
NM_167126
NM_167128
NM_167129
NM_167130
NM_167131
NM_167132
NM_167133
NM_167134
NM_167136
NM_167137
NM_167140
NM_167141
NM_167142
NM_167143
NM_167145
NM_167146
NM_167149
NM_167150
NM_167152
NM_167153
NM_167155
NM_167157
NM_167160
NM_167161
NM_167162
NM_167163
NM_167166
NM_167168
NM_167173
NM_167174
NM_167178
NM_167180
NM_167182
NM_167184
NM_167185
NM_167187
NM_167188
NM_167193
NM_167196
NM_167197
NM_167198
NM_167200
NM_167202
NM_167203
NM_167205
NM_167207
NM_167208
NM_167209
NM_167210
NM_167212
NM_167214
NM_167215
NM_167217
NM_167218
NM_167223
NM_167224
NM_167226
NM_167227
NM_167228
NM_167232
NM_167237
NM_167240
NM_167241
NM_167242
NM_167243
NM_167244
NM_167245
NM_167246
NM_167248
NM_167249
NM_167250
NM_167251
NM_167252
NM_167253
NM_167254
NM_167257
NM_167258
NM_167260
NM_167261
NM_167262
NM_167263
NM_167267
NM_167268
NM_167269
NM_167270
NM_167271
NM_167272
NM_167273
NM_167275
NM_167278
NM_167281
NM_167282
NM_167284
NM_167285
NM_167286
NM_167289
NM_167290
NM_167292
NM_167294
NM_167295
NM_167296
NM_167297
NM_167298
NM_167299
NM_167300
NM_167301
NM_167303
NM_167304
NM_167305
NM_167306
NM_167307
NM_167308
NM_167309
NM_167310
NM_167311
NM_167312
NM_167314
NM_167315
NM_167316
NM_167317
NM_167318
NM_167319
NM_167321
NM_167323
NM_167325
NM_167327
NM_167328
NM_167332
NM_167333
NM_167335
NM_167336
NM_167337
NM_167340
NM_167341
NM_167342
NM_167343
NM_167344
NM_167345
NM_167346
NM_167347
NM_167348
NM_167349
NM_167351_1
NM_167352
NM_167353
NM_167355
NM_167356
NM_167357
NM_167358
NM_167359
NM_167362
NM_167363
NM_167364
NM_167366
NM_167367
NM_167368
NM_167369
NM_167371
NM_167374
NM_167375
NM_167377
NM_167378
NM_167381
NM_167382
NM_167384
NM_167385
NM_167386
NM_167387
NM_167390
NM_167395
NM_167398
NM_167399
NM_167400
NM_167401
NM_167406
NM_167408
NM_167410
NM_167411
NM_167412
NM_167413
NM_167414
NM_167416
NM_167417
NM_167418
NM_167419
NM_167420
NM_167422
NM_167424
NM_167427
NM_167432
NM_167433
NM_167435
NM_167438
NM_167440
NM_167441
NM_167442
NM_167443
NM_167445
NM_167448
NM_167451
NM_167453
NM_167456
NM_167461
NM_167463
NM_167464
NM_167465
NM_167466
NM_167467
NM_167469
NM_167470
NM_167471
NM_167473
NM_167474
NM_167476
NM_167477
NM_167478
NM_167480
NM_167481
NM_167482
NM_167483
NM_167484
NM_167485
NM_167486
NM_167487
NM_167488
NM_167491
NM_167492
NM_167493
NM_167494
NM_167501
NM_167502
NM_167504
NM_167505
NM_167506
NM_167512
NM_167515
NM_167516
NM_167517
NM_167518
NM_167519
NM_167521
NM_167522
NM_167523
NM_167525
NM_167526
NM_167527
NM_167529
NM_167530
NM_167531
NM_167535
NM_167540
NM_167541
NM_167542
NM_167543
NM_167550
NM_167554
NM_167555
NM_167557
NM_167558
NM_167561
NM_167563
NM_167564
NM_167567
NM_167568
NM_167570
NM_167573
NM_167574
NM_167576
NM_167577
NM_167578
NM_167579
NM_167580
NM_167581
NM_167589
NM_167590
NM_167591_1
NM_167592
NM_167595
NM_167596
NM_167602
NM_167603
NM_167604
NM_167605
NM_167608
NM_167609
NM_167610
NM_167611
NM_167614
NM_167615
NM_167617
NM_167618
NM_167623
NM_167624
NM_167625
NM_167626
NM_167628
NM_167630
NM_167632
NM_167634
NM_167637
NM_167641
NM_167642
NM_167643
NM_167644
NM_167647
NM_167648
NM_167649
NM_167650
NM_167651
NM_167653
NM_167654
NM_167655
NM_167656
NM_167657
NM_167665
NM_167666
NM_167669
NM_167671
NM_167675
NM_167676
NM_167677
NM_167678
NM_167679
NM_167680
NM_167681
NM_167682
NM_167685
NM_167687
NM_167688
NM_167690
NM_167703
NM_167704
NM_167705
NM_167706
NM_167707
NM_167709
NM_167711
NM_167715
NM_167716
NM_167718
NM_167719
NM_167721
NM_167724
NM_167726
NM_167729
NM_167730
NM_167731
NM_167734
NM_167735
NM_167736
NM_167738
NM_167739
NM_167743
NM_167752
NM_167753
NM_167754
NM_167757
NM_167758
NM_167760
NM_167764
NM_167765
NM_167766
NM_167766_1
NM_167766_2
NM_167767_1
NM_167768_1
NM_167770
NM_167770_1
NM_167770_2
NM_167772
NM_167773
NM_167774
NM_167775
NM_167776
NM_167778
NM_167779
NM_167787
NM_167788
NM_170658
NM_170660
NM_176679
NM_176680
NM_176682
NM_176683
NM_176684
NM_176687
NM_176688
NM_176694
NM_176698
NM_176699
NM_176700
NM_176711
NM_176713
NM_176714
NM_176716
NM_176717
NM_176718
NM_176719
NM_176720
NM_176721
NM_176723
NM_176725
NM_176726
NM_176727
NM_176728
NM_176729
NM_176730
NM_176731
NM_176732
NM_176734
NM_176736
NM_176737
NM_176738
NM_176739
NM_176740
NM_176741
NM_176746
NM_176747
NM_176748
NM_176749
NM_176751
NM_176752_1
NM_176755
NM_176767
NM_176776
NM_176777
NM_176778
NM_176779
NM_176780
NM_206598
NM_206599
NM_206600
NM_206602
NM_206603
NM_206605
NM_206606
NM_206607
NM_206610
NM_206612
NM_206613
NM_206616
NM_206617
NM_206620
NM_206624
NM_206625
NM_206627
NM_206628
NM_206630
NM_206631
NM_206632
NM_206634
NM_206635
NM_206637
NM_206639
NM_206640
NM_206643
NM_206644
NM_206653
NM_206654
NM_206655
NM_206656
NM_206661
NM_206662
NM_206664
NM_206667
NM_206668
NM_206669
NM_206671
NM_206673
NM_206674
NM_206676
NM_206678
NM_206681
NM_206683
NM_206684
NM_206685
NM_206686
NM_206687
NM_206689
NM_206691
NM_206694
NM_206697
NM_206698_1
NM_206699
NM_206700
NM_206700_1
NM_206700_3
NM_206700_4
NM_206702
NM_206702_1
NM_206703
NM_206703_1
NM_206704_1
NM_206705
NM_206706
NM_206706_1
NM_206706_2
NM_206706_3
NM_206706_4
NM_206706_5
NM_206707
NM_206708
NM_206708_1
NM_206709
NM_206711
NM_206712
NM_206713
NM_206714
NM_206715
NM_206717
NM_206718
NM_206727
NM_206730
NM_206731
NM_206732
NM_206734
NM_206735
NM_206736
NM_206737
NM_206738
NM_206740
NM_206741
NM_206744
NM_206745
NM_206746
NM_206747
NM_206748
NM_206753
NM_206754
NM_206756
NM_206762
NM_206764
NM_206765
NM_206766
NM_206767
NM_206768
NM_206769
NM_206770
NM_206772
NM_206774
NM_206775
NM_206776
NM_206778
NM_206779
NM_206780
NM_206781
NM_206782
NM_206783
NM_206784
NM_206785
NM_206789
NM_206792_1
NM_206793_1
NM_206794
NM_206794_1
NM_206796_1
NM_206797_2
NM_206798
NM_206799
NM_206800
NM_206801
NM_206805
NR_002093
NR_002102
NR_002106
NR_002107
NR_002109
NR_002110
NR_002111
NR_002129
NR_002130
NR_002137
NR_002460
NR_002462
NR_002463
NR_002464
NR_002465
NR_002466
NR_002467
NR_002468
NR_002469
NR_002470
NR_002692
NR_003724
NR_003725
NR_003726
NR_003729
NR_003731
NR_003732
NR_003733
NR_003734
NR_003735
NR_003736
NR_003738
NR_003740
NR_003741
NR_003742
NR_003743
NR_003744
NR_003745
NR_003746
NR_003747
NR_003748
NR_003750
NR_003751
NR_033152
NR_037723
NR_037725
NR_037726
NR_037727
NR_047712
NR_047713
NR_047714
NR_047715
NR_047716
NR_047717
NR_047718
NR_047719
NR_047720
NR_047721
NR_047722
NR_047723
NR_047725
NR_047726
NR_047727
NR_047728
NR_047729
NR_047730
NR_047731
NR_047732
NR_047733
NR_047735
NR_047736
NR_047738
NR_047739
NR_047741
NR_047742
NR_047743
NR_047744
NR_047745
NR_047746
NR_047748
NR_047751
NR_047752
NR_047753
NR_047754
NR_047755
NR_047756
NR_047757
NR_047757_1
NR_047758
NR_047758_1
NR_047759
NR_047759_1
NR_047761
NR_047762
NR_047763
NR_047764
NR_047768
NR_047770
NR_047771
NR_047772
NR_047774
NR_047776
NR_047777
NR_047778
NR_047779
NR_047780
NR_047781
NR_047782
NR_047783
NR_047784
NR_047785
NR_047786
NR_047787_1
NR_047788
NR_047789
NR_047791
NR_047792
NR_047793
NR_047794
NR_047798
NR_047800
NR_047802
NR_047803
NR_047804
NR_047805
NR_047806
NR_047808
NR_047811
NR_047812
NR_047813
NR_047814
NR_047815
NR_047816
NR_047817
NR_047818
NR_047819
NR_047820
NR_047821
NR_047822
NR_047823
NR_047824
NR_047825
NR_047827
NR_047828
NR_047829
NR_047831
NR_047833
NR_047835
NR_047836
NR_047837
NR_047838
NR_047839
NR_047840
NR_047841
NR_047842
NR_047843
NR_047844
NR_047845
NR_047846
NR_047846_1
NR_047847
NR_047847_1
NR_047848
NR_047849
NR_047850
NR_047851
NR_047852
NR_047854
NR_047855
NR_047856
NR_047858
NR_047859
NR_047860
NR_047861
NR_047864
NR_048400_1
NR_073627
NR_073628
NR_073629
NR_073629_1
NR_073632
NR_073633
NR_073634
NR_073635
NR_073638
NR_073639
NR_073640
NR_073641
NR_073642
NR_073643
NR_073644
NR_073646
NR_073647
NR_073648
NR_073650
NR_073651
NR_073652
NR_073653
NR_073656
NR_073657
NR_073659
NR_073660
NR_073661
NR_073663
NR_073664
NR_073665
NR_073666
NR_073667
NR_073669
NR_073670
NR_073671
