Aggregate Source	10kb_upstream	9kb_upstream	8kb_upstream	7kb_upstream	6kb_upstream	5kb_upstream	4kb_upstream	3kb_upstream	2kb_upstream	1kb_upstream	5prime_utr	exons	introns	3prime_utr	gene_body_0_to_10	gene_body_10_to_20	gene_body_20_to_30	gene_body_30_to_40	gene_body_40_to_50	gene_body_50_to_60	gene_body_60_to_70	gene_body_70_to_80	gene_body_80_to_90	gene_body_90_to_100	1kb_downstream	2kb_downstream	3kb_downstream	4kb_downstream	5kb_downstream	6kb_downstream	7kb_downstream	8kb_downstream	9kb_downstream	10kb_downstream
Test Genes Sum	772.851820349264	816.2730969401	794.949615242763	935.378863489198	959.24818722177	1147.49969967931	1152.85605742468	1684.1480214915	1567.1271481905	2374.69044905593	1475.28833614673	1065.01287718945	824.517562443603	1465.57797025341	1665.98718358863	1443.76383057628	1458.48442339104	1292.64056073758	2260.78934403002	1022.18602968741	990.304443271234	1272.13593789858	1709.29110192302	3702.75363621103	1658.52396379083	1313.4656379162	1156.28722291961	1047.47456661773	930.134710532648	1002.30266719396	897.498648560337	824.961250510629	1177.42778113668	795.438550223421
Background Genes Sum	19627.4269543399	19555.3852558323	23054.5838398522	21248.9385080973	21038.0652537061	21357.6099923072	22400.5734807589	27369.8497695275	24814.9703103061	29223.505486313	27436.2003056584	21479.2183281483	20187.9609237613	22850.1427748458	33571.0658539291	27357.6291503268	24572.3896300343	105633.644116027	27640.1560182458	432312.11531804	82153.3325043881	20623.1221304193	665341.593332386	24899.3014174726	18304.2448197835	20837.6370862467	19445.9018412894	19038.3832575524	18163.9346077919	18359.041754783	17739.4432874971	18091.5520092754	18786.1001491658	17731.0660120545
Test Genes Mean	1.66562892316652	1.75920926064677	1.71325348112665	2.01590272303706	2.0673452310814	2.47305969758472	2.48460357203595	3.62962935666271	3.37742919868643	5.11786734710329	3.17950072445416	2.29528637325313	1.77697750526639	3.15857321175304	3.59048961980307	3.11155997969026	3.14328539523931	2.78586327745169	4.8723908276509	2.20298713294701	2.1342768173949	2.74167227995384	3.68381703000651	7.98007249183412	3.57440509437679	2.83074490930215	2.49199832525778	2.25748829012441	2.0046006692514	2.16013505860767	1.93426432879383	1.77793372954877	2.5375598731394	1.7143072203091
Background Genes Mean	2.02261201095836	2.01518809314018	2.37578151688502	2.18970924444531	2.16797869473476	2.2009078722493	2.30838556067178	2.82047091606837	2.55718985060863	3.01149067253844	2.8273083579615	2.21343964634669	2.08037519824415	2.35471380614652	3.45950802286986	2.8192115777336	2.53219184151219	10.8855775057736	2.84832605299318	44.549888223211	8.46592461916613	2.12521868615203	68.5636431711032	2.5658801955351	1.88625771020027	2.14732451424636	2.0039057956811	1.96191088804126	1.87179870236932	1.89190455016313	1.82805474932988	1.86433965470686	1.93591304092805	1.82719146867833
Test Genes SEM	0.136093506143879	0.133336912248809	0.117418753185335	0.147077733434775	0.144367363205178	0.239146509276792	0.201116211934636	0.46922759000378	0.239453755001974	1.40966680119429	0.202267644639178	0.149892698343306	0.186941714918621	1.48826377212903	0.212178206738112	0.213067122599257	0.356348710922647	0.267517250216103	2.47494246615532	0.18917913406718	0.21811190331158	0.887944339646816	1.17211713541146	4.03663212542872	1.49136315161452	0.383401083469465	0.276527350266819	0.24923021128021	0.176730758725834	0.222501622891194	0.177560618176924	0.144061152546373	0.526287299641301	0.120951120687993
Background Genes SEM	0.0533910755611421	0.0413285852934644	0.273614679420391	0.127890475953706	0.099347384792588	0.037293545790681	0.0388519049721309	0.0765540937802569	0.0366813488884894	0.103333018574551	0.0531916610542406	0.0363553402699593	0.246307326225838	0.265047869768412	0.21310094135637	0.10467373190407	0.052750637976322	6.67935856287775	0.695676639811283	35.7237536494292	6.15578538201098	0.0606677656177989	63.0557245657062	0.16550662794755	0.0335722889810507	0.0647939809879753	0.0423893928516678	0.0882245938569362	0.04252051379298	0.0360229605895829	0.0334539875193822	0.0461122730815065	0.0560407103542442	0.0408903638689122