Aggregate Source	10kb_upstream	9kb_upstream	8kb_upstream	7kb_upstream	6kb_upstream	5kb_upstream	4kb_upstream	3kb_upstream	2kb_upstream	1kb_upstream	5prime_utr	exons	introns	3prime_utr	gene_body_0_to_10	gene_body_10_to_20	gene_body_20_to_30	gene_body_30_to_40	gene_body_40_to_50	gene_body_50_to_60	gene_body_60_to_70	gene_body_70_to_80	gene_body_80_to_90	gene_body_90_to_100	1kb_downstream	2kb_downstream	3kb_downstream	4kb_downstream	5kb_downstream	6kb_downstream	7kb_downstream	8kb_downstream	9kb_downstream	10kb_downstream
Test Genes Sum	556.478353468546	550.779196424994	511.145085394678	558.021202739424	567.350560746021	739.524333796781	692.163085658189	749.085428746498	730.630617550821	782.926877989427	903.46681609737	683.388087171674	11943.7080706124	466.174689340547	1055.4136309618	833.510297956833	25261.1334035727	62848.2546329611	1857.77272894433	663910.891027516	60715.9769264604	1013.61115246023	972.369024155113	968.101631763306	639.126370341345	787.594507044206	646.746614326215	515.147334550616	459.264303935307	505.653720871893	447.635655120567	538.916200311647	528.456585915402	493.503540353778
Background Genes Sum	20821.3301490917	22018.1577964581	24212.0238737452	22768.2529892649	22600.343989836	22665.8197015301	23911.7256856978	29388.7227780584	26765.6419825473	31392.5775971829	79546.7631321834	22906.0524828097	21398.0567577126	25104.895353471	35560.8069593022	29097.429525217	26159.7750763391	45140.9296665258	29225.5285804304	95083.1213800218	23778.0423242988	21555.5506274656	666882.456536429	27209.4842609695	20321.8491380903	22366.9966765921	20742.7908993579	20395.8832300603	19277.1764520874	19510.6880491522	18897.0182477165	19205.7368909878	20102.5365468271	18729.7248104544
Test Genes Mean	1.93221650509912	1.91242776536456	1.77480932428708	1.937573620623	1.96996722481257	2.56779282568327	2.40334404742427	2.60099107203645	2.53691186649591	2.71849610412995	3.13703755589365	2.37287530267943	41.4712085785153	1.61866211576579	3.66463066306179	2.89413297901678	87.7122687624052	218.223106364448	6.45059975327891	2305.2461494011	210.819364327988	3.51948316826469	3.37628133387192	3.36146399917814	2.21918878590745	2.73470314945905	2.24564796641047	1.78870602274519	1.59466772199759	1.75574208636074	1.55429046916863	1.87123680663766	1.83491870109515	1.71355395956173
Background Genes Mean	2.01152836915194	2.12715271920183	2.33909997814174	2.199618683148	2.18339715871278	2.1897227032683	2.3100884635009	2.83921580311645	2.58580252947032	3.03280625999255	7.68493509150646	2.21293135762822	2.06724536351199	2.4253594197151	3.43549482748548	2.81107424647058	2.5272703194222	4.36102112515948	2.82344977107819	9.18588748720141	2.29717344452699	2.08246069244185	64.4268627704018	2.62868169848029	1.9632739965308	2.16085370269463	2.00394076894579	1.97042635784565	1.86234918868586	1.88490851600349	1.82562247586866	1.85544748246428	1.94208642129525	1.80946042029315
Test Genes SEM	0.204030606917721	0.187599703988475	0.139444031367535	0.171114962123054	0.162642604052446	0.363944817680357	0.323122013364346	0.318858257709392	0.169273688386967	0.204431904989147	0.674333996768175	0.249362551318184	39.7920674271045	0.177934828042759	0.590595209186499	0.258614152128461	84.4089074883764	212.431113016841	3.96772076531256	1623.17592802126	206.948783378162	1.0829268677891	1.08168591842023	1.08109463678773	0.215493938018279	0.445856427205868	0.353564451495646	0.243052760202361	0.120399377633776	0.168503285021225	0.128600127423404	0.211092110449162	0.210354393893759	0.181824876924633
Background Genes SEM	0.0492125894744307	0.104673375065188	0.25603665546332	0.120599266186735	0.0940617516255382	0.0355619714482149	0.0373112177400016	0.0747429816922143	0.0365945454302531	0.0979292097869547	4.85260440677023	0.0349215239540364	0.231102018723183	0.258473417803931	0.200027574355534	0.0986634658571136	0.0505642743568972	2.03906136550038	0.652487397027797	7.08277269773818	0.193888208430719	0.0501028254059747	59.1145752667684	0.169316781076059	0.0743110180680987	0.062616044649388	0.0408152856871414	0.0834381443784599	0.0405941252582576	0.0348668718790933	0.0331950137520255	0.044129793282828	0.0571452939941058	0.0381655599334918