Aggregate Source	10kb_upstream	9kb_upstream	8kb_upstream	7kb_upstream	6kb_upstream	5kb_upstream	4kb_upstream	3kb_upstream	2kb_upstream	1kb_upstream	5prime_utr	exons	introns	3prime_utr	gene_body_0_to_10	gene_body_10_to_20	gene_body_20_to_30	gene_body_30_to_40	gene_body_40_to_50	gene_body_50_to_60	gene_body_60_to_70	gene_body_70_to_80	gene_body_80_to_90	gene_body_90_to_100	1kb_downstream	2kb_downstream	3kb_downstream	4kb_downstream	5kb_downstream	6kb_downstream	7kb_downstream	8kb_downstream	9kb_downstream	10kb_downstream
Test Genes Sum	889.123545607735	788.793517785484	758.420481262951	890.471494077265	859.689073110394	1160.11952420324	1131.47296088367	1206.03821537064	1199.41851756135	1332.02288286105	1131.95164075375	935.303259522641	732.540251141429	689.3695675916	1356.18966668824	1175.52373922678	1219.92812584479	1802.80283709193	2052.97816698575	884.272948730204	60549.4498646759	790.591029836172	770.497259305719	747.458044803145	800.267086085207	950.128128204306	913.689747531408	806.033369961317	790.056609406452	797.126219450494	754.894700117138	806.234647886407	1047.24900206897	761.693713821251
Background Genes Sum	19459.0843783076	19539.4591827957	23050.4936436364	21237.9081137929	21096.9187281919	21301.7131202123	22350.6757922668	27718.755696101	25108.8707959039	30193.6374738582	27719.5868888798	21540.4864892371	20240.6416589675	23592.782223111	33808.0819207837	27555.3464104593	24749.4104151825	105074.286429344	27796.5964595398	432394.483570353	22503.2753271255	21042.3168087071	666224.109570191	27808.5323664221	19110.3211408865	21147.0447314794	19636.5862565687	19239.1064553826	18251.3764823029	18500.1756267345	17810.0277762725	18054.1350133784	18864.0660732428	17718.1383968788
Test Genes Mean	2.14764141451144	1.90529835213885	1.83193352962065	2.15089732868904	2.07654365485602	2.80222107295469	2.73302647556441	2.91313578591942	2.89714617768443	3.21744657695907	2.73418270713465	2.25918661720445	1.76942089647688	1.6651438830715	3.27582045093777	2.83942932180382	2.94668629431108	4.35459622485974	4.95888446131824	2.13592499693286	146.254709818058	1.90964016868641	1.86110449107662	1.80545421450035	1.93301228522997	2.29499547875436	2.20698006650098	1.94694050715294	1.90834929808322	1.9254256508466	1.8234171500414	1.94742668571596	2.52958696151925	1.83983988845713
Background Genes Mean	2.00072839587781	2.00899230750522	2.36998700839362	2.18362205570562	2.16912592311247	2.1901823072396	2.29803370268012	2.84996459964024	2.58162356527904	3.10442499217132	2.85005006054697	2.21473231433653	2.08108592010771	2.42574359686521	3.47605201735387	2.83316331590163	2.54466485864512	10.8034429806029	2.85796796828498	44.4575862194482	2.31372355820744	2.16351190712596	68.499291545362	2.85919518470308	1.96486953947013	2.17427973796827	2.01897864040393	1.9781108837531	1.87655526242061	1.90213609158282	1.83117702819993	1.85627544863032	1.93955028513703	1.82172922032478
Test Genes SEM	0.3130548535388	0.148244579391554	0.123792596581014	0.194803118465399	0.143309078069939	0.286481347303566	0.242464245230935	0.22411244945633	0.170125459329354	0.215088458153633	0.171615388156115	0.159072399181789	0.135181126538754	0.127085431446685	0.209144746762619	0.191187728434271	0.369042707961708	1.90335418398215	2.76207019007714	0.176741789079859	144.042367873705	0.137945725466567	0.133412725986477	0.128557282213471	0.13454490763215	0.288993130875523	0.270742287811969	0.213791962672423	0.189878294806261	0.197708549039263	0.174571516391988	0.182802466034974	0.560263569362403	0.176252177904228
Background Genes SEM	0.0519678645844776	0.0412214674079932	0.273002347163502	0.12751541584444	0.0991695521504888	0.0369297624206228	0.0385168448768378	0.0788809017385217	0.0376364997537058	0.122820934230662	0.0534251641802107	0.0363041686988855	0.245842709711884	0.273760023963446	0.2126663108877	0.10460024396768	0.0530168005290514	6.66377783944683	0.694187256189065	35.642953033787	0.205586383497215	0.0736448003014713	62.9131173882174	0.253880156191494	0.0785056802899338	0.0660529801516075	0.0427727958674359	0.0883551842399834	0.0424697963033674	0.0364493535836421	0.0335056608575037	0.0458420642358329	0.0564490813045278	0.0404956135326486