Aggregate Source	10kb_upstream	9kb_upstream	8kb_upstream	7kb_upstream	6kb_upstream	5kb_upstream	4kb_upstream	3kb_upstream	2kb_upstream	1kb_upstream	5prime_utr	exons	introns	3prime_utr	gene_body_0_to_10	gene_body_10_to_20	gene_body_20_to_30	gene_body_30_to_40	gene_body_40_to_50	gene_body_50_to_60	gene_body_60_to_70	gene_body_70_to_80	gene_body_80_to_90	gene_body_90_to_100	1kb_downstream	2kb_downstream	3kb_downstream	4kb_downstream	5kb_downstream	6kb_downstream	7kb_downstream	8kb_downstream	9kb_downstream	10kb_downstream
Test Genes Sum	167.625828852882	234.139681357009	185.556859509813	237.769045082185	229.018855278136	228.37606402087	199.340647206178	393.151754060052	254.454301120927	279.882854872945	221.149236219792	253.106624747432	146.181578717511	216.310322612899	346.10299706646	394.281437085884	301.38610676771	18929.3751835682	216.264955368634	170.262154863427	168.057556452908	204.483779964641	161.582273286236	1137.98802830313	209.689742267509	155.300769015908	175.922386355148	669.537671743688	110.85431860883	189.634295589499	137.42665709735	323.073264976812	242.106438655003	544.40724661231
Background Genes Sum	7754.57806575727	7941.49811749675	7754.03876963226	8289.46757661383	8372.76687071735	9899.64446024494	11304.7628920809	12375.4822266759	11960.0587713403	13482.9108187362	11150.5652894783	9424.30816584092	6815.78224556241	21858.0566900323	14830.1058179765	12764.761395444	12506.2242741251	10237.495424626	9592.3327324335	8117.62184413979	8390.19601011294	8232.84811938599	8585.95657435969	23698.2283042459	7927.30559585622	8873.38313218645	7587.67623860555	8981.54576533207	6758.93644426803	9190.55279879311	6553.08298752662	6997.89414785535	6246.81421501268	6873.88303400745
Test Genes Mean	3.22357363178619	4.50268617994247	3.56840114441948	4.57248163619586	4.40420875534876	4.39184738501674	3.8334739847342	7.560610655001	4.89335194463322	5.38236259371048	4.2528699273037	4.86743509129676	2.81118420610597	4.15981389640191	6.6558268666627	7.58233532857469	5.79588666860981	364.026445837851	4.1589414493968	3.27427220891207	3.23187608563286	3.93238038393541	3.10735140935069	21.8843851596755	4.03249504360593	2.98655325030593	3.38312281452207	12.8757244566094	2.13181381940057	3.64681337672113	2.64282032879519	6.21294740340022	4.65589305105776	10.4693701271598
Background Genes Mean	3.52480821170785	3.60977187158943	3.52456307710557	3.76793980755174	3.80580312305334	4.49983839102043	5.13852858730949	5.62521919394358	5.43639035060922	6.12859582669827	5.06843876794468	4.2837764390186	3.098082838892	9.93548031365104	6.74095718998934	5.80216427065636	5.68464739732959	4.65340701119364	4.36015124201523	3.68982811097263	3.81372545914225	3.74220369063	3.90270753379986	10.7719219564754	3.60332072538919	4.03335596917566	3.4489437448207	4.08252080242367	3.07224383830365	4.17752399945142	2.97867408523937	3.18086097629789	2.83946100682395	3.12449228818521
Test Genes SEM	0.785749874346259	1.152546655722	0.930658202816255	1.35054618091031	1.01290685928083	0.955649953020853	0.831526659384774	2.61238879537212	0.969555386208753	0.844051324466273	0.910386660222929	1.45438261456814	0.76022313824387	0.924173168438839	2.08568221779654	2.25951579026382	1.04489301417155	356.549934555884	0.855934312605937	0.773281893891749	0.717333196292377	1.3267808756613	0.721520268645509	17.3130897824881	0.848846173372162	0.6576954754015	1.04191164428536	9.72883604504467	0.522778704124839	1.85728433222134	0.559696634550447	3.49911303692813	1.67998215142026	5.16774588280204
Background Genes SEM	0.192884313222646	0.161605495238833	0.170386767127328	0.236130086048813	0.185130227625783	0.3191814586658	0.499313701573505	0.272653940951324	0.209325315217334	0.245884423382992	0.217475617367419	0.192256873477786	0.1507314843793	6.24985358319443	0.375533800822305	0.28787523227332	0.309185537510865	0.299795155214066	0.495020437446268	0.206976567637114	0.338296064517136	0.250113154050185	0.259113954359412	4.61770855815581	0.170030460086878	0.209950959349623	0.191384849060151	0.486315146992398	0.155819922423107	0.34071684238653	0.163591776135258	0.19799505474471	0.135722565942191	0.172635903677213