Aggregate Source	10kb_upstream	9kb_upstream	8kb_upstream	7kb_upstream	6kb_upstream	5kb_upstream	4kb_upstream	3kb_upstream	2kb_upstream	1kb_upstream	5prime_utr	exons	introns	3prime_utr	gene_body_0_to_10	gene_body_10_to_20	gene_body_20_to_30	gene_body_30_to_40	gene_body_40_to_50	gene_body_50_to_60	gene_body_60_to_70	gene_body_70_to_80	gene_body_80_to_90	gene_body_90_to_100	1kb_downstream	2kb_downstream	3kb_downstream	4kb_downstream	5kb_downstream	6kb_downstream	7kb_downstream	8kb_downstream	9kb_downstream	10kb_downstream
Test Genes Sum	9334.87846509455	9738.01510767029	9183.85200503931	9458.98691911586	7896.95880954354	10008.936528937	7285.90548453826	7742.4349351303	9076.93679374238	7730.13784335941	83944.7304682683	25589.3739403113	51661.7835857447	168972.023428751	197838.435846682	170590.86129011	164484.87314911	121589.620388241	286277.752098391	232798.420867082	210404.159041922	263277.810509892	255375.63067395	303400.96067097	10781.1376598857	16144.1281524097	9709.63624435722	8414.73471879605	8287.15769226926	8370.7502182426	9536.88251452527	9200.73059706352	10468.8559056609	9944.8974912194
Background Genes Sum	24489.2002750623	24224.9450035662	28069.1626670422	25431.6149848401	26505.558572915	25977.1292871779	24531.2711826807	22776.5030115449	36267.0833160898	23019.4091772581	376612.589954923	93558.5078602598	321715.690706437	586119.309791281	213005.771546533	196609.346523501	84510.5708575888	89768.7981891483	108350.803635236	153147.626545284	234015.90202212	264903.555989757	395626.155716363	585965.300693804	45650.8893688559	62064.2988104278	36523.0032761087	27621.5037031655	26283.4714416623	25050.6645855032	26685.1388966496	23607.8648054807	28678.1279526072	20340.9536057349
Test Genes Mean	16.4636304499022	17.1746298195243	16.1972698501575	16.6825166121973	13.9276169480486	17.652445377314	12.8499214894855	13.6550880690129	16.0087068672705	13.6334000764716	148.050671019874	45.1311709705667	91.1142567649819	298.010623331131	348.921403609669	300.86571656104	290.096778040758	214.443774935169	504.899033683229	410.579225515137	371.083172913443	464.334762804042	450.397937696561	535.09869606873	19.0143521338372	28.472889157689	17.1245789142103	14.8408019731853	14.6157983990639	14.7632278981351	16.819898614683	16.2270380900591	18.4635906625413	17.5395017481824
Background Genes Mean	14.9872706701727	14.8255477378006	17.1781901267088	15.5640238585312	16.2212720764473	15.8978759407453	15.0130178596577	13.9391083301988	22.1952774272275	14.0877657143562	230.485061171924	57.257348751689	196.888427604919	358.70214797508	130.358489318564	120.323957480723	51.7200556043995	54.9380649872389	66.3101613434734	93.7255976409324	143.216586304847	162.119679308297	242.121270328251	358.607895161447	27.9381207887735	37.9830470076057	22.351899189785	16.904225032537	16.0853558394506	15.3308840792553	16.3311743553547	14.4478976777727	17.5508739000044	12.4485640181976
Test Genes SEM	1.76677056459644	2.13475137289141	1.72689632131115	2.04881431330876	1.2118651247838	1.888371608258	1.03279509913334	2.16517961605149	1.46142441822642	1.42001282547745	46.8081416299191	4.47621100763716	10.1992685050139	75.5239550849775	150.653933982106	149.644738745542	149.185124133044	129.443158013015	424.8965692375	297.537907671482	296.776667888116	299.346112800075	298.885902205824	336.045201984428	1.30940185250339	2.73044061875391	1.64198672988102	1.24098541203062	1.28758303536641	1.26781752452541	2.12440353618308	1.4207144872059	2.41516744012622	2.37940711404719
Background Genes SEM	0.883869687674983	0.91529320385949	1.58644008198502	1.18926747599662	0.881618193869066	0.79197686210414	0.894211826502043	1.10600687404093	2.18759614010172	0.626877598871322	50.0365397700805	10.39095842422	31.6464152141246	50.3989591208314	59.9654518746713	60.110941690639	4.32945673354888	9.72892586480346	11.5745089448928	18.816093018341	61.2547639425161	62.4746680991628	85.229715279929	112.872148700644	1.2757902922134	2.07809992499813	1.36362725462431	0.833144765327971	0.979295761938609	0.83745759275384	1.06180252955246	0.836844912032228	2.1387232538036	0.711406333047844