Aggregate Source	10kb_upstream	9kb_upstream	8kb_upstream	7kb_upstream	6kb_upstream	5kb_upstream	4kb_upstream	3kb_upstream	2kb_upstream	1kb_upstream	5prime_utr	exons	introns	3prime_utr	gene_body_0_to_10	gene_body_10_to_20	gene_body_20_to_30	gene_body_30_to_40	gene_body_40_to_50	gene_body_50_to_60	gene_body_60_to_70	gene_body_70_to_80	gene_body_80_to_90	gene_body_90_to_100	1kb_downstream	2kb_downstream	3kb_downstream	4kb_downstream	5kb_downstream	6kb_downstream	7kb_downstream	8kb_downstream	9kb_downstream	10kb_downstream
Test Genes Sum	2403.40566970231	2348.7701473117	2380.11169761819	2319.55953764005	2302.78727465084	2277.83562017385	2278.08886835956	2365.62273922828	2931.29793874119	2714.58210360667	20517.8399662731	4096.7252869456	5802.58158708503	12690.9208498848	25668.7932049669	15972.9269831082	15370.4700377246	12227.6282690353	10605.912055231	10163.8425573002	12695.8710422279	14371.5114346872	16274.8090439953	20106.5645711002	2176.45847465903	2529.1325896272	2187.31673140736	2221.20476960791	2273.63889557576	2239.91732044644	2231.18621103392	2270.23724976828	2294.03718516791	2235.64146596438
Background Genes Sum	7785.39906984065	7716.12480090281	11047.8889177774	7852.91674746312	7696.64623815295	7878.94966801742	7586.58599592516	7911.04243551039	10043.6117595823	8821.91168859471	47781.8806023572	10468.7810423031	23013.7714866654	37284.1488522849	22867.387452202	18075.2165169592	16160.7287554326	18084.1671192979	14851.7420836439	14706.6479079674	17586.6777227321	17368.8236465726	24147.109147087	27637.1428695222	7478.70961687477	8286.77151564516	8185.43330958289	7262.79607544317	7217.22924613427	7328.95502236881	7238.39300724609	7437.00244392935	7529.98929668928	7285.77389849065
Test Genes Mean	0.974221998257927	0.952075454929755	0.964779772038181	0.940234915946515	0.933436268605932	0.923322099786726	0.923424754097916	0.95890666365151	1.18820346118411	1.10035756125118	8.31691932155374	1.66061016900916	2.35208009204906	5.14427274012357	10.4048614531686	6.47463598828869	6.23042968695766	4.9564768013925	4.29911311521322	4.11991996647759	5.1462793037	5.82550118957731	6.59700407133979	8.15020858171876	0.882228810157693	1.02518548424288	0.886630211352799	0.900366748929027	0.921620954834114	0.907951893168399	0.904412732482336	0.920242095568822	0.929889414336405	0.906218672867604
Background Genes Mean	0.990634822476225	0.981820180799441	1.40576268199229	0.999225950816023	0.979341676823127	1.00253844865981	0.965337319751261	1.00662201749719	1.27797579330479	1.12252343664521	6.07989319281807	1.33207546027523	2.92833331042949	4.74413396771661	2.90970701771243	2.29993848033582	2.0563339808414	2.30107737871204	1.8897750456348	1.87131287797015	2.23777550868203	2.21005517833982	3.07254219965479	3.51662334514852	0.951610843221118	1.05443078198819	1.04153623992657	0.924137431663465	0.918339387470959	0.932555671506402	0.921032320555553	0.946303911939095	0.958135805660934	0.927061190799167
Test Genes SEM	0.0160252157466753	0.0159776644166564	0.0162055276755802	0.016621619822211	0.015452372090834	0.0148709714552319	0.0150465827248491	0.018184032750328	0.0176636967285976	0.0184513814408482	1.13418153685772	0.245659654013132	0.236784418911523	0.579197068228013	2.17805423415651	0.758052041404741	0.805148447574841	0.633831128821926	0.586922217934549	0.55255435028343	1.34705234267931	1.36912546600759	1.38199409943654	1.42246533800084	0.0136533993056293	0.0218086278564459	0.0144659506969998	0.0149425287246317	0.0188702525716092	0.0165997224921429	0.0148994683931063	0.0152194505327787	0.0156095735879703	0.0136370611818139
Background Genes SEM	0.0227274723500258	0.0255299346646348	0.418931085095584	0.0264812038030741	0.0220671740585614	0.0371890356005646	0.0261573390110153	0.0327120043545691	0.0392848846257404	0.0294865028585867	0.424125577250166	0.0957467720858838	0.238417321936498	0.480614832527983	0.169670319000378	0.165736412494071	0.172001195942521	0.220310056070966	0.128180584887773	0.132644848418133	0.365862168814548	0.205631718506928	0.742061427098011	0.749910160573457	0.0254696180123797	0.0227141020448272	0.11162125060931	0.0114020721395521	0.00999442544824687	0.0155148355526287	0.00932009271665421	0.00949099974550005	0.0116809976983118	0.00859410709127003