Aggregate Source	10kb_upstream	9kb_upstream	8kb_upstream	7kb_upstream	6kb_upstream	5kb_upstream	4kb_upstream	3kb_upstream	2kb_upstream	1kb_upstream	5prime_utr	exons	introns	3prime_utr	gene_body_0_to_10	gene_body_10_to_20	gene_body_20_to_30	gene_body_30_to_40	gene_body_40_to_50	gene_body_50_to_60	gene_body_60_to_70	gene_body_70_to_80	gene_body_80_to_90	gene_body_90_to_100	1kb_downstream	2kb_downstream	3kb_downstream	4kb_downstream	5kb_downstream	6kb_downstream	7kb_downstream	8kb_downstream	9kb_downstream	10kb_downstream
Test Genes Sum	433.30378665008	415.044318736743	404.185716681089	393.316935176701	401.225678827217	425.197569219033	429.086869460522	435.184914218508	536.648513409895	552.682009608027	3242.03405350015	686.774305854764	873.982272247654	1697.92301985953	14833.042955551	13100.0569195962	14509.3158769608	14287.2240468871	11998.9543154655	11663.1347247534	4721.5104681683	6503.50999703469	6285.4588378766	7520.35358993194	416.38407544155	476.813923514287	425.032821366914	401.575910759558	405.501995643492	389.624741334341	395.489835439866	392.968471543661	376.703586040233	373.91182100179
Background Genes Sum	9678.52253858391	9629.96226755904	16254.2841628827	9868.08030045425	9778.94024914631	9783.12331277541	9399.25227102181	9885.06428242391	12449.1049045077	11175.5825065178	62605.699258154	14180.363980083	28859.2376409465	45387.6007887543	41805.6234356265	29090.1179548107	27191.9091152841	26206.9916519819	22652.2434077878	23407.117724512	27848.9441988835	28050.4113897925	35108.614464088	40436.3298793669	9267.75065792262	10337.2764628446	10157.3524254816	8965.63058367307	9340.61735507486	9268.35914601425	9145.55299183238	9178.90133290857	9366.30863678025	9130.03361230953
Test Genes Mean	1.0466275039857	1.00252250902595	0.976294001645142	0.950040906223916	0.969144151756563	1.02704726864501	1.03644171367276	1.05117129038287	1.29625244784999	1.3349806995363	7.83100012922741	1.65887513491489	2.11106829045327	4.10126333299403	35.8286061728286	31.642649564242	35.0466567076348	34.5102030118045	28.9829814383226	28.1718230066508	11.4046146574113	15.7089613454944	15.1822677243396	18.1651052896907	1.00575863633225	1.15172445293306	1.02664932697322	0.969990122607628	0.979473419428725	0.941122563609519	0.955289457584217	0.949199206627201	0.909912043575442	0.903168649762779
Background Genes Mean	0.995118500779756	0.990125670117113	1.67121983990157	1.01460829739402	1.00544316770988	1.00587325856214	0.966404716329612	1.01635454271272	1.27998199717332	1.14904200149268	6.43694214046412	1.45798519227668	2.96722574963464	4.66662562088776	4.29833677109053	2.99096421497129	2.7957957140946	2.6945292671172	2.32904003781491	2.40665409464446	2.8633502158013	2.88406450645615	3.60976912030517	4.15754985393449	0.952884089854269	1.06284972885509	1.04435044473387	0.921820952464844	0.960376038975413	0.952946652890628	0.940320069075918	0.943748851831028	0.963017544394432	0.938724410066783
Test Genes SEM	0.049816009321764	0.0512155234032261	0.0412459995309798	0.0400003023212962	0.0482776199009849	0.0418904875157636	0.0402255482987413	0.0463509489835015	0.0522350409086209	0.0549362330007824	3.42532580290424	0.259284967116551	0.481014849452392	1.18426632278489	18.9757142458911	18.8270438648101	18.9311487680827	18.8799638990778	18.6621109836221	18.6147073259514	3.36163378457981	3.98238184405897	3.92084214901149	5.29653915134819	0.0389009962303235	0.0791578508903802	0.0465506804305671	0.0372979788045845	0.0387755166090298	0.0441634367372708	0.0393104704638386	0.0402563658532487	0.0398747337839412	0.0370555033902995
Background Genes SEM	0.0210883227125796	0.0236467706255312	0.47853727999636	0.0296822739253275	0.0340559958333571	0.0321661880204851	0.0253619041420076	0.0315111121591175	0.0395541196912023	0.0301078230538105	0.398203231377579	0.100375510299942	0.223544454223978	0.309714498581589	0.546138346283962	0.178143179988924	0.225222918011163	0.20890229023554	0.167435849604717	0.182332988943719	0.450018594744613	0.377028793380298	0.681791811219214	0.680384117020003	0.0232629267525125	0.0202930830550788	0.0953062569578776	0.0100011621869941	0.0305157672401143	0.0221578781023188	0.0162557305564245	0.0132857161055656	0.0122629919799368	0.0127363679454525