Aggregate Source	10kb_upstream	9kb_upstream	8kb_upstream	7kb_upstream	6kb_upstream	5kb_upstream	4kb_upstream	3kb_upstream	2kb_upstream	1kb_upstream	5prime_utr	exons	introns	3prime_utr	gene_body_0_to_10	gene_body_10_to_20	gene_body_20_to_30	gene_body_30_to_40	gene_body_40_to_50	gene_body_50_to_60	gene_body_60_to_70	gene_body_70_to_80	gene_body_80_to_90	gene_body_90_to_100	1kb_downstream	2kb_downstream	3kb_downstream	4kb_downstream	5kb_downstream	6kb_downstream	7kb_downstream	8kb_downstream	9kb_downstream	10kb_downstream
Test Genes Sum	303.64499785783	278.079107306857	282.595499895106	262.160038755734	265.754410361546	289.673386767387	303.200200667846	304.280525436082	350.097184955543	335.737545265542	979.292592245711	475.026472047684	521.008562232554	807.337438637521	16945.1881002928	13654.8697498399	15449.292629993	14580.0254606557	13351.7711547209	12635.4677982059	7974.35623249569	8629.23919395321	8294.39741275661	10096.110598992	292.423776080519	346.81579427804	263.66374874266	255.298506379796	270.916899545484	249.151875233154	253.260477697733	252.622234495382	247.978021254238	252.659806469369
Background Genes Sum	10287.8182218088	10234.5914767982	16863.5908074378	10480.0685560146	10367.026660081	10326.7913266392	9986.08681948761	10468.334511631	13260.8081258699	11839.8708678169	69274.6983092251	15229.7768506348	29753.2033809223	48173.1500767008	42298.8593966027	30369.937795631	27880.3817076775	28107.7122198872	24179.3307549219	23760.4418579481	25706.295197634	27026.0507003445	34521.9073107044	40017.3603974112	9826.94196003136	10994.3728335371	10746.0550168306	9563.91849347875	9671.21328375734	9740.46084030928	9580.62866909132	9751.85670936536	9906.88676743538	9619.57741559652
Test Genes Mean	1.05432290922858	0.965552455926588	0.981234374635786	0.910277912346297	0.922758369310925	1.00581037072009	1.05277847454113	1.05652960220862	1.21561522554008	1.16575536550536	3.40032150085316	1.64939747238779	1.80905750775192	2.80325499526917	58.8374586815723	47.412742186944	53.6433771874757	50.6250884050546	46.3603165094475	43.873152077104	27.6887369183878	29.9626360901153	28.799991016516	35.0559395798334	1.01536033361291	1.20422150790986	0.915499127578682	0.88645314715207	0.940683678977375	0.865110677892894	0.879376658672683	0.877160536442298	0.861034796021661	0.877290994685309
Background Genes Mean	0.993896070119675	0.98875388627168	1.62917503694694	1.01246918713309	1.00154831997691	0.99766122371164	0.964746094047688	1.01133557256603	1.28111372098057	1.14383836033397	6.69256094186312	1.47133386635444	2.87442791816465	4.65396097736458	4.0864514922812	2.93401002759453	2.69349644552966	2.71545862427661	2.33594152786416	2.29547308066352	2.4834600712621	2.61096036135103	3.33512774714563	3.86603810234868	0.949371264615144	1.06215562105469	1.03816587931897	0.923960824411047	0.934326469303192	0.941016408106393	0.925575178155862	0.94211735188536	0.957094654374976	0.929337978513817
Test Genes SEM	0.05825763524224	0.0542743109988305	0.0463763631543919	0.0453303828132175	0.0417394151220383	0.0464859631555968	0.0598622296773837	0.0550198701396362	0.0553047608637422	0.0481793489651653	0.643955304345629	0.321455433457241	0.458101835702895	0.551549808907144	27.6897690119509	26.9467400299246	27.1525798716754	27.0069959083637	26.948972468018	26.841700353198	11.564277160745	11.5396361316379	11.4966175695806	11.9169274117458	0.0480716565032013	0.0977925850951717	0.0446374749267927	0.0425699812443204	0.0468009901926059	0.0388853837053501	0.0437031731493179	0.0482734344346356	0.0488657409366743	0.0408951676887507
Background Genes SEM	0.0197303965491095	0.0222467675218161	0.449646224469238	0.0279149798081253	0.0316402421968011	0.03023894538362	0.0237572029359206	0.0293720915828726	0.0373242122706486	0.0282765740682275	0.425343314853034	0.105425386152318	0.210508222059058	0.29620340947872	0.49380727858939	0.178564260220613	0.212240630902707	0.20810648301853	0.158289763093983	0.159355437601513	0.301880386431291	0.214521011187939	0.576019192488849	0.587233090941477	0.0219556290871244	0.0204559467108079	0.0895976526567885	0.00996880511381178	0.0135941127062215	0.0140827659334745	0.00822524658737966	0.00819509508197573	0.00961620235350533	0.00731452476209636