Writing results to output directory 'data/kccells_clamp_rnai_paired_rep1_s_8/clamp_rnai_XReg_2.0_tss/'.
Skipping sequence 'chrX:1391050-1412632'.
Skipping sequence 'chrX:19911591-19932787'.
Skipping sequence 'chrX:148637-149179'.
Skipping sequence 'chrX:8363820-8366020'.
Skipping sequence 'chrX:7855547-7871927'.
Skipping sequence 'chrX:12021603-12157999'.
Skipping sequence 'chrX:12021603-12157999'.
Skipping sequence 'chrX:9527908-9538214'.
Skipping sequence 'chrX:16389542-16453352'.
Skipping sequence 'chrX:16389542-16453352'.
Skipping sequence 'chrX:2401918-2475672'.
Skipping sequence 'chrX:6043364-6129668'.
Skipping sequence 'chrX:14612527-14674291'.
Skipping sequence 'chrX:14612527-14674291'.
Skipping sequence 'chrX:168646-178688'.
Skipping sequence 'chrX:1576975-1596185'.
Skipping sequence 'chrX:1940376-1944478'.
Skipping sequence 'chrX:4973043-4981073'.
Skipping sequence 'chrX:6410602-6459004'.
Skipping sequence 'chrX:13492073-13500999'.
Skipping sequence 'chrX:20187221-20215577'.
Skipping sequence 'chrX:20103322-20111590'.
Skipping sequence 'chrX:20103322-20111590'.
Skipping sequence 'chrX:20103322-20111590'.
Skipping sequence 'chrX:14822253-14876765'.
Skipping sequence 'chrX:15699664-15713058'.
Skipping sequence 'chrX:17203816-17213410'.
Skipping sequence 'chrX:1940376-1944478'.
Skipping sequence 'chrX:2275872-2287522'.
Skipping sequence 'chrX:7479750-7480578'.
Skipping sequence 'chrX:8365804-8368670'.
Skipping sequence 'chrX:373095-373831'.
Skipping sequence 'chrX:3964466-3975746'.
Skipping sequence 'chrX:5203824-5264712'.
Skipping sequence 'chrX:7855547-7871927'.
Skipping sequence 'chrX:8381305-8385831'.
Skipping sequence 'chrX:11924408-11926588'.
Skipping sequence 'chrX:13260447-13269609'.
Skipping sequence 'chrX:13492073-13500999'.
Skipping sequence 'chrX:15699664-15713058'.
Skipping sequence 'chrX:16307808-16310348'.
Skipping sequence 'chrX:18690133-18693291'.
Skipping sequence 'chrX:20803293-20805879'.
Skipping sequence 'chrX:20803293-20805879'.
Skipping sequence 'chrX:21498504-21503866'.
Skipping sequence 'chrX:2271721-2291673'.
Skipping sequence 'chrX:8120239-8129053'.
Skipping sequence 'chrX:10195039-10244941'.
Skipping sequence 'chrX:10195039-10244941'.
Skipping sequence 'chrX:15883609-15888437'.
Skipping sequence 'chrX:18071845-18088529'.
Skipping sequence 'chrX:18263808-18268502'.
Skipping sequence 'chrX:18263808-18268502'.
Initializing the motif probability tables for 2 to 478 sites...
nsites = 8nsites = 16nsites = 24nsites = 32nsites = 40nsites = 48nsites = 56nsites = 64nsites = 72nsites = 80nsites = 88nsites = 96nsites = 104nsites = 112nsites = 120nsites = 128nsites = 136nsites = 144nsites = 152nsites = 160nsites = 168nsites = 176nsites = 184nsites = 192nsites = 200nsites = 208nsites = 216nsites = 224nsites = 232nsites = 240nsites = 248nsites = 256nsites = 264nsites = 272nsites = 280nsites = 288nsites = 296nsites = 304nsites = 312nsites = 320nsites = 328nsites = 336nsites = 344nsites = 352nsites = 360nsites = 368nsites = 376nsites = 384nsites = 392nsites = 400nsites = 408nsites = 416nsites = 424nsites = 432nsites = 440nsites = 448nsites = 456nsites = 464nsites = 472
Done initializing

seqs=   478, min=  78, max=223588, total=  6500458

motif=1
starts: w=8, seq=0, l=21582          starts: w=8, seq=5, l=8798          starts: w=8, seq=10, l=1562          starts: w=8, seq=15, l=165318          starts: w=8, seq=20, l=28138          starts: w=8, seq=25, l=104188          starts: w=11, seq=0, l=21582          starts: w=11, seq=5, l=8798          starts: w=11, seq=10, l=1562          starts: w=11, seq=15, l=165318          starts: w=11, seq=20, l=28138          starts: w=11, seq=25, l=104188          starts: w=15, seq=0, l=21582          starts: w=15, seq=5, l=8798          starts: w=15, seq=10, l=1562          starts: w=15, seq=15, l=165318          starts: w=15, seq=20, l=28138          starts: w=15, seq=25, l=104188          starts: w=21, seq=0, l=21582          starts: w=21, seq=5, l=8798          starts: w=21, seq=10, l=1562          starts: w=21, seq=15, l=165318          starts: w=21, seq=20, l=28138          starts: w=21, seq=25, l=104188          starts: w=29, seq=0, l=21582          starts: w=29, seq=5, l=8798          starts: w=29, seq=10, l=1562          starts: w=29, seq=15, l=165318          starts: w=29, seq=20, l=28138          starts: w=29, seq=25, l=104188          starts: w=41, seq=0, l=21582          starts: w=41, seq=5, l=8798          starts: w=41, seq=10, l=1562          starts: w=41, seq=15, l=165318          starts: w=41, seq=20, l=28138          starts: w=41, seq=25, l=104188          starts: w=50, seq=0, l=21582          starts: w=50, seq=5, l=8798          starts: w=50, seq=10, l=1562          starts: w=50, seq=15, l=165318          starts: w=50, seq=20, l=28138          starts: w=50, seq=25, l=104188          em: w=   8, psites=   2, iter=   0 em: w=   8, psites=   2, iter=  10 em: w=   8, psites=   2, iter=  20 em: w=   8, psites=   2, iter=  30 em: w=   8, psites=   2, iter=  40 em: w=   8, psites= 478, iter=   0 em: w=   8, psites= 478, iter=  10 em: w=   8, psites= 478, iter=  20 em: w=   8, psites= 478, iter=  30 em: w=   8, psites= 478, iter=  40 em: w=  11, psites= 256, iter=   0 em: w=  11, psites= 256, iter=  10 em: w=  11, psites= 256, iter=  20 em: w=  11, psites= 256, iter=  30 em: w=  11, psites= 256, iter=  40 em: w=  15, psites= 128, iter=   0 em: w=  15, psites= 128, iter=  10 em: w=  15, psites= 128, iter=  20 em: w=  15, psites= 128, iter=  30 em: w=  15, psites= 128, iter=  40 em: w=  21, psites=  64, iter=   0 em: w=  21, psites=  64, iter=  10 em: w=  21, psites=  64, iter=  20 em: w=  21, psites=  64, iter=  30 em: w=  21, psites=  64, iter=  40 em: w=  29, psites=  32, iter=   0 em: w=  29, psites=  32, iter=  10 em: w=  29, psites=  32, iter=  20 em: w=  29, psites=  32, iter=  30 em: w=  29, psites=  32, iter=  40 em: w=  41, psites=  16, iter=   0 em: w=  41, psites=  16, iter=  10 em: w=  50, psites=   8, iter=   0 em: w=  50, psites=   8, iter=  10 
Writing results to output directory 'data/kccells_clamp_rnai_paired_rep1_s_8/clamp_rnai_XReg_2.0_tts/'.
Skipping sequence 'chrX:1369467-1391049'.
Skipping sequence 'chrX:19890392-19911590'.
Skipping sequence 'chrX:149180-149720'.
Skipping sequence 'chrX:8366021-8368219'.
Skipping sequence 'chrX:7871928-7888308'.
Skipping sequence 'chrX:12158000-12294396'.
Skipping sequence 'chrX:12158000-12294396'.
Skipping sequence 'chrX:9517601-9527907'.
Skipping sequence 'chrX:16325729-16389541'.
Skipping sequence 'chrX:16325729-16389541'.
Skipping sequence 'chrX:2328163-2401917'.
Skipping sequence 'chrX:5957057-6043363'.
Skipping sequence 'chrX:14550762-14612526'.
Skipping sequence 'chrX:14550762-14612526'.
Skipping sequence 'chrX:158603-168645'.
Skipping sequence 'chrX:1557764-1576974'.
Skipping sequence 'chrX:1936273-1940375'.
Skipping sequence 'chrX:4965012-4973042'.
Skipping sequence 'chrX:6459005-6507407'.
Skipping sequence 'chrX:13483146-13492072'.
Skipping sequence 'chrX:20158862-20187220'.
Skipping sequence 'chrX:20095051-20103321'.
Skipping sequence 'chrX:20095051-20103321'.
Skipping sequence 'chrX:20095051-20103321'.
Skipping sequence 'chrX:14876766-14931278'.
Skipping sequence 'chrX:15713059-15726451'.
Skipping sequence 'chrX:17213411-17223005'.
Skipping sequence 'chrX:1936273-1940375'.
Skipping sequence 'chrX:2264219-2275871'.
Skipping sequence 'chrX:7478921-7479749'.
Skipping sequence 'chrX:8368671-8371537'.
Skipping sequence 'chrX:373832-374566'.
Skipping sequence 'chrX:3975747-3987027'.
Skipping sequence 'chrX:5264713-5325599'.
Skipping sequence 'chrX:7871928-7888308'.
Skipping sequence 'chrX:8376776-8381304'.
Skipping sequence 'chrX:11922225-11924407'.
Skipping sequence 'chrX:13269610-13278770'.
Skipping sequence 'chrX:13483146-13492072'.
Skipping sequence 'chrX:15713059-15726451'.
Skipping sequence 'chrX:16310349-16312887'.
Skipping sequence 'chrX:18686972-18690132'.
Skipping sequence 'chrX:20800704-20803292'.
Skipping sequence 'chrX:20800704-20803292'.
Skipping sequence 'chrX:21493141-21498503'.
Skipping sequence 'chrX:2251768-2271720'.
Skipping sequence 'chrX:8129054-8137866'.
Skipping sequence 'chrX:10145136-10195038'.
Skipping sequence 'chrX:10145136-10195038'.
Skipping sequence 'chrX:15878778-15883608'.
Skipping sequence 'chrX:18088530-18105212'.
Skipping sequence 'chrX:18268503-18273197'.
Skipping sequence 'chrX:18268503-18273197'.
Initializing the motif probability tables for 2 to 478 sites...
nsites = 8nsites = 16nsites = 24nsites = 32nsites = 40nsites = 48nsites = 56nsites = 64nsites = 72nsites = 80nsites = 88nsites = 96nsites = 104nsites = 112nsites = 120nsites = 128nsites = 136nsites = 144nsites = 152nsites = 160nsites = 168nsites = 176nsites = 184nsites = 192nsites = 200nsites = 208nsites = 216nsites = 224nsites = 232nsites = 240nsites = 248nsites = 256nsites = 264nsites = 272nsites = 280nsites = 288nsites = 296nsites = 304nsites = 312nsites = 320nsites = 328nsites = 336nsites = 344nsites = 352nsites = 360nsites = 368nsites = 376nsites = 384nsites = 392nsites = 400nsites = 408nsites = 416nsites = 424nsites = 432nsites = 440nsites = 448nsites = 456nsites = 464nsites = 472
Done initializing

seqs=   478, min=  80, max=223590, total=  6500466

motif=1
starts: w=8, seq=0, l=21582          starts: w=8, seq=5, l=8796          starts: w=8, seq=10, l=1560          starts: w=8, seq=15, l=165316          starts: w=8, seq=20, l=28140          starts: w=8, seq=25, l=104188          starts: w=11, seq=0, l=21582          starts: w=11, seq=5, l=8796          starts: w=11, seq=10, l=1560          starts: w=11, seq=15, l=165316          starts: w=11, seq=20, l=28140          starts: w=11, seq=25, l=104188          starts: w=15, seq=0, l=21582          starts: w=15, seq=5, l=8796          starts: w=15, seq=10, l=1560          starts: w=15, seq=15, l=165316          starts: w=15, seq=20, l=28140          starts: w=15, seq=25, l=104188          starts: w=21, seq=0, l=21582          starts: w=21, seq=5, l=8796          starts: w=21, seq=10, l=1560          starts: w=21, seq=15, l=165316          starts: w=21, seq=20, l=28140          starts: w=21, seq=25, l=104188          starts: w=29, seq=0, l=21582          starts: w=29, seq=5, l=8796          starts: w=29, seq=10, l=1560          starts: w=29, seq=15, l=165316          starts: w=29, seq=20, l=28140          starts: w=29, seq=25, l=104188          starts: w=41, seq=0, l=21582          starts: w=41, seq=5, l=8796          starts: w=41, seq=10, l=1560          starts: w=41, seq=15, l=165316          starts: w=41, seq=20, l=28140          starts: w=41, seq=25, l=104188          starts: w=50, seq=0, l=21582          starts: w=50, seq=5, l=8796          starts: w=50, seq=10, l=1560          starts: w=50, seq=15, l=165316          starts: w=50, seq=20, l=28140          starts: w=50, seq=25, l=104188          em: w=   8, psites=   2, iter=   0 em: w=   8, psites=   2, iter=  10 em: w=   8, psites=   2, iter=  20 em: w=   8, psites=   2, iter=  30 em: w=   8, psites=   2, iter=  40 em: w=   8, psites= 478, iter=   0 em: w=   8, psites= 478, iter=  10 em: w=   8, psites= 478, iter=  20 em: w=   8, psites= 478, iter=  30 em: w=   8, psites= 478, iter=  40 em: w=  11, psites= 256, iter=   0 em: w=  11, psites= 256, iter=  10 em: w=  11, psites= 256, iter=  20 em: w=  11, psites= 256, iter=  30 em: w=  11, psites= 256, iter=  40 em: w=  15, psites= 128, iter=   0 em: w=  15, psites= 128, iter=  10 em: w=  15, psites= 128, iter=  20 em: w=  15, psites= 128, iter=  30 em: w=  15, psites= 128, iter=  40 em: w=  21, psites=  64, iter=   0 em: w=  21, psites=  64, iter=  10 em: w=  21, psites=  64, iter=  20 em: w=  21, psites=  64, iter=  30 em: w=  21, psites=  64, iter=  40 em: w=  29, psites=  32, iter=   0 em: w=  29, psites=  32, iter=  10 em: w=  29, psites=  32, iter=  20 em: w=  29, psites=  32, iter=  30 em: w=  29, psites=  32, iter=  40 em: w=  41, psites=  16, iter=   0 em: w=  50, psites=   8, iter=   0 
