readline() on closed filehandle $file at /gpfs/data/people/ahadik/alex_analysis_scripts_and_results/Motif_Analysis/bin/../lib/GeneSplit.pm line 149.
The output directory 'data/s2cells_msl2_rnai_paired_rep1_s_3/msl2_rnai_paired_XReg_nmotifs_2_tss/' already exists.
Its contents will not be overwritten.
