NM_001014480,46437
NM_001014486,19473
NM_001014489,713
NM_001014497,7708
NM_001014498,3424
NM_001014506,2208
NM_001014512,16621
NM_001014519,32563
NM_001014523,6061
NM_001014532,694
NM_001014545,17200
NM_001014609,1499
NM_001014617,14627
NM_001014630,41538
NM_001014631,99061
NM_001014632,74787
NM_001014635,2645
NM_001014647,18361
NM_001014650,18369
NM_001014674,3160
NM_001014676,3160
NM_001014688,29842
NM_001014693,16523
NM_001014694,13745
NM_001014696,18416
NM_001014715,21583
NM_001014723,20827
NM_001014727,20523
NM_001014739,8927
NM_001014742,8538
NM_001014759,9113
NM_001015161,7362
NM_001015187,215672
NM_001015230,91146
NM_001015260,11034
NM_001015386,765
NM_001031864,73755
NM_001031899,13115
NM_001031909,21235
NM_001031922,2134
NM_001031936,715
NM_001031937,700
NM_001031958,652
NM_001031961,584
NM_001031976,658
NM_001031977,50901
NM_001032007,3393
NM_001032016,1819
NM_001032060,4942
NM_001032068,33243
NM_001032070,33243
NM_001032075,33243
NM_001032087,589
NM_001032117,530
NM_001032227,652
NM_001032233,1927
NM_001032248,1167
NM_001032263,2604
NM_001032267,609
NM_001032269,100101
NM_001032270,1754
NM_001032402,23953
NM_001038713,7208
NM_001038721,4977
NM_001038727,2351
NM_001038731,1562
NM_001038740,38195
NM_001038742,5612
NM_001038748,2200
NM_001038782,1091
NM_001038790,8554
NM_001038794,1033
NM_001038822,5536
NM_001038850,2766
NM_001038857,7606
NM_001038863,31837
NM_001038869,8470
NM_001038873,287
NM_001038878,2001
NM_001038935,47604
NM_001038936,47604
NM_001038968,1062
NM_001038976,13738
NM_001042790,594
NM_001042796,165318
NM_001042844,1021
NM_001042848,1752
NM_001042857,1077
NM_001042865,411
NM_001042887,3718
NM_001042897,21813
NM_001042990,13644
NM_001043019,62316
NM_001043023,62316
NM_001043038,62316
NM_001043049,62316
NM_001043052,62316
NM_001043060,62316
NM_001043071,3764
NM_001043080,17833
NM_001043081,25465
NM_001043098,13961
NM_001043103,2511
NM_001043146,903
NM_001043147,9223
NM_001043148,9223
NM_001043212,4812
NM_001043222,15620
NM_001043238,679
NM_001043256,91602
NM_001043265,39871
NM_001043267,84288
NM_001043270,6308
NM_001043286,19355
NM_001043288,18174
NM_001043294,974
NM_001103380,6206
NM_001103387,5426
NM_001103391,28140
NM_001103419,86306
NM_001103429,104189
NM_001103462,2412
NM_001103479,2676
NM_001103497,16168
NM_001103540,693
NM_001103541,2443
NM_001103542,41541
NM_001103546,4695
NM_001103551,19079
NM_001103568,16883
NM_001103574,33867
NM_001103576,8367
NM_001103590,1592
NM_001103592,646
NM_001103603,662
NM_001103610,18792
NM_001103631,2237
NM_001103638,33836
NM_001103662,424
NM_001103666,115917
NM_001103670,6055
NM_001103692,607
NM_001103720,31889
NM_001103730,117377
NM_001103749,49396
NM_001103757,13110
NM_001103758,8659
NM_001103766,6275
NM_001103768,7416
NM_001103771,36683
NM_001103778,5462
NM_001103785,2144
NM_001103787,657
NM_001103815,709
NM_001103816,2725
NM_001103832,4918
NM_001103833,832
NM_001103845,7399
NM_001103853,38619
NM_001103855,62751
NM_001103863,43912
NM_001103872,57924
NM_001103873,9543
NM_001103878,1117
NM_001103881,1100
NM_001103910,732
NM_001103912,54619
NM_001103945,35522
NM_001103950,582
NM_001103960,561
NM_001103964,4388
NM_001103984,1884
NM_001104000,31639
NM_001104013,2001
NM_001104017,17502
NM_001104021,500
NM_001104037,402
NM_001104039,7333
NM_001104040,12744
NM_001104050,2139
NM_001104069,63007
NM_001104105,872
NM_001104130,5975
NM_001104133,35423
NM_001104134,538
NM_001104152,41185
NM_001104156,4365
NM_001104158,1456
NM_001104164,11960
NM_001104176,17718
NM_001104181,6363
NM_001104183,3889
NM_001104190,10351
NM_001104196,25259
NM_001104240,376
NM_001104242,31839
NM_001104298,2352
NM_001104307,46432
NM_001104335,5787
NM_001104339,1667
NM_001104361,519
NM_001104362,596
NM_001104368,576
NM_001104378,23241
NM_001104379,49495
NM_001104383,2096
NM_001104384,31796
NM_001104394,924
NM_001104410,43139
NM_001104418,3404
NM_001104428,4111
NM_001104429,1266
NM_001104456,41739
NM_001104467,1748
NM_001104471,844
NM_001104481,64126
NM_001104503,472
NM_001104511,8289
NM_001104522,135520
NM_001110873,1890
NM_001110899,76203
NM_001110936,6184
NM_001110997,11613
NM_001144148,8895
NM_001144187,77874
NM_001144209,568
NM_001144213,10148
NM_001144215,3088
NM_001144230,2548
NM_001144232,3324
NM_001144234,81102
NM_001144240,14077
NM_001144242,13213
NM_001144248,54619
NM_001144276,4219
NM_001144281,12980
NM_001144283,1734
NM_001144285,1725
NM_001144337,2349
NM_001144340,4193
NM_001144342,29070
NM_001144347,59530
NM_001144360,20894
NM_001144368,2199
NM_001144369,8240
NM_001144376,13585
NM_001144393,616
NM_001144396,4814
NM_001144418,6129
NM_001144425,15799
NM_001144436,43751
NM_001144438,2537
NM_001144440,8476
NM_001144442,1541
NM_001144456,9273
NM_001144475,35423
NM_001144498,32133
NM_001144512,48704
NM_001144517,1019
NM_001144530,1928
NM_001144536,77064
NM_001144540,3221
NM_001144559,16250
NM_001144560,24072
NM_001144561,9024
NM_001144568,1295
NM_001144573,6116
NM_001144575,46432
NM_001144585,1815
NM_001144592,68594
NM_001144596,1058
NM_001144602,7503
NM_001144604,733
NM_001144608,27737
NM_001144627,2332
NM_001144629,63909
NM_001144651,3506
NM_001144664,542
NM_001144670,5991
NM_001144679,14189
NM_001144684,577
NM_001144703,1874
NM_001144704,1880
NM_001144706,2200
NM_001144713,17550
NM_001144722,1104
NM_001144727,2138
NM_001144746,4567
NM_001169158,736
NM_001169163,1200
NM_001169170,5146
NM_001169174,3494
NM_001169176,11652
NM_001169200,14959
NM_001169206,1217
NM_001169227,16381
NM_001169228,11575
NM_001169236,2495
NM_001169241,13645
NM_001169251,23006
NM_001169260,136397
NM_001169261,136397
NM_001169263,4404
NM_001169273,8927
NM_001169279,12843
NM_001169282,61399
NM_001169283,61765
NM_001169288,3268
NM_001169308,13055
NM_001169335,279
NM_001169350,14054
NM_001169361,16091
NM_001169398,36984
NM_001169418,2420
NM_001169425,1113
NM_001169442,14131
NM_001169447,38959
NM_001169463,4241
NM_001169468,7356
NM_001169481,50131
NM_001169495,907
NM_001169520,21841
NM_001169529,8738
NM_001169534,69148
NM_001169536,11550
NM_001169552,706
NM_001169554,779
NM_001169560,1077
NM_001169563,23973
NM_001169564,23973
NM_001169572,588
NM_001169588,20302
NM_001169589,17377
NM_001169606,21833
NM_001169617,2291
NM_001169622,8454
NM_001169631,1091
NM_001169632,10057
NM_001169645,1514
NM_001169650,781
NM_001169657,6301
NM_001169664,9702
NM_001169681,931
NM_001169686,601
NM_001169688,3200
NM_001169698,13019
NM_001169704,16178
NM_001169711,4023
NM_001169736,6597
NM_001169739,26406
NM_001169741,860
NM_001169778,8758
NM_001169783,5167
NM_001169787,11961
NM_001169790,511
NM_001169796,463
NM_001169815,11467
NM_001169824,16600
NM_001169850,12642
NM_001169851,14402
NM_001169873,7315
NM_001169875,1312
NM_001169880,7333
NM_001169884,4380
NM_001169887,53713
NM_001169888,38456
NM_001169891,53713
NM_001169896,26864
NM_001169906,508
NM_001169909,17570
NM_001169911,12465
NM_001169939,872
NM_001169940,987
NM_001169943,1091
NM_001169968,1235
NM_001169983,4051
NM_001169996,38987
NM_001169998,5227
NM_001169999,5227
NM_001170011,5423
NM_001170016,27219
NM_001170020,945
NM_001170023,30277
NM_001170026,621
NM_001170027,93532
NM_001170028,19378
NM_001170041,1658
NM_001170047,18523
NM_001170049,20108
NM_001170051,5575
NM_001170063,2196
NM_001170092,18753
NM_001170098,4678
NM_001170104,4983
NM_001170111,95824
NM_001170115,52583
NM_001170122,3688
NM_001170127,6080
NM_001170132,5581
NM_001170141,7578
NM_001170144,6036
NM_001170156,9875
NM_001170160,68594
NM_001170168,30533
NM_001170169,87022
NM_001170172,11684
NM_001170188,19673
NM_001170196,26571
NM_001170208,4327
NM_001170227,2035
NM_001170229,4346
NM_001170275,67702
NM_001170276,67702
NM_001170293,17098
NM_001170297,6709
NM_001170299,627
NM_001170305,46299
NM_001170307,8379
NM_001170314,24159
NM_001170315,32636
NM_001170321,86373
NM_001170322,90406
NM_001170363,13271
NM_001170379,5903
NM_001170380,6184
NM_001201586,29842
NM_001201588,29842
NM_001201606,4103
NM_001201619,43055
NM_001201621,8204
NM_001201629,6476
NM_001201633,2401
NM_001201634,2867
NM_001201637,23115
NM_001201644,23892
NM_001201645,10307
NM_001201648,1107
NM_001201650,3388
NM_001201654,3107
NM_001201661,17970
NM_001201677,63812
NM_001201684,63812
NM_001201692,63812
NM_001201694,63812
NM_001201704,63812
NM_001201710,63812
NM_001201723,63812
NM_001201731,21490
NM_001201740,13115
NM_001201747,7391
NM_001201748,7391
NM_001201753,909
NM_001201767,106117
NM_001201775,2780
NM_001201783,12515
NM_001201784,16123
NM_001201785,22504
NM_001201796,4350
NM_001201799,604
NM_001201806,633
NM_001201808,33736
NM_001201811,33897
NM_001201812,33897
NM_001201820,35236
NM_001201827,829
NM_001201831,825
NM_001201835,92827
NM_001201847,6491
NM_001201873,1645
NM_001201880,27264
NM_001201882,454
NM_001201891,462
NM_001201901,1861
NM_001201902,1128
NM_001201911,784
NM_001201924,462
NM_001201927,4994
NM_001201928,3289
NM_001201936,4091
NM_001201955,18636
NM_001201962,8678
NM_001201969,19665
NM_001201970,593
NM_001201972,94093
NM_001201987,2302
NM_001201988,1053
NM_001201991,625
NM_001201999,2533
NM_001202004,26951
NM_001202005,2342
NM_001202023,5156
NM_001202024,5156
NM_001202036,310
NM_001202041,3023
NM_001202045,1766
NM_001202057,5301
NM_001202065,1962
NM_001202090,3559
NM_001202097,29691
NM_001202109,62837
NM_001202146,1044
NM_001202151,1266
NM_001202160,1315
NM_001202179,11293
NM_001202186,429
NM_001202193,23073
NM_001202194,18045
NM_001202199,1058
NM_001202200,389
NM_001202208,48704
NM_001202212,1328
NM_001202218,19931
NM_001202222,3165
NM_001202225,9626
NM_001202228,707
NM_001202231,6972
NM_001202232,10351
NM_001202251,2235
NM_001202252,5142
NM_001202274,30710
NM_001202288,4023
NM_001202296,17014
NM_001202303,10029
NM_001202308,2374
NM_001202310,256
NM_001202342,539
NM_001202365,7164
NM_001202382,13043
NM_001202393,2995
NM_001258473,9332
NM_001258478,9095
NM_001258485,14478
NM_001258488,27477
NM_001258493,12683
NM_001258498,22636
NM_001258512,2320
NM_001258522,48575
NM_001258555,11793
NM_001258559,21344
NM_001258568,74303
NM_001258569,73755
NM_001258571,74303
NM_001258591,8867
NM_001258610,537
NM_001258613,688
NM_001258616,86306
NM_001258628,17701
NM_001258633,3999
NM_001258634,392
NM_001258646,8814
NM_001258652,33720
NM_001258656,490
NM_001258661,8195
NM_001258670,32774
NM_001258704,7547
NM_001258706,9845
NM_001258713,128334
NM_001258724,9024
NM_001258726,22144
NM_001258728,17774
NM_001258739,61765
NM_001258740,61765
NM_001258742,1574
NM_001258755,27173
NM_001258762,55181
NM_001258783,8709
NM_001258795,1220
NM_001258806,594
NM_001258840,16604
NM_001258848,4243
NM_001258864,10395
NM_001258867,9739
NM_001258876,33867
NM_001258877,40003
NM_001258879,33867
NM_001258887,42557
NM_001258890,40089
NM_001258891,40089
NM_001258904,10554
NM_001258919,9912
NM_001258923,5818
NM_001258927,6580
NM_001258928,706
NM_001258929,476
NM_001258933,12422
NM_001258935,15343
NM_001258946,112493
NM_001258947,114502
NM_001258952,22370
NM_001258958,567
NM_001258960,5318
NM_001258961,5318
NM_001258963,3984
NM_001258972,526
NM_001258985,1362
NM_001259001,5397
NM_001259014,6770
NM_001259016,622
NM_001259028,3318
NM_001259037,5627
NM_001259050,12496
NM_001259061,700
NM_001259068,3250
NM_001259101,464
NM_001259110,1921
NM_001259113,3162
NM_001259124,2081
NM_001259125,652
NM_001259137,5505
NM_001259150,3942
NM_001259173,33751
NM_001259180,5156
NM_001259185,2326
NM_001259200,2103
NM_001259218,4341
NM_001259264,3590
NM_001259265,2209
NM_001259266,1994
NM_001259272,2104
NM_001259280,27734
NM_001259282,27734
NM_001259293,10965
NM_001259300,33711
NM_001259304,11148
NM_001259308,5894
NM_001259311,19159
NM_001259328,47794
NM_001259329,44790
NM_001259341,403
NM_001259344,542
NM_001259345,542
NM_001259360,3137
NM_001259389,9702
NM_001259412,1837
NM_001259413,4762
NM_001259428,6495
NM_001259439,2004
NM_001259441,15909
NM_001259447,987
NM_001259449,18183
NM_001259469,5812
NM_001259483,399
NM_001259491,27915
NM_001259507,392
NM_001259511,860
NM_001259529,3539
NM_001259547,627
NM_001259549,838
NM_001259559,1962
NM_001259560,6492
NM_001259583,7589
NM_001259605,8588
NM_001259640,4235
NM_001259642,49048
NM_001259645,46246
NM_001259653,92672
NM_001259668,10658
NM_001259669,7542
NM_001259676,626
NM_001259682,3320
NM_001259683,5126
NM_001259689,21968
NM_001259698,17332
NM_001259702,51855
NM_001259706,142276
NM_001259716,524
NM_001259722,53713
NM_001259723,3748
NM_001259724,13203
NM_001259744,34340
NM_001259749,20876
NM_001259750,14117
NM_001259754,32278
NM_001259760,7834
NM_001259779,109556
NM_001259807,4766
NM_001259813,14770
NM_001259829,503
NM_001259850,5977
NM_001259851,5977
NM_001259852,47713
NM_001259856,30068
NM_001259863,1703
NM_001259871,12290
NM_001259874,11941
NM_001259890,1565
NM_001259902,1270
NM_001259905,7983
NM_001259916,4081
NM_001259930,5837
NM_001259945,44538
NM_001259948,12605
NM_001259950,5711
NM_001259951,10351
NM_001259967,77543
NM_001259988,2629
NM_001259994,3307
NM_001260013,1360
NM_001260048,1049
NM_001260049,1049
NM_001260054,7136
NM_001260079,23362
NM_001260101,9209
NM_001260102,21951
NM_001260105,21951
NM_001260109,514
NM_001260110,937
NM_001260115,72648
NM_001260116,79148
NM_001260117,74750
NM_001260118,2318
NM_001260120,13587
NM_001260121,14245
NM_001260122,13587
NM_001260123,7704
NM_001260135,9106
NM_001260136,12726
NM_001260165,823
NM_001260193,1014
NM_001260200,9875
NM_001260209,29372
NM_001260212,68594
NM_001260227,16219
NM_001260231,41538
NM_001260249,8464
NM_001260254,28515
NM_001260259,537
NM_001260277,70598
NM_001260278,105556
NM_001260280,70598
NM_001260281,105556
NM_001260282,15935
NM_001260285,35762
NM_001260291,1172
NM_001260340,30230
NM_001260351,19687
NM_001260366,4230
NM_001260393,67702
NM_001260394,29549
NM_001260405,61882
NM_001260407,534
NM_001260413,137878
NM_001260422,13599
NM_001260425,9886
NM_001260428,378
NM_001260429,2038
NM_001260434,641
NM_001260465,19401
NM_001260466,19401
NM_001260468,17242
NM_001272115,18065
NM_001272122,8056
NM_001272129,10909
NM_001272144,3645
NM_001272163,10043
NM_001272164,10043
NM_001272181,500
NM_001272192,1635
NM_001272211,19211
NM_001272217,756
NM_001272230,63523
NM_001272237,11504
NM_001272240,1089
NM_001272247,5471
NM_001272248,5467
NM_001272254,12750
NM_001272259,19953
NM_001272261,2782
NM_001272272,87700
NM_001272276,56458
NM_001272279,1225
NM_001272280,1225
NM_001272286,5266
NM_001272299,11281
NM_001272307,71711
NM_001272314,2288
NM_001272322,60888
NM_001272323,63970
NM_001272335,2256
NM_001272342,5365
NM_001272352,48403
NM_001272365,7683
NM_001272366,6409
NM_001272367,12718
NM_001272403,4528
NM_001272404,4115
NM_001272416,20523
NM_001272420,2195
NM_001272427,2192
NM_001272429,28629
NM_001272432,25321
NM_001272460,2964
NM_001272467,4589
NM_001272475,14143
NM_001272484,56287
NM_001272491,3673
NM_001272506,9915
NM_001272515,74269
NM_001272523,934
NM_001272532,3612
NM_001272546,4659
NM_001272568,5421
NM_001272581,22433
NM_001272585,3001
NM_001272594,8927
NM_001272595,8927
NM_001272601,1236
NM_001272603,9830
NM_001272618,1888
NM_001272639,2657
NM_001272661,24938
NM_001272662,24938
NM_001272671,5545
NM_001272680,2136
NM_001272683,2540
NM_001272685,4740
NM_001272695,2696
NM_001272700,29883
NM_001272712,9595
NM_001272719,19454
NM_001272720,19454
NM_001272722,2842
NM_001272735,89077
NM_001272740,11258
NM_001272754,1281
NM_001272790,10403
NM_001272799,11277
NM_001272806,3668
NM_001272808,1012
NM_001272814,28358
NM_001272815,28358
NM_001272816,28260
NM_001272824,27846
NM_001272828,75844
NM_001272834,7158
NM_001272879,1335
NM_001272889,40321
NM_001272890,2333
NM_001272907,2780
NM_001272917,1480
NM_001272922,23162
NM_001272929,3597
NM_001272937,40180
NM_001272946,53276
NM_001272951,4550
NM_001272952,1324
NM_001272959,560
NM_001272960,20124
NM_001272961,4315
NM_001272978,3636
NM_001272982,2474
NM_001272990,2897
NM_001272993,515
NM_001273001,1373
NM_001273011,1383
NM_001273018,905
NM_001273027,3268
NM_001273045,7941
NM_001273047,5857
NM_001273052,3139
NM_001273067,2145
NM_001273079,2927
NM_001273096,36155
NM_001273107,114502
NM_001273110,117593
NM_001273111,115584
NM_001273120,4316
NM_001273135,2075
NM_001273144,1556
NM_001273163,6831
NM_001273167,5189
NM_001273173,2420
NM_001273181,641
NM_001273183,4864
NM_001273191,3254
NM_001273198,5791
NM_001273206,15348
NM_001273222,3035
NM_001273230,12781
NM_001273232,2773
NM_001273254,17176
NM_001273256,649
NM_001273258,21321
NM_001273263,10320
NM_001273282,16123
NM_001273283,33074
NM_001273296,13029
NM_001273299,27065
NM_001273309,13343
NM_001273313,8807
NM_001273336,124447
NM_001273339,1956
NM_001273353,35236
NM_001273355,19297
NM_001273362,14355
NM_001273378,5218
NM_001273422,11010
NM_001273427,4206
NM_001273428,10157
NM_001273437,4464
NM_001273459,5577
NM_001273462,15112
NM_001273470,834
NM_001273472,973
NM_001273473,25169
NM_001273475,106469
NM_001273478,137308
NM_001273489,2053
NM_001273501,2662
NM_001273520,5723
NM_001273545,411
NM_001273560,1746
NM_001273569,4336
NM_001273573,15811
NM_001273595,1121
NM_001273607,1079
NM_001273609,2605
NM_001273610,16232
NM_001273622,1228
NM_001273648,3117
NM_001273652,2859
NM_001273656,1607
NM_001273657,4728
NM_001273672,17346
NM_001273674,162060
NM_001273692,4994
NM_001273710,3407
NM_001273718,1619
NM_001273726,13797
NM_001273727,13538
NM_001273730,1525
NM_001273737,3410
NM_001273745,10400
NM_001273747,694
NM_001273756,12647
NM_001273757,25279
NM_001273777,785
NM_001273790,4798
NM_001273807,14998
NM_001273808,7846
NM_001273816,5524
NM_001273821,45619
NM_001273828,2727
NM_001273829,1653
NM_001273872,937
NM_001273881,6770
NM_001273882,443
NM_001273884,3201
NM_001273909,3897
NM_001273916,6566
NM_001273923,8981
NM_001273928,4149
NM_001273931,28289
NM_001273999,1230
NM_001274013,13993
NM_001274043,21441
NM_001274061,3152
NM_001274073,6991
NM_001274090,42566
NM_001274091,6666
NM_001274103,9883
NM_001274109,2604
NM_001274124,16178
NM_001274126,16178
NM_001274135,1002
NM_001274142,2024
NM_001274148,4009
NM_001274177,1239
NM_001274194,7166
NM_001274202,601
NM_001274204,8046
NM_001274205,8046
NM_001274211,23139
NM_001274218,2899
NM_001274220,2029
NM_001274228,44679
NM_001274229,44679
NM_001274246,28628
NM_001274251,4999
NM_001274281,10793
NM_001274291,2258
NM_001274299,5503
NM_001274301,31639
NM_001274310,64721
NM_001274312,64721
NM_001274315,31915
NM_001274345,1452
NM_001274351,3559
NM_001274362,1804
NM_001274386,29082
NM_001274393,1467
NM_001274399,46895
NM_001274411,56276
NM_001274417,984
NM_001274431,6358
NM_001274432,1723
NM_001274434,1195
NM_001274451,15487
NM_001274457,1358
NM_001274459,5587
NM_001274478,7315
NM_001274479,5799
NM_001274487,750
NM_001274490,35023
NM_001274493,50709
NM_001274499,18138
NM_001274513,17954
NM_001274520,2139
NM_001274528,6068
NM_001274536,7382
NM_001274565,18533
NM_001274587,1618
NM_001274600,5154
NM_001274609,37246
NM_001274610,9792
NM_001274612,3209
NM_001274617,41212
NM_001274620,10096
NM_001274626,75102
NM_001274659,27735
NM_001274666,12418
NM_001274671,10387
NM_001274672,10387
NM_001274682,1215
NM_001274686,36312
NM_001274687,36312
NM_001274688,36312
NM_001274691,3549
NM_001274693,36545
NM_001274716,2954
NM_001274722,17565
NM_001274731,4924
NM_001274732,20499
NM_001274741,59179
NM_001274752,3534
NM_001274768,14442
NM_001274771,1460
NM_001274781,2295
NM_001274797,3262
NM_001274809,48250
NM_001274818,5747
NM_001274819,2877
NM_001274825,6670
NM_001274835,4011
NM_001274850,3437
NM_001274875,5975
NM_001274879,265464
NM_001274884,35423
NM_001274887,15496
NM_001274890,18022
NM_001274901,1612
NM_001274902,1928
NM_001274905,889
NM_001274925,317
NM_001274931,13185
NM_001274939,12596
NM_001274946,2586
NM_001274965,47713
NM_001274967,50452
NM_001274969,50343
NM_001274971,47604
NM_001274972,24706
NM_001274989,12625
NM_001274999,8157
NM_001275000,4051
NM_001275015,854
NM_001275018,2665
NM_001275025,1150
NM_001275040,10756
NM_001275046,580
NM_001275054,5638
NM_001275057,4391
NM_001275065,1503
NM_001275096,1043
NM_001275102,18695
NM_001275104,2091
NM_001275131,13287
NM_001275144,13617
NM_001275155,1573
NM_001275158,583
NM_001275206,24520
NM_001275232,825
NM_001275240,589
NM_001275259,15754
NM_001275278,6178
NM_001275287,2869
NM_001275299,1519
NM_001275320,3480
NM_001275322,6973
NM_001275325,21469
NM_001275328,3829
NM_001275334,27456
NM_001275378,12013
NM_001275404,1444
NM_001275412,941
NM_001275415,2346
NM_001275434,10965
NM_001275440,7136
NM_001275447,837
NM_001275489,29400
NM_001275500,1774
NM_001275503,5968
NM_001275508,2625
NM_001275514,114196
NM_001275519,6767
NM_001275520,548
NM_001275521,3624
NM_001275526,25467
NM_001275536,1935
NM_001275538,3467
NM_001275551,1576
NM_001275570,21634
NM_001275577,6080
NM_001275579,6080
NM_001275591,12449
NM_001275598,15605
NM_001275604,6672
NM_001275607,363
NM_001275610,7497
NM_001275611,7497
NM_001275616,4283
NM_001275620,49461
NM_001275622,49461
NM_001275627,1381
NM_001275645,6674
NM_001275668,1680
NM_001275673,24805
NM_001275687,1950
NM_001275695,29921
NM_001275704,701
NM_001275706,4782
NM_001275711,68594
NM_001275712,68594
NM_001275715,1982
NM_001275719,3940
NM_001275728,33857
NM_001275742,1990
NM_001275747,21648
NM_001275755,26140
NM_001275759,74787
NM_001275760,71674
NM_001275761,82862
NM_001275764,42947
NM_001275785,47863
NM_001275803,131860
NM_001275805,9454
NM_001275831,15415
NM_001275834,573
NM_001275845,25524
NM_001275859,6308
NM_001275863,3070
NM_001275869,512
NM_001275878,774
NM_001275885,834
NM_001275887,3181
NM_001275896,13307
NM_001275900,5592
NM_001275902,4569
NM_001275909,14470
NM_001275910,14470
NM_001275927,3347
NM_001275930,1551
NM_001275937,1858
NM_001275947,22666
NM_001275951,3709
NM_001275954,2425
NM_001275982,1168
NM_001275997,45572
NM_001275998,45572
NM_001275999,45572
NM_001276003,3269
NM_001276011,3888
NM_001276014,5105
NM_001276035,1611
NM_001276050,12725
NM_001276075,372
NM_001276087,1325
NM_001276089,16172
NM_001276090,16172
NM_001276091,5942
NM_001276092,2466
NM_001276093,14661
NM_001276104,43170
NM_001276106,56607
NM_001276114,1496
NM_001276122,45909
NM_001276131,23803
NM_001276136,5491
NM_001276157,8251
NM_001276177,1755
NM_001276186,8379
NM_001276190,1978
NM_001276196,8937
NM_001276201,14216
NM_001276210,7495
NM_001276211,9785
NM_001276219,877
NM_001276239,135295
NM_001276245,11613
NM_057230,104430
NM_057236,745
NM_057253,2293
NM_057265,17164
NM_057272,602
NM_057275,1095
NM_057291,2615
NM_057329,690
NM_057334,17981
NM_057355,1490
NM_057356,1671
NM_057364,5359
NM_057370,387
NM_057371,428
NM_057390,7633
NM_057410,36423
NM_057414,4019
NM_057436,625
NM_057437,476
NM_057438,6780
NM_057440,2623
NM_057445,1331
NM_057495,38825
NM_057506,4812
NM_057516,22209
NM_057529,25432
NM_057542,2331
NM_057588,10090
NM_057590,911
NM_057603,1123
NM_057643,27734
NM_057645,27734
NM_057671,13495
NM_057705,1799
NM_057710,5843
NM_057722,8270
NM_057723,8270
NM_057724,8270
NM_057725,8270
NM_057728,8270
NM_057760,1986
NM_057768,6585
NM_057790,13465
NM_057792,12830
NM_057800,3755
NM_057818,5951
NM_057830,3479
NM_057840,2441
NM_057869,941
NM_057896,13801
NM_057931,575
NM_057944,3322
NM_058044,1718
NM_058059,925
NM_058076,3669
NM_058129,1630
NM_058130,1630
NM_078501,10105
NM_078536,20523
NM_078544,18988
NM_078545,3373
NM_078546,2714
NM_078594,7931
NM_078603,54513
NM_078608,12958
NM_078638,6148
NM_078662,9595
NM_078665,22939
NM_078682,3160
NM_078693,6791
NM_078701,58829
NM_078712,573
NM_078714,29033
NM_078729,1666
NM_078735,2364
NM_078736,19239
NM_078758,608
NM_078762,9061
NM_078764,6342
NM_078779,6643
NM_078780,1693
NM_078788,767
NM_078796,1472
NM_078811,2644
NM_078820,2173
NM_078822,10629
NM_078824,8093
NM_078825,761
NM_078827,19611
NM_078839,458
NM_078853,2183
NM_078868,1761
NM_078883,1675
NM_078884,5012
NM_078898,1527
NM_078899,936
NM_078910,1359
NM_078911,1825
NM_078913,1801
NM_078925,62316
NM_078951,1622
NM_078955,5209
NM_078958,1400
NM_078970,810
NM_078973,17690
NM_078987,1360
NM_078989,12456
NM_079003,3977
NM_079038,6227
NM_079056,5689
NM_079091,20547
NM_079098,1611
NM_079115,18178
NM_079120,11077
NM_079129,2965
NM_079130,450
NM_079138,11946
NM_079154,24777
NM_079168,479
NM_079183,15487
NM_079187,4674
NM_079189,1769
NM_079231,1512
NM_079237,2623
NM_079255,586
NM_079257,656
NM_079281,2320
NM_079297,3556
NM_079334,1235
NM_079335,128813
NM_079346,3918
NM_079354,1541
NM_079369,736
NM_079415,1382
NM_079429,1270
NM_079452,28994
NM_079460,2689
NM_079480,1583
NM_079497,1632
NM_079524,25386
NM_079528,13948
NM_079548,28305
NM_079593,20409
NM_079629,1234
NM_079732,1274
NM_079736,16210
NM_079772,825
NM_079784,957
NM_079787,882
NM_079788,1137
NM_079811,11828
NM_079818,3280
NM_079825,4435
NM_079830,862
NM_079855,4341
NM_079857,2086
NM_079866,6551
NM_079880,39369
NM_079892,1159
NM_079908,58173
NM_079959,5582
NM_079973,10578
NM_079997,2510
NM_080008,1285
NM_080011,8239
NM_080022,9000
NM_080044,3208
NM_080074,26305
NM_080079,4898
NM_080084,13256
NM_080085,7665
NM_080103,9095
NM_080110,18767
NM_080112,1765
NM_080115,37168
NM_080127,35657
NM_080146,121548
NM_080165,802
NM_080195,31617
NM_080218,1387
NM_080244,432
NM_080255,34653
NM_080273,5296
NM_080290,1435
NM_080293,9794
NM_080299,1402
NM_080348,627
NM_080349,8927
NM_080352,1451
NM_080354,16684
NM_080421,1597
NM_080500,77479
NM_080504,78004
NM_080511,2135
NM_080527,8836
NM_080709,4955
NM_080712,7679
NM_130479,5661
NM_130483,70502
NM_130522,590
NM_130535,5262
NM_130585,847
NM_130614,4103
NM_130644,3166
NM_130645,20544
NM_130646,11652
NM_130647,1543
NM_130676,1106
NM_130685,1672
NM_130704,8788
NM_131925,522
NM_131926,5162
NM_131929,573
NM_131930,2383
NM_131931,2195
NM_131955,21577
NM_131959,530
NM_131973,648
NM_131981,6814
NM_131998,1977
NM_132009,9926
NM_132036,1433
NM_132039,1156
NM_132041,21015
NM_132056,5947
NM_132069,2372
NM_132088,4236
NM_132124,8703
NM_132145,702
NM_132146,1520
NM_132147,4824
NM_132150,43668
NM_132155,1937
NM_132165,794
NM_132168,1477
NM_132169,3045
NM_132170,2478
NM_132171,829
NM_132182,2021
NM_132185,2317
NM_132235,46228
NM_132251,2401
NM_132256,2867
NM_132285,557
NM_132291,354
NM_132306,892
NM_132356,2181
NM_132370,27617
NM_132386,1401
NM_132399,735
NM_132411,4256
NM_132440,2314
NM_132489,2834
NM_132513,4082
NM_132540,8970
NM_132576,2204
NM_132584,13235
NM_132588,1331
NM_132640,22433
NM_132670,1689
NM_132682,989
NM_132686,17774
NM_132710,1138
NM_132712,1096
NM_132741,760
NM_132759,4238
NM_132794,35486
NM_132841,1331
NM_132875,3164
NM_132919,10934
NM_132926,3070
NM_132969,1873
NM_132970,812
NM_132973,1650
NM_133033,1710
NM_133045,1315
NM_133058,31844
NM_133070,1839
NM_133071,814
NM_133091,2456
NM_133095,6118
NM_133119,595
NM_133142,3058
NM_134278,38197
NM_134280,1863
NM_134281,23545
NM_134298,7941
NM_134299,5705
NM_134313,9166
NM_134476,1632
NM_134512,7562
NM_134539,1237
NM_134555,25532
NM_134572,2588
NM_134586,2856
NM_134609,643
NM_134625,26828
NM_134642,4348
NM_134658,2555
NM_134673,898
NM_134708,900
NM_134720,19257
NM_134742,10554
NM_134748,38271
NM_134823,475
NM_134837,10368
NM_134871,14279
NM_134872,1961
NM_134944,2334
NM_134957,631
NM_134958,641
NM_134961,9224
NM_134966,4837
NM_134977,1620
NM_135014,5324
NM_135022,5814
NM_135091,11204
NM_135110,7570
NM_135133,1155
NM_135135,4975
NM_135162,934
NM_135173,1543
NM_135174,985
NM_135179,1968
NM_135221,1871
NM_135229,4404
NM_135231,1362
NM_135262,2376
NM_135270,3249
NM_135284,1410
NM_135291,3013
NM_135311,782
NM_135331,1466
NM_135352,935
NM_135364,3020
NM_135368,3770
NM_135399,129771
NM_135408,3310
NM_135418,2725
NM_135423,773
NM_135443,9750
NM_135448,1134
NM_135456,2154
NM_135493,4193
NM_135494,2560
NM_135499,1182
NM_135506,1389
NM_135526,2519
NM_135528,1734
NM_135536,2515
NM_135581,1702
NM_135589,2143
NM_135595,1164
NM_135603,1258
NM_135618,1257
NM_135620,2094
NM_135621,556
NM_135638,506
NM_135639,1785
NM_135660,6900
NM_135663,1613
NM_135678,1944
NM_135708,15537
NM_135750,1221
NM_135793,23308
NM_135795,4627
NM_135796,1627
NM_135809,1198
NM_135810,793
NM_135816,488
NM_135822,5723
NM_135847,5843
NM_135858,1248
NM_135862,1841
NM_135870,1556
NM_135878,1170
NM_135889,21813
NM_135897,18987
NM_135915,793
NM_135917,2535
NM_135931,1574
NM_135932,643
NM_135933,936
NM_135958,12125
NM_135968,19068
NM_135983,908
NM_136037,16232
NM_136067,2290
NM_136084,1353
NM_136088,1228
NM_136097,3016
NM_136099,866
NM_136110,1589
NM_136115,3068
NM_136116,2750
NM_136124,2046
NM_136158,16780
NM_136187,29508
NM_136204,2935
NM_136206,1262
NM_136224,905
NM_136264,10847
NM_136266,405
NM_136284,1090
NM_136285,11362
NM_136286,1071
NM_136287,418
NM_136293,3178
NM_136342,56120
NM_136355,17732
NM_136360,1109
NM_136374,988
NM_136410,1626
NM_136413,1571
NM_136421,2403
NM_136423,18233
NM_136454,1318
NM_136463,1363
NM_136502,4636
NM_136523,520
NM_136528,935
NM_136529,1112
NM_136542,58339
NM_136549,1452
NM_136560,1103
NM_136563,558
NM_136568,1145
NM_136597,12017
NM_136598,2422
NM_136602,3648
NM_136620,3529
NM_136621,2914
NM_136634,10355
NM_136639,769
NM_136669,1152
NM_136724,4588
NM_136727,28289
NM_136734,1108
NM_136740,1034
NM_136789,1471
NM_136798,6095
NM_136803,481
NM_136817,486
NM_136829,952
NM_136912,3733
NM_136913,3889
NM_136970,771
NM_136992,9476
NM_137052,3584
NM_137062,2944
NM_137076,7167
NM_137113,2431
NM_137135,1177
NM_137146,26305
NM_137147,1512
NM_137196,11256
NM_137209,1598
NM_137238,14296
NM_137279,3741
NM_137309,542
NM_137311,14480
NM_137323,20928
NM_137324,1677
NM_137328,1205
NM_137344,7302
NM_137377,2337
NM_137435,1127
NM_137441,1880
NM_137528,12910
NM_137546,17910
NM_137557,2386
NM_137560,1336
NM_137561,1013
NM_137567,13104
NM_137573,3346
NM_137587,1704
NM_137594,1303
NM_137612,3103
NM_137613,2967
NM_137633,747
NM_137634,2035
NM_137644,476
NM_137661,854
NM_137678,7672
NM_137693,7134
NM_137722,1504
NM_137737,977
NM_137743,990
NM_137767,1571
NM_137778,6492
NM_137793,1640
NM_137808,12853
NM_137816,3497
NM_137819,39602
NM_137829,5167
NM_137854,1955
NM_137865,930
NM_137867,767
NM_137871,54887
NM_137872,1123
NM_137873,57291
NM_137894,1489
NM_137897,1958
NM_137903,31862
NM_137934,3087
NM_137966,1057
NM_137972,1349
NM_137983,44679
NM_137990,6144
NM_138014,857
NM_138017,1927
NM_138038,468
NM_138043,6492
NM_138048,1645
NM_138066,1041
NM_138076,1371
NM_138077,839
NM_138094,11510
NM_138155,785
NM_138989,4195
NM_139397,1970
NM_139399,5484
NM_139408,12316
NM_139409,7655
NM_139415,1446
NM_139416,6491
NM_139418,4248
NM_139436,10663
NM_139479,2158
NM_139500,984
NM_139539,9968
NM_139542,4253
NM_139561,32870
NM_139594,2960
NM_139598,3722
NM_139599,1138
NM_139641,18740
NM_139645,1591
NM_139646,1500
NM_139648,1125
NM_139649,750
NM_139653,1562
NM_139658,6101
NM_139668,641
NM_139676,4500
NM_139677,2306
NM_139688,2365
NM_139713,12528
NM_139720,1796
NM_139721,1136
NM_139750,1576
NM_139757,895
NM_139758,860
NM_139778,3153
NM_139796,3328
NM_139816,17557
NM_139818,606
NM_139858,1716
NM_139859,4937
NM_139863,1850
NM_139865,659
NM_139879,4258
NM_139976,5848
NM_139993,1907
NM_139998,402
NM_140023,2054
NM_140037,1499
NM_140041,7899
NM_140053,13082
NM_140066,1842
NM_140072,1755
NM_140127,1158
NM_140129,1215
NM_140135,1957
NM_140137,2146
NM_140157,1104
NM_140162,803
NM_140164,4348
NM_140167,10283
NM_140185,494
NM_140197,14047
NM_140223,312
NM_140248,442
NM_140273,2698
NM_140284,1831
NM_140291,1908
NM_140341,2272
NM_140352,1115
NM_140353,4193
NM_140354,2085
NM_140357,1962
NM_140360,2284
NM_140388,6391
NM_140389,1457
NM_140409,4063
NM_140416,355
NM_140417,15496
NM_140419,565
NM_140436,2120
NM_140477,19502
NM_140530,2198
NM_140543,2727
NM_140588,4253
NM_140595,1340
NM_140613,635
NM_140614,865
NM_140620,694
NM_140626,809
NM_140628,1130
NM_140657,424
NM_140671,1217
NM_140678,3097
NM_140712,1038
NM_140760,2457
NM_140763,4558
NM_140766,3700
NM_140773,1995
NM_140776,7626
NM_140818,5891
NM_140819,1679
NM_140858,562
NM_140861,2397
NM_140880,11241
NM_140891,2010
NM_140909,1980
NM_140919,3051
NM_140920,583
NM_140931,1429
NM_140934,1921
NM_140940,3750
NM_140988,1627
NM_141009,40857
NM_141016,1019
NM_141041,941
NM_141059,1737
NM_141077,4272
NM_141088,529
NM_141099,690
NM_141133,1617
NM_141170,1875
NM_141171,8647
NM_141276,1047
NM_141315,4196
NM_141342,2689
NM_141343,958
NM_141361,1189
NM_141373,1167
NM_141374,3965
NM_141375,741
NM_141381,12013
NM_141382,1562
NM_141393,3000
NM_141408,1736
NM_141420,1312
NM_141423,786
NM_141424,1124
NM_141428,4086
NM_141429,1153
NM_141441,498
NM_141449,2745
NM_141462,3367
NM_141474,2002
NM_141504,10723
NM_141533,1591
NM_141574,1446
NM_141623,1050
NM_141639,29400
NM_141666,22536
NM_141699,998
NM_141753,1104
NM_141787,1193
NM_141812,2450
NM_141822,1481
NM_141823,5972
NM_141851,654
NM_141884,11259
NM_141892,2384
NM_141913,2129
NM_141929,5298
NM_141952,2386
NM_141960,1328
NM_141963,4853
NM_141977,2089
NM_142003,851
NM_142004,985
NM_142016,3541
NM_142064,1854
NM_142087,2070
NM_142094,981
NM_142111,2016
NM_142133,2170
NM_142151,3625
NM_142197,1127
NM_142228,1193
NM_142230,1288
NM_142247,1283
NM_142251,1934
NM_142270,5217
NM_142297,10857
NM_142305,2828
NM_142307,1982
NM_142309,1846
NM_142313,1567
NM_142322,4223
NM_142331,2330
NM_142344,988
NM_142382,589
NM_142384,1886
NM_142477,12307
NM_142491,898
NM_142539,1094
NM_142557,1995
NM_142570,40321
NM_142573,1978
NM_142618,877
NM_142649,1129
NM_142658,2485
NM_142669,2869
NM_142670,6308
NM_142675,1172
NM_142740,1776
NM_142746,1506
NM_142762,1246
NM_142767,4020
NM_142776,1995
NM_142781,2350
NM_142852,10424
NM_142901,2700
NM_142902,2649
NM_142914,1025
NM_142958,2129
NM_142997,900
NM_143000,2012
NM_143002,2133
NM_143004,1279
NM_143010,786
NM_143035,4887
NM_143044,1286
NM_143056,1639
NM_143058,2164
NM_143084,3654
NM_143086,1827
NM_143127,1552
NM_143189,11975
NM_143190,14017
NM_143194,2408
NM_143227,1107
NM_143231,840
NM_143232,908
NM_143267,1141
NM_143301,1197
NM_143310,3622
NM_143335,1339
NM_143362,54982
NM_143374,1030
NM_143415,6714
NM_143439,4142
NM_143462,1602
NM_143475,1035
NM_143492,1512
NM_143542,913
NM_143564,1329
NM_143567,810
NM_143572,1664
NM_143588,2702
NM_143639,2783
NM_143646,12789
NM_143657,7356
NM_143671,6241
NM_143673,5660
NM_143674,10426
NM_143677,9003
NM_143696,1749
NM_143773,2373
NM_143919,622
NM_143984,826
NM_144026,537
NM_144036,548
NM_144069,748
NM_144103,357
NM_144107,1029
NM_144109,289
NM_144117,424
NM_144142,333
NM_144182,66653
NM_144201,583
NM_144202,425
NM_144231,21675
NM_144357,16319
NM_144362,1968
NM_144364,2123
NM_144404,795
NM_144405,604
NM_144416,1120
NM_164329,21153
NM_164351,11538
NM_164374,42557
NM_164375,20431
NM_164424,1984
NM_164425,1975
NM_164433,3490
NM_164446,2444
NM_164466,1081
NM_164476,5708
NM_164486,8595
NM_164501,19239
NM_164502,20713
NM_164505,6078
NM_164515,5147
NM_164529,544
NM_164530,2370
NM_164531,4740
NM_164532,3462
NM_164540,14134
NM_164541,13654
NM_164542,13769
NM_164546,2527
NM_164574,8546
NM_164618,2766
NM_164626,4501
NM_164627,7779
NM_164641,7604
NM_164654,7990
NM_164657,2420
NM_164662,863
NM_164672,3729
NM_164689,2582
NM_164693,8665
NM_164702,19462
NM_164704,18978
NM_164710,2564
NM_164717,9485
NM_164725,2104
NM_164735,4908
NM_164747,5041
NM_164758,23413
NM_164759,18491
NM_164765,2561
NM_164789,21155
NM_164801,18752
NM_164804,41575
NM_164808,2986
NM_164825,14978
NM_164854,4120
NM_164855,25655
NM_164857,18851
NM_164874,89279
NM_164896,3733
NM_164909,3971
NM_164911,2401
NM_164914,2515
NM_164929,4815
NM_164931,11010
NM_164932,11010
NM_164944,29070
NM_164965,8082
NM_164969,1529
NM_164977,3709
NM_165017,28480
NM_165020,22535
NM_165031,5918
NM_165033,578
NM_165048,4320
NM_165070,2666
NM_165094,21813
NM_165105,17233
NM_165125,20372
NM_165127,6755
NM_165139,2809
NM_165148,1846
NM_165149,9121
NM_165159,19473
NM_165160,19473
NM_165181,22030
NM_165185,22030
NM_165186,22030
NM_165188,22030
NM_165203,2655
NM_165211,856
NM_165223,5505
NM_165229,102481
NM_165233,11457
NM_165246,823
NM_165265,2290
NM_165275,4579
NM_165278,3952
NM_165285,2794
NM_165287,2819
NM_165288,3026
NM_165289,3026
NM_165290,3467
NM_165298,3117
NM_165301,3468
NM_165302,2046
NM_165309,2997
NM_165329,13340
NM_165330,2231
NM_165333,573
NM_165360,13109
NM_165367,23973
NM_165421,5035
NM_165427,22268
NM_165435,52495
NM_165436,52870
NM_165439,1040
NM_165441,14457
NM_165442,3328
NM_165454,2957
NM_165462,65264
NM_165463,66711
NM_165492,2281
NM_165509,51206
NM_165527,7252
NM_165598,474
NM_165600,1603
NM_165607,1635
NM_165636,3225
NM_165681,2790
NM_165694,11822
NM_165699,5462
NM_165707,10057
NM_165708,5708
NM_165709,10841
NM_165712,5708
NM_165720,4266
NM_165730,11145
NM_165737,8843
NM_165754,2542
NM_165769,1036
NM_165829,2792
NM_165833,17690
NM_165874,3733
NM_165906,12456
NM_165917,14434
NM_165967,2245
NM_165976,717
NM_165988,666
NM_165991,6061
NM_165998,7616
NM_166012,4302
NM_166016,77874
NM_166035,6811
NM_166063,41670
NM_166064,2966
NM_166071,1512
NM_166086,1566
NM_166097,1791
NM_166112,1172
NM_166121,5291
NM_166146,13256
NM_166166,2952
NM_166170,2929
NM_166171,992
NM_166173,1899
NM_166187,3839
NM_166190,14480
NM_166216,3732
NM_166217,4433
NM_166233,2238
NM_166248,2751
NM_166260,1908
NM_166291,39591
NM_166315,81102
NM_166318,21604
NM_166322,54804
NM_166338,14687
NM_166370,16775
NM_166377,860
NM_166381,3916
NM_166391,2035
NM_166392,46630
NM_166396,961
NM_166412,3070
NM_166423,7619
NM_166431,3491
NM_166484,3303
NM_166491,1240
NM_166523,3495
NM_166537,4044
NM_166546,19725
NM_166559,3372
NM_166561,4323
NM_166576,3177
NM_166592,843
NM_166605,1294
NM_166609,31469
NM_166653,3833
NM_166666,4025
NM_166686,6952
NM_166697,8725
NM_166703,8343
NM_166705,11694
NM_166708,1118
NM_166730,6852
NM_166747,14478
NM_166751,27134
NM_166784,10013
NM_166785,10013
NM_166798,6851
NM_166809,2694
NM_166813,18416
NM_166826,8292
NM_166834,1796
NM_166839,18224
NM_166842,736
NM_166858,1828
NM_166859,1204
NM_166871,693
NM_166914,3800
NM_166959,167328
NM_166961,83260
NM_166989,2436
NM_166990,4117
NM_167000,11281
NM_167004,67041
NM_167009,223590
NM_167011,4953
NM_167013,10250
NM_167026,21548
NM_167027,6001
NM_167029,60888
NM_167031,56883
NM_167038,1996
NM_167085,6751
NM_167121,45904
NM_167142,16381
NM_167158,4528
NM_167180,1775
NM_167184,806
NM_167185,3860
NM_167188,6323
NM_167192,44513
NM_167216,15238
NM_167226,3600
NM_167259,12871
NM_167262,4783
NM_167274,8812
NM_167280,19627
NM_167281,27099
NM_167294,1246
NM_167300,4207
NM_167310,2240
NM_167312,9426
NM_167338,8387
NM_167365,9555
NM_167367,9162
NM_167380,3159
NM_167394,1247
NM_167396,12314
NM_167403,10212
NM_167405,961
NM_167407,1021
NM_167434,2679
NM_167437,5883
NM_167452,737
NM_167458,3239
NM_167468,1820
NM_167474,8663
NM_167503,6832
NM_167536,14348
NM_167540,1030
NM_167541,633
NM_167553,17998
NM_167571,12010
NM_167574,26073
NM_167592,85977
NM_167595,50926
NM_167607,11258
NM_167635,2028
NM_167645,19884
NM_167663,4075
NM_167669,6116
NM_167690,1370
NM_167709,2508
NM_167718,2588
NM_167719,2588
NM_167754,3065
NM_167757,4583
NM_167761,2953
NM_167793,4198
NM_167798,2134
NM_167810,1367
NM_167837,2448
NM_167845,24777
NM_167846,68509
NM_167863,8783
NM_167864,8783
NM_167880,5738
NM_167914,6259
NM_167924,6491
NM_167961,5080
NM_167977,19274
NM_167978,16088
NM_168007,7355
NM_168019,333
NM_168020,360
NM_168037,84072
NM_168041,803
NM_168042,15487
NM_168054,913
NM_168064,10998
NM_168073,7710
NM_168078,13715
NM_168088,1012
NM_168096,17332
NM_168098,1698
NM_168120,12299
NM_168123,10430
NM_168178,14195
NM_168181,1966
NM_168192,1601
NM_168213,1855
NM_168215,1035
NM_168221,9500
NM_168222,900
NM_168242,7471
NM_168243,7471
NM_168260,554
NM_168278,17565
NM_168298,19567
NM_168311,17148
NM_168315,2812
NM_168318,23673
NM_168321,36312
NM_168363,3393
NM_168367,17565
NM_168375,9652
NM_168389,1940
NM_168400,11250
NM_168404,2778
NM_168407,1722
NM_168418,1121
NM_168431,10283
NM_168433,4119
NM_168434,5625
NM_168441,453
NM_168447,440
NM_168470,29828
NM_168497,6670
NM_168506,3350
NM_168508,3111
NM_168524,5864
NM_168547,14770
NM_168562,1286
NM_168563,23398
NM_168570,2501
NM_168581,972
NM_168602,518
NM_168668,4399
NM_168697,5683
NM_168700,4365
NM_168702,12317
NM_168734,1543
NM_168744,58825
NM_168751,350
NM_168754,4043
NM_168808,5227
NM_168810,5228
NM_168824,13617
NM_168834,1680
NM_168900,1051
NM_168914,4978
NM_168917,4978
NM_168924,4348
NM_168962,11700
NM_168982,621
NM_169011,20430
NM_169014,45683
NM_169026,38901
NM_169039,50901
NM_169051,891
NM_169060,22168
NM_169109,4142
NM_169126,628
NM_169130,2305
NM_169145,8037
NM_169177,20825
NM_169178,2027
NM_169186,1135
NM_169203,32927
NM_169205,14581
NM_169213,1483
NM_169215,1275
NM_169225,2177
NM_169239,9783
NM_169259,167926
NM_169273,1567
NM_169300,5348
NM_169301,5348
NM_169303,4753
NM_169329,9203
NM_169341,1250
NM_169342,1179
NM_169358,5447
NM_169362,4036
NM_169381,2757
NM_169383,1771
NM_169395,4886
NM_169407,14369
NM_169416,4607
NM_169429,2218
NM_169443,1203
NM_169506,5097
NM_169507,6777
NM_169508,1741
NM_169513,6672
NM_169517,1204
NM_169524,749
NM_169547,2742
NM_169586,998
NM_169600,6515
NM_169654,17014
NM_169682,7439
NM_169688,27025
NM_169730,78004
NM_169733,20479
NM_169747,7275
NM_169757,1038
NM_169762,1450
NM_169764,672
NM_169777,7431
NM_169783,71674
NM_169805,7495
NM_169832,4156
NM_169846,38414
NM_169853,21755
NM_169856,1031
NM_169868,2100
NM_169870,5498
NM_169873,40321
NM_169905,12136
NM_169917,1070
NM_169927,49495
NM_169958,1567
NM_169962,17808
NM_169963,47358
NM_169966,3435
NM_170006,4475
NM_170023,1958
NM_170040,1367
NM_170064,3266
NM_170073,677
NM_170087,8169
NM_170094,28800
NM_170108,33371
NM_170155,3015
NM_170157,4419
NM_170164,45572
NM_170166,2640
NM_170172,6542
NM_170176,1354
NM_170179,13140
NM_170190,4725
NM_170205,2159
NM_170214,1651
NM_170219,1985
NM_170221,2807
NM_170232,2266
NM_170243,653
NM_170248,2270
NM_170264,3074
NM_170267,6740
NM_170272,1676
NM_170281,1088
NM_170283,33318
NM_170290,20669
NM_170305,818
NM_170307,5871
NM_170334,1392
NM_170335,1411
NM_170347,2503
NM_170396,6714
NM_170404,1534
NM_170419,7415
NM_170420,29681
NM_170421,1461
NM_170473,4573
NM_170516,2446
NM_170533,758
NM_170534,2732
NM_170552,23003
NM_170578,1106
NM_170649,6036
NM_170655,121548
NM_170660,16885
NM_175941,1956
NM_175959,8993
NM_175971,11288
NM_175981,1307
NM_176034,7994
NM_176152,3733
NM_176155,3534
NM_176233,2172
NM_176245,539
NM_176247,6532
NM_176249,1070
NM_176284,2401
NM_176300,22022
NM_176313,12678
NM_176317,2785
NM_176322,1763
NM_176325,18439
NM_176336,5650
NM_176352,36059
NM_176354,33938
NM_176355,32355
NM_176356,30959
NM_176374,23519
NM_176388,2002
NM_176397,8160
NM_176400,6048
NM_176414,2196
NM_176438,2130
NM_176456,2304
NM_176469,8454
NM_176475,8454
NM_176482,962
NM_176486,2591
NM_176487,3703
NM_176503,2359
NM_176509,60967
NM_176510,60967
NM_176530,2761
NM_176538,1229
NM_176539,10205
NM_176542,12254
NM_176550,4797
NM_176556,19687
NM_176602,134749
NM_176699,2001
NM_176712,7353
NM_176747,2221
NM_205870,8056
NM_205881,8168
NM_205918,1652
NM_205920,3929
NM_205922,2577
NM_205936,4350
NM_205943,25223
NM_205950,16983
NM_205963,10629
NM_205985,54232
NM_205988,49649
NM_205989,49649
NM_205993,1170
NM_205996,2604
NM_206011,8381
NM_206014,717
NM_206078,606
NM_206122,1207
NM_206132,1128
NM_206133,1130
NM_206153,16178
NM_206164,9118
NM_206193,15145
NM_206195,1044
NM_206199,52364
NM_206221,2134
NM_206225,2573
NM_206227,1721
NM_206229,22028
NM_206242,50852
NM_206245,20583
NM_206247,3444
NM_206259,2393
NM_206264,9691
NM_206265,31031
NM_206281,41411
NM_206297,108576
NM_206307,2283
NM_206315,549
NM_206334,1956
NM_206342,5400
NM_206358,7721
NM_206359,5118
NM_206366,6941
NM_206385,1298
NM_206390,6233
NM_206409,1132
NM_206412,5837
NM_206415,3476
NM_206418,3208
NM_206432,5990
NM_206443,26862
NM_206444,36588
NM_206447,36588
NM_206449,102976
NM_206450,102976
NM_206451,102976
NM_206453,102976
NM_206497,78004
NM_206499,3720
NM_206521,16619
NM_206552,17815
NM_206557,1296
NM_206559,1062
NM_206566,45572
NM_206581,2479
NM_206583,6689
NM_206599,12604
NM_206616,3486
NM_206623,5128
NM_206636,17251
NM_206645,8172
NM_206652,8814
NM_206657,33835
NM_206659,6726
NM_206663,8666
NM_206674,49903
NM_206676,49903
NM_206690,54239
NM_206752,14117
NM_206772,1208
NM_206777,5534
NM_206779,16684
NM_206784,4695
NM_206791,19884
NM_206804,9739
NR_001640,67
NR_001659,126
NR_001661,1748
NR_001670,142
NR_001671,127
NR_001679,143
NR_001708,2512
NR_001758,86
NR_001760,73
NR_001768,72
NR_001911,140
NR_001933,123
NR_002076,164
NR_002078,164
NR_002105,1116
NR_002465,168
NR_002472,140
NR_002485,140
NR_002487,111
NR_002503,74
NR_002506,139
NR_002540,148
NR_002541,140
NR_002547,562
NR_002548,55
NR_002551,144
NR_002554,154
NR_003114,2134
NR_003115,643
NR_003723,214
NR_003730,141
NR_003743,151
NR_003745,142
NR_003750,80
NR_003763,101
NR_003764,134
NR_003765,132
NR_003768,137
NR_003769,137
NR_003773,135
NR_003777,124
NR_003778,136
NR_003794,99
NR_003799,76
NR_003801,91
NR_003803,85
NR_003804,77
NR_003807,143
NR_003811,132
NR_003815,133
NR_003818,133
NR_003819,132
NR_003820,138
NR_003822,159
NR_003825,106
NR_003841,72
NR_003843,79
NR_003844,71
NR_003846,139
NR_003848,148
NR_003852,78
NR_003859,139
NR_003869,138
NR_003874,79
NR_003885,144
NR_003900,138
NR_003902,133
NR_003905,147
NR_003909,140
NR_003911,140
NR_003912,152
NR_003917,137
NR_003918,138
NR_003919,142
NR_004368,759
NR_033158,2901
NR_033159,789
NR_033167,3645
NR_037729,672
NR_037737,4105
NR_037743,96
NR_037744,91
NR_037753,299
NR_037755,981
NR_037758,610
NR_047709,87
NR_047714,98
NR_047718,4674
NR_047740,507
NR_047742,668
NR_047748,249
NR_047749,124
NR_047765,137
NR_047801,791
NR_047809,100
NR_047817,3178
NR_047834,118
NR_047865,2286
NR_047876,978
NR_047877,94
NR_047879,111
NR_047909,87
NR_047911,1284
NR_047929,99
NR_047937,18895
NR_047944,155
NR_047947,147
NR_047961,117
NR_047982,7811
NR_048066,161
NR_048082,166
NR_048085,136
NR_048092,92
NR_048100,100
NR_048113,139
NR_048115,581
NR_048124,557
NR_048130,166
NR_048142,704
NR_048146,136
NR_048190,2653
NR_048191,2227
NR_048199,101
NR_048216,131
NR_048227,478
NR_048231,1420
NR_048232,186
NR_048293,1754
NR_048303,176
NR_048324,160
NR_048326,160
NR_048331,140
NR_048342,122
NR_048343,392
NR_048344,392
NR_048345,515
NR_048349,1812
NR_048355,161
NR_048360,100
NR_048433,1069
NR_048434,1069
NR_048435,1069
NR_048443,147
NR_048457,158
NR_048466,503
NR_048471,423
NR_048501,1024
NR_073622,3018
NR_073635,528
NR_073679,812
NR_073686,780
NR_073693,996
NR_073698,8396
NR_073702,1219
NR_073728,1293
NR_073729,757
NR_073749,964
NR_073751,1198
NR_073761,1140
NR_073771,528
NR_073778,505
NR_073789,428
NR_073818,502
NR_073822,531
NR_073827,801
NR_073828,1351
NR_073841,698
NR_073848,700
NR_073849,701
NR_073856,308
NR_073858,1100
NR_073869,649
NR_073899,755
NR_073906,428
NR_073922,471
NR_073934,969
NR_073948,1042
NR_073974,315
NR_073983,674
NR_074010,500
NR_074011,897
NR_074046,634
NR_074047,2656
NR_074057,534
